*** Life<Cell> 21x23 ***

Generation = 0, Population = 15.
----------0------------
-----0-----------------
----------------0------
-----------------------
-----------------------
--0-----------0--------
-----------------------
------------------0----
-0---------------------
-----------------------
-----------------------
-------0-----0---------
-----------------------
----------------------0
-------------0---------
-----------------------
-----------------------
-----------------------
---------------0-------
----------0------------
0----------------0-----

*** Life<Cell> 10x27 ***

Generation = 0, Population = 18.
---------------------------
--------0-------------0----
-0---0---------------------
---------------------------
-----00--------------------
-------0-------------------
--------0---0---------00---
------------------0-------0
---0---------------0-------
-------------------00----0-

Generation = 7, Population = 127.
0-01--100100-00-0-0--0*10--
--1--0--0--0101-----001000-
-01-1..00*---010--0--*11--0
0---110--0-1-00010-1--1----
-11.-..--.----00-11.-1*--0*
-10*0*-**----11-0--..-**011
010--**0----00----..-..*.0-
-00*00--*0-1--11---.1-10*.*
--01-.--010---01---..-.---0
---00*-.-10--1--.-1*.*111..

Generation = 14, Population = 112.
1--.*1.1***1*-*--1-.--..0-0
.*-*01-.-*0-.1*-.*01*-*1**.
-..0*.......**.0.-*1*.**--.
*-.11.....1..**--.*---*-*-0
1*..*...1...0*.--*..**.---.
0*-...-*.-..1**-1-..*-*.-.1
1-.-**.-.-*1-1..-1.*..*...-
-.1.011*.-1..1.*.-.*...**.*
-*....10.--..--.*.-.*..**-*
0-1--*-*-.1.*-*1**...*****.

Generation = 21, Population = 102.
---.***...*..-..-.-.-0...-1
.*..-*.*..*...*0*...**..**.
-..1***.**....*..-....***1.
.**-**..*.-****.*.*-****.*-
.*......-...-..*-.*....*-**
*....*..*-.*.....1.****...*
*..-...**..*.*..*...**.....
....-***.1*....**.....**...
1*....****0...0*..-...*.*-.
.1****1.1*-.***.*.....**...

*** Life<Cell> 38x16 ***

Generation = 0, Population = 1.
----------------
----------------
----------------
----------------
----------------
----------------
----------------
----------------
----------------
----------------
----------------
----------------
----------------
----------------
----------------
----------------
----------------
----------------
----------------
----------------
----------------
----------------
----------------
----------------
----------------
----------------
----------------
----------------
--------0-------
----------------
----------------
----------------
----------------
----------------
----------------
----------------
----------------
----------------

Generation = 18, Population = 14.
----------------
----------------
----------------
----------------
----------------
----------------
----------------
----------------
----------------
----------------
--------0-------
----------------
------0---0-----
----------------
--------0-------
----------------
----------------
----------------
----------------
----------------
----------------
----------------
----------------
----------------
----------------
----------------
------0-0-------
----------------
----0-0-0-0-----
----------------
------0---------
----------------
------0---0-----
----------------
--------0-------
----------------
----------------
----------------

Generation = 36, Population = 16.
--------0-------
----------------
----0-------0---
----------------
----------------
----------------
--------0-------
----------------
----------------
----------------
----------------
----------------
--------0-------
----------------
----------------
----------------
----0-------0---
----------------
----------------
----------------
--------0-------
----------------
----------------
----------------
------0---0-----
----------------
----------------
----------------
--0---0---0---0-
----------------
----------------
----------------
------0---0-----
----------------
----------------
----------------
----------------
----------------

*** Life<Cell> 4x38 ***

Generation = 0, Population = 24.
-0------0---0-------------------------
----0-0--00----------000-----0-0------
-----00---0---------0-0-----0---------
0-----------0-0------0--0-----0-------

Generation = 5, Population = 76.
0--0*01-10--1--0--0-.-*10-00--00-0-0--
--1-***-*--11*--011.1-1*-0*00***0---0-
-0-1-.01.11010--*--0*-.**-*-*010--00--
-010------0-0-00---------1*-**---0-0--

Generation = 10, Population = 68.
**--**-**-*-.-.0-1.1.*.*.0---001.00-0-
10-*......-1-*..-*-*...*0.***....0-1--
.**.**1*...*-.11.**-.0...-.*.0*1*-----
.1-0--.---*1***.0*-010-.-.*-*.***-0---

Generation = 15, Population = 50.
.*-*..-..-.-.1.-1..**....-1.-*0..0**-*
*..*......1*.*.*-..*....1.*...*...---0
*..*..-...*.**1....-.....*..**..*-1-.-
...---..-1.*******.*1-..1...*....--**0

Generation = 20, Population = 29.
..-...-..-.-...--...........-.-....*..
...**........***........-*.......*-.-.
...*.*1..*..*.-**...*...**.......0.-.0
...-**..1-**...**...*...-........-0...

Generation = 25, Population = 27.
..-*.**..1.-...-1...........-.-.......
.....*.*...*............**..........1.
..**.*.*...*..-.........*.........*.*0
...-*.***-...............*.......0-*..

Generation = 30, Population = 28.
.**...*..-.-...1-...........-.-....**.
*..*..***...............**........*..*
.**...*.*.....-.........**.......**.*1
...-...*.........................01...

Generation = 35, Population = 29.
.***.....-.-...-1...........-.-...***.
*.....*.................**.......*....
.****..*......-.........**.......*.**1
..*1..*..........................0**..

Generation = 40, Population = 23.
.***.....-.-...1-...........-.-.......
*..*....................**............
**..*.........-.........**........***.
***1.............................-***.

*** Life<Cell> 26x12 ***

Generation = 0, Population = 14.
------------
----------0-
------------
------------
------------
------------
-------0--0-
---0--------
0-------0---
------------
--------0---
-----------0
------------
-------0----
------------
------------
------------
------------
------------
-0--0-------
------------
----------00
-----0------
------------
------------
------------

Generation = 1, Population = 51.
----------0-
---------0-0
----------0-
------------
------------
-------0--0-
---0--0-00-0
0-0-0--00-0-
-0-0---0-0--
0-----------
-------0-0-0
--------0-0-
-------0---0
------0-0---
-------0----
------------
------------
------------
-0--0-------
0-00-0------
-0--0-----00
-----0---011
----0-0---00
-----0------
------------
------------

Generation = 2, Population = 47.
------------
--------0---
------------
----------0-
-------0--0-
---0--------
0----0---1--
-0---0------
0-0---010---
---0-------0
0-----0-0-0-
-------0-0-0
--------0---
-----0---0-0
------------
-------0----
------------
-0--0-------
------------
--11--0---00
-----0------
-0--0---01-*
---0---0----
----------00
-----0------
------------

Generation = 3, Population = 107.
--------0---
-------0-0--
--------0-0-
-------0-010
---0--0-0010
0-0-00-0-00-
---0010-0-0-
0---01-000--
-0----1-10-0
----0--0----
-0-0-0-0-0-0
0---------0-
-----0---0--
----0-0-----
-----0-0-0-0
------0-0---
-0--0--0----
0-00-0------
-0000-0---00
-0**0--0-011
-000----000-
0-0-----1*-.
-00---0--00-
---0-0-0-011
----0-0---00
-----0------

Generation = 4, Population = 47.
------------
------0-----
-------0--1-
---0--------
0-------1---
----------1-
---1--1-1-10
-------1---0
--0---------
-------1----
----0--1--0-
---0---0-0--
0-------0---
---0-------0
--------0---
-0--0------0
------------
-------0--00
-----0------
01..-0--0---
------------
------00-.1.
-1-------1--
-0--0-------
------------
----------00

Generation = 5, Population = 123.
------0-----
-----0----0-
---0----00-0
0-0-0--00-1-
-0-0---0-01-
0--0--0--0*-
--0-01-0----
--00-------1
-0-0-------0
--0-0-0*0-0-
-----00-0--0
0-0---010---
-0---------0
0-0-0-----0-
-0-00--0-0--
0-00-0--0-0-
-0--0--0--0-
-----00-0011
00--01000-00
1*..0100-0--
00---0000-0-
-0---0111.-.
0*0-0-000---
0100-0---0--
-0--0-----00
---------011

Generation = 6, Population = 107.
-------0--0-
---00---0---
0----0---1--
-0---00---*-
0-01---11-*0
---1---00-*0
001-1*1-1110
-----1-1--0*
0--1--111--1
---0-0-.---0
0----11--0--
-0-0-----0--
0-0-0-000---
---010-0----
0-----0-0-0-
--1---00-010
-----0--0---
0---0-------
--00---1----
*.*.---1--11
-10--1---0-0
0-------*.1.
-.-0---1----
--11---0---1
-1-------0--
-0--0---01*-

Generation = 7, Population = 161.
---00-0--0-0
0-011-----0-
---0-1------
0--00-1-0-*-
-01-00----.-
-00*-0--10.1
1-*1***----1
-000-*-*0--.
-00*00***0--
--01-10.0001
----0-*10100
0-0--0-1-10-
-0--10111---
---1*1-10-0-
-0000-1--01-
00-0---1-1*1
0-0-------00
-00----00---
-0-1--0*0-00
....-10*0-*-
0*-00-00---1
--00-0--**-.
0.-10-0*--00
--*-0-01001-
0*-00--0-1-0
0100-0-01**1

Generation = 8, Population = 81.
0------00-0-
--1---0-----
--------0---
----------.0
---------0*0
---.---0*1**
--.-...--11*
---1-.-.---.
0--.--...--1
------1.1-1-
0-----.*1---
-0-001------
------------
----.----010
-----0-0--*-
---1------.-
1-1-----0---
---------0--
010-0--.1--1
**.*-*-.--*1
1*0-1---00--
--11--11**-*
-*0--0-.01-1
--*------1-1
-.---------1
-*--0----*.-

Generation = 9, Population = 107.
-00----11--0
00-1-0----0-
--0---00-1-0
--------00.1
-------1--.1
---.--01.-..
--.1...0--**
0-0-0.-.-00*
-0-.--...---
-----1-.*---
---001**-10-
---1-*010---
-0-010---000
----.1-101*1
---00---0-*-
0---00-10-.-
-------0----
-0--0---0-11
-*11---.---*
....-*0.--*-
-.----0-----
00**--*-..-.
0*1-0--.-*--
--*1-0---*--
-.0-0-----0*
0.00-0--1..1

Generation = 10, Population = 138.
--1--00**0--
1-------0--0
0-----110*11
--0---101-.-
-------*-0**
---.-01**-**
1-.-..*11-.*
-0-1-.-.011*
---.00...001
-0-1-*-**-1-
--0---..-*10
-00--.1*11-0
0----1--1-1-
-0--.*-*1*.-
0-01-0-0-0*-
-0---1---1.-
10---0010-00
01---0----*-
0*-*-10.1-0*
..*.0*-.-0.-
1*00---0--0-
-1.*-0.1..-.
-.*---0.0.0-
0-.*--0-0*-1
0.---0--0-1*
-*-10-00-.**

Generation = 11, Population = 152.
00-001-**100
*01--0-0-0-1
100--1-*-.--
00-0-0---0.-
--1--00.-1.*
0--.01*..1..
--.1.*.**-..
-----*0.-**.
---*1-**.---
0-0-0*-.*--1
-01--1..1.*-
-1-1-.***--1
-00-1*-1----
0--1.*-**..-
--1*---101*0
01-10----*.1
-11-01--10-1
1*000-00-0.1
-.1*0*1.-0-*
....1*-*--.1
*.1---010--1
-*.*--.***-.
0**1--1.1.--
11..0-1-1.-*
1*----0-11-.
-.-*1011-***

Generation = 12, Population = 115.
--11---*.*--
.-------010*
*---0--.0.-1
-------011*1
-----1-.1-..
-00*1-...**.
1-.-...**1*.
-----.-.-*..
0--*--.**001
-011-.-.*0--
-----*..-.*0
0----...*1--
--1-**1-1--0
--0*.*-...*1
--*.-01-1*.-
1------10..-
1*--1*--*1--
*.-11--10-.-
0.-.-.-.11-*
.**.-.-.-0.-
.*--1-1---0*
0..*0-...*1.
-..--0*.-.-1
**.*-----.1.
-*00---0---*
0.0.--**1**.

Generation = 13, Population = 155.
-0**0-0..*-0
.-111----*-*
.0-0-1-.-.1-
0---0011--*-
-011--0**1.*
-1-**-.*..*.
--*1.....-..
---1-.-.0..*
---*1-.*.--*
-1--0.-*.-1-
00100...-.*1
-10-0.****--
00*0***-*--1
-01...0.*.*-
00**0-*1-**0
*-1-0--*1..-
**1--*01.*0-
*.0*--0*10*1
1.1*0.-*---.
***.1.0.-1.-
**--*--1-0-*
-..*--*..*-.
-**--1..-*0-
**.*0011-.-*
1.1-0--1-11*
-.1*-0**-**.

Generation = 14, Population = 131.
01..---...-1
.0----0-0*0*
.-01-*-.-**-
-00011*---*-
----0--..*.*
0*-.*1**.**.
--.*.....-..
-----.-.-...
-00*-0.**--*
-*-1-*1..0*1
1-*-1.*.1.**
0*1--.*.**--
1-.-*..1.---
01*...-.*..1
-1..--*--.*1
.--11-0.*..1
*.*--*1*..--
*.1.---.-1.*
-.*.-.1.--0.
....-.-*0**1
*.--*11----.
0..*--*..*-.
-*.1-*.*1*1-
*...11--1.1*
*.*-100---**
0*-*11**-*.*

Generation = 15, Population = 148.
1-..--0..*-*
*1-1----1.1*
.0--0.1*-..-
0111***1-1.-
0-1--1-***.*
1.0**-*.***.
10..***..1..
-00--.-.0...
0--*-1.**--*
-.-*0.-..1.*
*-.0-.*.*..*
1.-1-.*.**-1
-0.0...-.0-1
-**...0*..**
-*.*00.1-***
.1-**1-...**
..*--****.--
..-*-0-*1-*.
1*..-.-*111.
....1.0*-***
..--*---0-0.
1***-0...*-.
0***0*.**.--
*.*.-*--*.*.
*.*0*---1-..
-*1***.*-..*

Generation = 16, Population = 125.
*-..-1-..*0*
*--------***
.--11.-.-**1
-**-...*1**1
-0-10*-.....
-.-..-......
--..*.*..**.
0-1-0.0.1*..
---*1-.**-0.
-.1*1*1..-.*
.0*--*..*..*
**1-0...**--
-1.1..*1.11-
0*...*1*....
0*..1-.*-*..
.*1..*-....*
..*0-...*.-1
.*-.-10.*1*.
*...0*-.***.
....**1.-..*
.*1-*-1---1*
-...-1**.*-.
1...-*.**.1-
*...1*1-*...
*..1.0--*1..
-**..*..-...

Generation = 17, Population = 120.
.1..0-0..*1*
.1-110--1...
.0-**.-.-..*
0*.1.*..-..-
011*-.0.***.
-.-*.1......
1-.*...****.
---1-.1.-...
0-0.*-..*0-.
-*-.*.*.*-**
*-.-1.*****.
*.-1-**...-1
1-.-*..-.-*1
-...***..**.
-...-0.*-...
*.-.*.0.*.*.
...11****.-*
.*-*--1..*.*
....-.1.*..*
.*....-*0..*
..*-*-----**
1*..--...*1*
*...-.....-1
**..*.*1....
*.*-.--1**..
-**.*...1...

Generation = 18, Population = 108.
.***11-..*-.
*----1-0-*.*
.--...-.0...
-..-.*..1**1
-*-*0*-..*..
-.-*.-*.....
-0**..****..
---*-.-.-.*.
-0-.*1..*1-.
0*-.*.*..-.*
*-.-*...*...
**1--.*.*.0*
*1.-...-.-.-
0...*.*..***
0...11.*-.*.
..-*..1.**..
..*-*...*.-*
..-*---..*.*
..*.-.*.**.*
......-*-*.*
*.*-.1-10-..
-*..0-...**.
....0.....-*
*.....*-....
*.*1.---.*..
-***...***..

Generation = 19, Population = 120.
.***--0.*.1.
.-11-*--1**.
.--...-*1..*
-..1.*..-.**
0.-*-*-.**..
-*-..-*..*..
11.**.****..
---*-*1.-.*.
-10***...*-.
-*1**..**1..
.0*0.....***
..*10..*.*1.
.-*-.*.-.1.-
-...*.*..***
1..*-*.*-..*
..-*..-.***.
..*-*..**.0.
..1*--1*.*.*
....-..*.*.*
.*....-.-*..
.*.0.---10..
-*.*1-..***.
....1*....-.
.*.*...1....
*..-.-01.*..
-*.*....**..

Generation = 20, Population = 116.
.*.*1--**.*.
.----.--*.**
.-0*..1*-..*
0..*..**-.**
-.1.-*-.**..
1*0*.-*...*.
*-.**...***.
0--.-.-.1.*.
0-1....*.*-.
0.-..*...*..
.-.1...*...*
...*1.....-*
.1*-.**1.-.1
0..**.*.**.*
-..*1***-..*
..-*..-...**
..*-*.*...1*
..-*-1*..*.*
..*.-.**.*..
..*...-.-*..
**.1*--1-1..
1..*--..*.*.
....-*..**1.
....**.**...
**.-.01-.*..
-......***..

Generation = 21, Population = 134.
....*10**.**
.11-1.00*.**
.01*..-.-*..
-*.***..-***
-.*.0*0.**.*
-.1..-.*..*.
*-.**..**.**
-01*0.-**.*.
---......*-.
1*1...*...*.
.-.*......*.
...***.*..1*
.**1..***1.-
-*......*..*
1.*.*.**-*.*
..-...-*....
..*-*.*..*-.
..1*1*..**.*
..**-***.*..
..*...1*0**.
**.-*11-1**.
****-1.*..*.
....-**...-.
....*..*..*.
...-*-*1.*..
0.....****..

Generation = 22, Population = 113.
...**-1.*.**
.--1*.-1...*
*1*...1*-...
0*....*.-..*
-**.-.1**..*
1**..1......
.-..*.*...**
-1-.-.1*..**
0--....***0.
***......**.
.0.*.**..**.
.....*.*..-*
.*.-.**..*.-
-....*......
-*....**1.*.
.*-...1*..*.
..*1*.**.*1.
.**.*....*..
.*..0.......
..*...*.1...
*..-**---..*
*.**1-.**.*.
.***-*.*..-.
....*..**...
...1.-.*.**.
-....**..*..

Generation = 23, Population = 116.
...**--*..**
.1--*.0**.**
****.*-*1...
-....*..1...
0...-*-*....
*.**.-....**
*-*...**..**
--1.0*-.....
111...**..1.
*.*...**...*
*1..***.**.*
..*....***-.
...-**.....1
-....*..**..
1....*..**..
.*-*..*...**
...-*.**.*-.
.*..*...***.
.*..1*......
.*.**...-...
..*-**-1-*..
*...-1.**...
.*..-*...*1.
....*..*.*..
...-*0.*.**.
-.....*.***.

Generation = 24, Population = 125.
...**1-*****
**-1..1...**
****.*1.*...
-.*..*..*...
1*..0.-.....
*.**.1.*..**
.-*.***...**
---.1*1...**
--*....*..-.
..**.....*.*
****.*...*..
.*.*...*.*1.
...1****..*-
0....**.***.
-...*****...
..-.*.*...*.
..*-*.**..1*
...**.*****.
**..**...*..
.*....*.-...
.**1.*-*1...
.*..--.*..*.
....-*.*.**.
....*.......
...1*1.*....
-....****.*.

Generation = 25, Population = 102.
..****1***.*
*.1-..*....*
*..*.*-..*..
-....***....
-...-*-.....
*.*..*....**
.1*....*.*..
---.-.-*..**
-1*.***...1*
....*...*.*.
*........*..
**.....*.*-.
..*-.......1
-..*......*.
1...*...*.*.
..1.*...****
...1*.....**
.**........*
*****....**.
...*..**1...
**.*..1**...
.*..--.*..*.
....-.*.***.
...*....*...
...*.-.**...
-....*.**...

Generation = 26, Population = 101.
.********.*.
..*1.....*..
.*..**1*....
0....*......
1...0*-.....
..*...*...*.
.**...*.**..
---*1*-***.*
1*.*****..*.
.*.**.....**
**.......**.
**......*.1.
.**-......*-
0..*.....***
-...*...*...
..-.**..*...
.*.**.......
*........*.*
*...*..****.
.....**.-...
**....-..*..
***.--....*.
....-...*.*.
............
....*1*..*..
-.....***...

Generation = 27, Population = 87.
.*..******..
...-.....*..
.*****-.....
1*..........
**..1*-.....
..**..**.*..
.**.*.*.....
0--.*.-.....
**.....*....
...*..*....*
............
..........-*
..*-.......-
-***.....***
1..***..*.*.
..-..*......
...***......
**.**....*..
.....******.
**...***1.*.
*.*...1.....
*.*.--....*.
.*..-....*..
.....*...*..
.....-*.*...
-.....***...

Generation = 28, Population = 78.
.....*****..
.*.1...*.*..
*****.1.....
-...........
*..***-.....
*.....**....
.**.*.**....
111*.*1.....
**..........
............
............
..........1.
.**-.......-
-*.......***
-*.*.*....**
..-...*.....
..**.*......
..**...*.**.
..*.......*.
**......-.*.
*.*..**..*..
*.*.--......
.*..-....**.
........**..
.....-*.**..
-.....*.*...

Generation = 29, Population = 71.
......**.*..
**.*.....*..
**.**.-.....
-...........
....**-.....
*.*....*....
....*.......
--****-*....
*...........
............
............
..........-.
.**1.....*.1
0*.......*.*
1.*......*.*
..1*.**.....
..***.*.....
.*..*....**.
..**......**
*.*.....-**.
*.*.........
*.*.-1...**.
.*..-...***.
.......*....
.....1......
-.......**..

Generation = 30, Population = 75.
........*...
**.**...*...
**.**.-.....
1..*.*......
......1.....
...***......
.**.***.....
11.***-.....
...**.......
............
............
..*.......-.
****.......*
-..*....**.*
*.**........
..*..**.....
.*....*.....
.*..**...***
..**.......*
..*.....1***
*.**........
*.*.1-..*.*.
.*..-...*.*.
........**..
.....-..*...
-...........

Generation = 31, Population = 70.
............
**.**.......
.....*-.....
****.*......
...*..-.....
..**........
**....*.....
*-....-.....
..**.*......
............
............
..**......-.
.*.*......*.
-...*.....*.
.****.......
..**.**.....
.**.*.*...*.
.*.***....**
.****...*...
........****
..*.....*..*
*.*.-1......
.*..1..**.*.
.......**...
.....-..**..
-...........

Generation = 32, Population = 56.
............
....*.......
.....*1.....
.***........
......-.....
.***........
***.........
*-*...1.....
............
............
............
..**......1.
...**.......
-*..*.......
.*..........
......*.....
.*....*...**
*........***
.*...*..*...
.*.....**.**
.*......*..*
..**--.***..
.*..-.****..
............
.....-.***..
-...........

Generation = 33, Population = 51.
............
.....*......
..*****.....
..*.........
......-.....
*..*........
*...........
*1*...-.....
............
............
............
..***.....-.
....*.......
0.***.......
............
............
.........*.*
**.......*.*
**.....**...
***....**.**
.*.........*
.**.1-*...*.
..*.-.*..*..
......*.....
.....-..*...
-.......*...

Generation = 34, Population = 50.
............
...*.**.....
..*****.....
..*.**......
......-.....
............
*.*.........
*-....-.....
.*..........
............
...*........
...**.....-.
.*...*......
-..**.......
...*........
............
............
**.......*..
.......*...*
..*....*****
...*...*.*.*
.***--....*.
.***1.**....
.......*....
.....-.*....
-...........

Generation = 35, Population = 44.
............
..**..*.....
..*.........
..*...*.....
......-.....
............
.*..........
*-....-.....
............
............
...**.......
..***.....-.
..*..*......
-.***.......
...**.......
............
............
............
.*.....*...*
......**.*.*
.*.*...*...*
.*..--***.*.
.*..*.**....
..**...**...
.....-......
-...........

Generation = 36, Population = 40.
............
..**........
.**.........
............
......1.....
............
............
.-....-.....
............
............
..*.*.......
..*..*....-.
.*...*......
-.*..*......
..*.*.......
............
............
............
......***.*.
..*...**...*
..*......*.*
**..11..*...
.*.*.*...*..
..**..***...
.....-......
-...........

Generation = 37, Population = 55.
............
.***........
.***........
............
......-.....
............
............
.-....-.....
............
............
...*........
.*****....-.
.**.***.....
-*****......
...*........
............
............
.......*....
......*.*...
......*..*.*
..**.****.*.
**.**-..***.
**.*.*...*..
..***.***...
.....-.*....
-...........

Generation = 38, Population = 45.
..*.........
.*.*........
.*.*........
..*.........
......-.....
............
............
.-....-.....
............
............
...*........
.*....*...-.
*.....*.....
0*....*.....
...*........
............
............
.......*....
......*.*...
.........**.
.***.**....*
*....1....*.
*....**...*.
.********...
...*.-***...
-...........

Generation = 39, Population = 44.
..*.........
.*.*........
.*.*........
..*.........
......-.....
............
............
.-....-.....
............
............
............
..........-.
*....***....
-*..........
............
............
............
.......*....
.......***..
..*..***.**.
.**.***..*.*
*.*..-....**
*.**.....*..
.***....**..
...*.-..*...
-......*....

Generation = 40, Population = 38.
..*.........
.*.*........
.*.*........
..*.........
......-.....
............
............
.-....-.....
............
............
............
......*...-.
......*.....
-.....*.....
............
............
............
.......*....
.........**.
.****.......
..*.*..***.*
*...*1...*.*
*.......**..
.*..*...**..
...*.-.***..
-...........

Generation = 41, Population = 30.
..*.........
.*.*........
.*.*........
..*.........
......-.....
............
............
.-....-.....
............
............
............
..........-.
.....***....
-...........
............
............
............
............
..**........
.**.*.......
..*.....**..
.*.***.*....
**..**......
..........*.
.....-.*.*..
-.......*...

Generation = 42, Population = 30.
..*.........
.*.*........
.*.*........
..*.........
......-.....
............
............
.-....-.....
............
............
............
......*...-.
......*.....
-.....*.....
............
............
............
............
.***........
.*..........
.....*..*...
**.*.**.*...
****.**.....
............
.....-..**..
-.......*...

Generation = 43, Population = 33.
..*.........
.*.*........
.*.*........
..*.........
......-.....
............
............
.-....-.....
............
............
............
..........-.
.....***....
-...........
............
............
............
..*.........
.**.........
.*..........
***.****....
*..*........
*..*.***....
.**.........
.....-..**..
-.......**..

Generation = 44, Population = 37.
..*.........
.*.*........
.*.*........
..*.........
......-.....
............
............
.-....-.....
............
............
............
......*...-.
......*.....
-.....*.....
............
............
............
.**.........
.**.........
...*.**.....
*.*****.....
*..*........
*..**.*.....
.**...***...
.....-..**..
-.......**..

Generation = 45, Population = 33.
..*.........
.*.*........
.*.*........
..*.........
......-.....
............
............
.-....-.....
............
............
............
..........-.
.....***....
-...........
............
............
............
.**.........
.*.*........
......*.....
.**...*.....
*.....*.....
*..****.....
.***.**.**..
.....-......
-.......**..

Generation = 46, Population = 33.
..*.........
.*.*........
.*.*........
..*.........
......-.....
............
............
.-....-.....
............
............
............
......*...-.
......*.....
-.....*.....
............
............
............
.**.........
.*..........
.*..........
.*...***....
*.***.**....
*..*........
.***..**....
..*..1.*....
-...........

Generation = 47, Population = 39.
..*.........
.*.*........
.*.*........
..*.........
......-.....
............
............
.-....-.....
............
............
............
..........-.
.....***....
-...........
............
............
............
.**.........
**..........
***...*.....
**.***.*....
*.***..*....
*....*......
.*.**.**....
.***.-.*....
-...........

Generation = 48, Population = 36.
..*.........
.*.*........
.*.*........
..*.........
......-.....
............
............
.-....-.....
............
............
............
......*...-.
......*.....
-.....*.....
............
............
............
***.........
............
...****.....
.....*.*....
*.*.........
*....*.*....
**.*****....
.*.**-**....
-.*.........

Generation = 49, Population = 37.
..*.........
.*.*........
.*.*........
..*.........
......-.....
............
............
.-....-.....
............
............
............
..........-.
.....***....
-...........
............
............
.*..........
.*..........
.*****......
....***.....
...*.*......
.*..........
*.**.*.*....
**.*....*...
**...1.*....
-.**........

Generation = 50, Population = 35.
..*.........
.*.*........
.*.*........
..*.........
......-.....
............
............
.-....-.....
............
............
............
......*...-.
......*.....
-.....*.....
............
............
............
**.**.......
.***..*.....
......*.....
.....**.....
.*.*..*.....
*..**.......
...*...**...
*..**-......
0**.........

*** Life<Cell> 7x20 ***

Generation = 0, Population = 2.
----------0---------
--------------------
--------------------
--------------------
--------------------
-0------------------
--------------------

Generation = 14, Population = 26.
----0-0-0---0-0-----
---0-------0--------
--0-0-0-------0-0---
-0---0---0---0------
0-0-0-----------0-0-
---0-------0---0----
--0---------------0-

Generation = 28, Population = 24.
0-0---0-0-0---0-0-0-
-----0---0-----0---0
--0---0-----0-----0-
--------------------
--0---0-----0-----0-
-0---------0-0---0--
--------------------

*** Life<Cell> 17x9 ***

Generation = 0, Population = 27.
----0----
-0-------
----0----
----0----
-0-------
---------
--0--0-0-
---0--0--
0--0--00-
--0------
-0-------
---------
---0-----
0--------
-0---00-0
0---00---
--00-----

Generation = 2, Population = 62.
--0---0--
---00----
-10-*-0--
-10---0--
--1010-0-
---00-0--
-1--101--
-00-10--0
0---11-*1
1--00-1--
1--0--00-
0-0------
-0----0-0
--0-01---
--1-0-*0-
---0--00-
1-**0-0-0

Generation = 4, Population = 64.
01--1---0
-----1---
1-0-*0-10
1--0--*-0
00-***00-
-10------
1*-0.-11-
--*-.--0*
-0--*--.1
------.--
--0--10*1
*--0000--
0-1---0--
----0.---
-1.1*1.-1
-01--1--0
10*.-0-10

Generation = 6, Population = 85.
*.11-0-10
0----.110
.---.--.-
1--*--.0-
0--...-*-
-.*1*110-
..-0.-*10
1-*-*-1-*
*00-.*0.*
1-1011.10
*10101*.*
.--*-**-1
*0-00-*10
11*0-*1-1
-..*.-*1*
0--11--00
***.**1.0

Generation = 8, Population = 74.
*..*101--
*11*0**.-
.-01*0*.1
**-.--.-*
*1*..*1.-
1...*1.*-
..-*.1..-
*1.***--*
*0-1..-..
-0*-**.**
.-*1*-*.*
.--.-..-1
.0**-0.--
-*.--*.-1
0....-**.
*-1-1-*0*
**...**.*

Generation = 10, Population = 57.
.*...*---
*1**0...1
*--****.*
*.*.*0.*.
*.......-
*....*..-
*.1..-..1
*1....--.
.*-*..0..
-0.1.....
.-.-.-...
.-0.-..1*
.0*.1-.11
-***-*.--
*.*..-*..
.-1-1*.**
**...**.*

Generation = 12, Population = 56.
***..**11
...*0.*.*
*1-...*.*
*....0.*.
**...***0
**..*.*.-
**-..-..1
*-....-0.
.*1...0..
**.*.....
*-.*.-...
.--.1..1.
.-..--*--
-...*..1*
...*.-...
.1.-*...*
.*.***.*.

Generation = 14, Population = 56.
..*..*.11
*...*.*..
.*1.*..*.
.*.**-.*.
.....*..-
...*...*0
..-*.-..1
.-**..-0.
*.**..-..
....*....
.-***1...
.-1*1**1.
.-..1****
-...**...
..***-***
...-.**..
..**.*...

Generation = 16, Population = 49.
.....**.*
..*.*...*
*...*.*..
*...*-..*
..*...*.*
..*.***.0
..1**1.*.
.*..*.-0.
*****.0..
*..*.....
***..1...
.1-.1..1.
.0.......
-........
.....-...
...1***..
.....*...

Generation = 18, Population = 46.
....***..
...**.**.
......*..
**.*.-**.
**.***.*.
***.....-
**-..-.**
**....1**
....**0..
.*...*...
...**-...
.11*1..-.
.-.......
-........
...*.-*..
...*.....
......*..

Generation = 20, Population = 32.
...*****.
......**.
.*.......
.*...1*..
.....*...
...*....-
..-..1*.*
**....1*.
***...0..
***......
..*..-...
**-.-..-.
.-*......
-.*......
.....-...
.........
.........

Generation = 22, Population = 22.
....***..
....*..**
.....*.*.
....*1.*.
....*....
........-
..1.*....
.........
.*....-*.
.........
..**.-...
.***-..-.
.-*......
-........
.....-...
.........
.........

Generation = 24, Population = 25.
....*****
....*...*
....*****
....*1*..
...***...
....*...-
..-......
.........
......-..
..*......
.*.*.-...
.*..-..-.
.-**.....
-........
.....-...
.........
.........

Generation = 26, Population = 18.
....****.
...*.**.*
.........
.....-...
...*.*...
...***..-
..-.*....
.........
......-..
.........
.*...-...
.*..1..-.
.-*......
-........
.....-...
.........
.........

Generation = 28, Population = 13.
.........
.........
.........
....**...
.....**..
..**.**.-
..1*.*...
....*....
......-..
.........
.....-...
....-..-.
.1.......
-........
.....-...
.........
.........

Generation = 30, Population = 13.
.........
.........
.....*...
....**...
..**.*...
..***...-
..1..*...
....**...
......-..
.........
.....-...
....-..-.
.-.......
-........
.....-...
.........
.........

Generation = 32, Population = 16.
.........
.........
....***..
...*..*..
..*..*...
.**.***.-
.....**..
....**...
......-..
.........
.....-...
....-..-.
.-.......
-........
.....-...
.........
.........

Generation = 34, Population = 17.
.........
....***..
....*.*..
..***.*..
.*..*....
.*..*...-
.........
....**...
.....*1..
.........
.....-...
....-..-.
.-.......
-........
.....-...
.........
.........

Generation = 36, Population = 17.
.....*...
......**.
...*..**.
...*.*...
...*.....
....**..-
....*.*..
...*.....
....*.*..
.....*...
.....-...
....-..-.
.-.......
-........
.....-...
.........
.........

Generation = 38, Population = 21.
......*..
....**.*.
...***.*.
..**..*..
.....**..
..*..*..-
..*......
.........
...*.*...
.....**..
.....*...
....-..-.
.-.......
-........
.....-...
.........
.........

*** Life<Cell> 36x26 ***

Generation = 0, Population = 8.
------------0-------------
--------------------------
--------------------------
--------------------------
--------------------------
--------------------------
------------------------0-
-------------------------0
--------------------------
--------------------------
--------------------------
--0-----------------------
--------------------------
--------------------------
--------------------------
--------------------------
--------------------------
--------------------------
--------------0-----------
--------------------------
--------------------------
--------------------------
--------------------------
--------------------------
---0----------------------
--------------------------
-------------0------------
----------------0---------
--------------------------
--------------------------
--------------------------
--------------------------
--------------------------
--------------------------
--------------------------
--------------------------

Generation = 21, Population = 320.
11*1*.*-10---0-0---0-0-0-0
.-.1.1*-0-0-0-0---0-0-----
.0...*.0-----0---0-0---0--
1-*-.-*0----0-----0-------
-10-*-.0-01--------------0
10--.100-1--000-0---------
001.**-*.0.---1-100--0-0--
-010.-0*-*0.-1--1--0------
--00-0-01-*-----0-00-----0
---010--....-.-.10--0---0-
----0-0--1**.1-0--0-0-0--0
---0-0--10.-.1*..------0--
--0-0-.-01-**.*-0-0-0-00--
0--0--.0--1-.1.**1----0-0-
-0--.--.*0.-....--1--0-0--
0-1---.-1-0110*11--1--0---
-----..10-....-1-100------
1-.-1----*.-.0*011-1----0-
-0---0--...*..-*-*..*0.---
1-.-*1**.*.-..--.0.-1-----
-----110--..-..**.1-1----0
001---.1*-.1**-*..*1*0-11-
-1-----..-.*.*..*0-..11*1-
10-0--.1.0**.**1..0.11*-0-
0-0--1---*1.-..-.*..-10*.-
-0------*0-.0.-..-*.-00*01
-------*1-1**-.-....-10--*
-0-0-0-0--*-.--111*-*--0--
0-----0---.11..---*0----00
-0-0------1*.--..-0--0-0--
-----------0....*---0-0-0-
-0-0---0-0-0--.*1--0-0-0--
0-0---0-0---01.-0---0-----
-------0--0------00-------
---------0-0-*10-0-0------
----------0--00---0-------

*** Life<Cell> 36x12 ***

Generation = 0, Population = 9.
------------
---------0--
------------
---0-0------
------------
------------
------------
------------
--0---------
------------
------------
------------
------------
------------
-------0----
----0-------
------------
------------
------------
------------
------------
------------
------------
------0-----
------------
------------
------------
--0---------
------------
------------
------------
------------
------------
-----------0
------------
------------

Generation = 10, Population = 98.
0-0-0-------
-0-0-----0--
--0---------
-0-------0--
-------0----
-0--00-1---0
----10---10-
--0-.-0-----
--01.1011---
---1-0-0---0
--1-0-----0-
--.0-0-0-0--
---.1----0--
--0--00-----
-------0---0
01.1----0---
0-*-0----0--
------0-----
--1---------
0---0-------
-------0----
0-0-0-----0-
-----0---0--
0-----0-0--1
-------0----
0--------0-1
------------
--0---0-0--1
------------
----0-0---00
------------
---001--00-0
------------
-011-010---0
------------
0-0100------

Generation = 20, Population = 182.
-010*--1--11
--1.-.0.*.1-
-1-*--.*--*-
1..1****--0*
-*...*..--.*
*---.1-**..-
..-...*-.**.
1*********1-
0**......---
.0**..-*...0
-.-1-.*1----
-*..--***.1-
.....**--...
*.1.*..-0.-.
.**-0*1*-.1*
.**..--1-.1-
.****1..001-
0-.*---.0--0
-0----1.1--1
1*..1--*00-*
--...-1----*
1..***11.1.*
0*.-0-----1.
*-*0--*.-*0.
-0.1*-1.*-11
-1.--...-.1-
-1001*-.-*--
0-**-.*.1..1
-01---1-1110
0---**-11-1.
-1---.0*----
....0*-*1.--
-.-***------
-.1..-**0---
0.-1*0-0-0--
*..****00---

Generation = 30, Population = 159.
..****1**...
--..*.*...-*
*.*..*..*-*-
-**-......0*
.....*...-..
...-.**.....
**...*.-***.
**....*...**
-.........**
.*..***.....
..-.-***-...
.*..1...***1
*.****..-**.
.**....*0**.
....1...****
.**....*0.**
.*.......**1
.*......-**.
*..*1.*..--.
*.*..-*.*...
*..*...*-***
*.......*1**
-**....***..
.*...-...*.*
..*..*...*.*
-.**....1**.
-..*-..**...
-1*....*....
.*.**-.**...
.**....*....
-***-*.....-
..**1..*..*1
*..*.*-*-0--
.**.*......1
....*0*1..1*
..*.*..*..**

Generation = 40, Population = 105.
..........**
.1.........*
*........-*.
.*.....**.-.
.*....**.0..
.....*.**...
.....**.....
........**..
.......***..
..*....*....
**..*...*...
....*...**..
.....**.....
.......***..
.......**...
.......*..*.
**.......**.
......*.....
......**.*.*
..........*.
........-...
..*.........
1***........
**..*1......
**..*...**..
1*.**..***..
1*...**.....
..**.*.**...
.....*.**...
......***...
...........-
.***......**
......*.-..*
.....**....*
.*..*.*.....
.*****......

*** Life<Cell> 10x17 ***

Generation = 0, Population = 17.
----------0---0--
------------0----
--0---------0----
---------0-------
----0---0--------
------------0----
--------------0--
----0-0----------
----0----0--0-0--
--0--------------

*** Life<Cell> 21x2 ***

Generation = 0, Population = 14.
-0
--
--
--
--
0-
0-
0-
0-
00
--
0-
--
--
--
-0
--
-0
-0
00
-0

Generation = 19, Population = 0.
..
-.
..
..
..
..
..
..
-.
..
.-
..
.-
..
..
--
-.
..
.-
..
-.

*** Life<Cell> 30x26 ***

Generation = 0, Population = 6.
--------------------------
--------------------------
----------------------0---
--------------------------
--------------------------
--------------------------
--------------------------
--------------------------
--------------------------
--------------------------
--------0-----------------
--------------------------
--------------------------
--------------------------
--------------------------
--------------------------
-0------------------------
--------------------------
--------------------------
--------------------------
--------------------------
---------------------0----
------------------------0-
--------------------------
--------------------------
--------------------------
-----------------0--------
--------------------------
--------------------------
--------------------------

Generation = 20, Population = 237.
-0---10-0-----0-----------
-0-------------------0----
1*----------------0-----0-
0*------------------------
.-0-1-------0-------------
---0-------------0-------0
.*------------0--0--0-----
11--0---------------------
..10-10-1-------------0---
-.-----010-----------0----
*..--0011----0---1--10----
1.-01-00-10--0------------
*.--.11-----11001.11------
**1-0-111-0-0*--1.--1-----
*000---*---00-***.11*10-0-
*-10-01-*-1.**01.111------
.-*-*--*.*-1..1.0.-.1.1--0
000-0--.**1-**-.1-*-**1---
0-00*1-....--.-*.-.-.0-1--
-0--1*1*0*10..-.-*-.-*-*-1
---1-.---.0*---**..1*-1.11
-0----0..00----11-**1*-...
-0--00--..-*.0-....**0.*..
-------01.0*1-*1*..**1-1.*
-0-----1-*--1-*1..1-..-*-*
-----0---1-1--0..*.*..***1
-0--11--11---11--*.*.....0
-----------0-*-.1*-*-.....
-----0---------1---0-*--00
-------------0--**--*.--.1

*** Life<Cell> 40x6 ***

Generation = 0, Population = 23.
------
--0---
0-----
----0-
------
---0--
------
-0-0--
------
------
---0--
---0-0
------
-0--0-
------
-----0
------
------
------
------
----0-
--0---
------
------
------
----0-
------
0-----
------
------
0--0--
------
------
0----0
------
------
------
0--0--
-----0
------

*** Life<Cell> 14x6 ***

Generation = 0, Population = 6.
------
0-----
------
0-0---
------
------
------
-0--0-
------
------
------
------
-----0
------

Generation = 24, Population = 20.
.*...-
*..-..
1...-.
......
......
*.*...
...*..
......
....**
-.*.**
1*....
*.**.-
.*..**
..*..-

Generation = 48, Population = 22.
.....-
**.-..
**..-.
......
...**.
..*..*
.....*
..**.*
..**.*
.*...*
-.**.*
...**.
......
.....-

*** Life<Cell> 31x38 ***

Generation = 0, Population = 24.
--------------------------------------
------------------------------0-------
--------------------------------------
--------------------------------------
--------------------------------------
-----------0-----0--------------------
-0-----0------------------------------
--------------------------------0----0
---------------------------------0----
--------------------------------------
--------------------------------------
--------------------------------------
--------------------------------------
-----------------------0--------------
--------------------------------------
----------------------------------0---
----------------0---------------------
--------------------------------------
----------------------------------0---
--------------------------------0-----
--------------0---0-------------------
-----------0-------0--------0---------
---------------------------0----------
--------------------------------------
-----------------------------0--------
--------------------------------------
---------------------------------0----
--------------------------------------
-----------------0----------------0---
--------------------------------------
--------------------0-----------------

Generation = 15, Population = 552.
01-.--0*0--.------------0-01-1-10-00--
010.-0*1*.0*0---11-.-.-.-.1*---*1-0*1-
-00*--0001---*0.-*----0--*-00------*0-
--0-00*.1*---1-00-10-0-10-100--*00*.00
-----.-.---0001-1--*0--------*-0--1.1-
--1*..1.0.1*---*0.0101-.0-**-.-.1.0-1*
0--....*-*--**10**-.1--*-*-1-*-*0-*.*-
-00*-*--0-1*--0-0-*-.11-1-1*---*-1...-
-0--10-----.00..--1---**0-0--10*---.*-
0-0-00000---01-.0101---1--1-..011.1--.
-0-00-00*-1-110.**00---0--0---*01*.-0-
--010000-00101-0-10-0-*01*1-*.-11*-..-
--01001-*0110-1-0--0--10*--001-00--**0
-0-000---10*-0-1-0---0---01**.*-01..**
0-0-1---.*0-*-0-1-001--*0.---010..*-10
-0-*0----000-1-0-*0--**0.*.*0-*1.0.0.*
--11--.*101*0-1-0-.-.0-0-*-1-*.-0-.*..
0-0-0--*-1-000-1-.1-1--**-.0...0.1*-0*
--**--0-*-0-110010-..-.0-1--1.***..**-
00-1-00000-1-001*1-1**-.*****..**-*-..
1*00-011001-0-.0.*10-111*0*-----.*1*0.
000---00000000*0-.-*.1--..-0-1.1.-.-.-
-0-----01100--*..*......0**---1-*...-1
-------00000-------.-*-.*-00*-*--.-0*.
-0----0-01.--01*.1*.-.-.-------...*..*
0-0--1-0-000-*1-..-1..**---1-.---*.-0.
-0-00-1-0--*-..*..0*...-.11.*-*..-.*.-
--0100-1-0-.1..---0*0-.1-0*1*0.*..1-0.
--01000--0-.*..*0...*..11.-........-.1
---00*-1-.0.1.---.-.*-.0*1.-*0-.*1.-.1
----0--1.*-**.11....1**0.1*.*.1*.....*

Generation = 30, Population = 356.
............-......*..*...........**..
..*.*..*.....1-...*.*.*......*1*...*.-
...****...*.-*...*..*0***..**.-.--....
-..*...*.*...-....*-..*.*1.***...*....
....**.*-*-.1**.....-..*...***........
....*.1*....*.*.1......**.....1.*.....
-.-.**..1*.**..**.....0***....*.....*.
.-..**1.*1*....**.......*.....*.-..*.*
...1*-.......*...0*......*....1....*.-
.......*.....*.*****....-........*.*.*
...**.**...-...*..*.*1-..........***.*
--1.1-*1......-.*-.-.-.-.............*
.*.*****....*...**..1..-...-1......*.*
.*..-.*-......-.0.1-0.*...........*..*
*-*..-.-.**1..-.-.-.*..*....**.*.****.
-*-...1.**..........1.*....****.*-***.
-.*...**....*.*-**....-...1*-***-*....
1**...0..*-*..*.-*.-......***..*....-.
*-.*....*....******.........***.......
-*...**.1*.......*....*......*........
.**-.0..**.*...1.....*.*..***.**...**.
.0.*-*.**.**.-..**.....*....*..*..*...
....1...-.........*.*...*.....*-.*..*.
-*.*1-*.*..*1..-.1*...*.*.*1...*.*-.*.
*.**....*....-.*.....*....*.*..*..*.*.
**-*.**.**1....1..****.*..*.*.*...***.
.**.*-***...-.*..*-*...-...**.*.......
00-1.--.**...*..*.-.............***.-.
..*.*..*-.**....*.*...........*..*.*..
00*.1*.**.1.-....*...*...*...*****.*.-
..*-***...............***-............

Generation = 45, Population = 238.
.............................**.......
....*..............**.......*******...
.......***.........***.....*..*****...
-....*.*.**...**....**.......*.**.....
..........*..*..*...1........*........
.......*.*....**........*....*.*...*..
-..*....*.............-.....*...*..***
..**....................*.........****
..*.*....................**.*........*
..*..*.....**..**.......-.*..........*
..*........-*..**..........***....*.*.
..*...**..............*...............
...*..**.............*.*...--.........
...*-..***....-....1.*.**........**...
.-.*.**..***.....*-....**.......*.....
...*.......*.....*...*.*........*..*..
....*...**.*....**.*...*..*.-.*....*..
....****...........1**...***..*.*...1.
.-....*.............**..**..*.**.*.*..
-....**....*...........**..**.....*...
......*...............**........**....
.*.*-.****...-........***......**.....
.....**.*...............*......**.....
-*....*........-........*.............
.....**.*.*....................**.....
..*..**....*...............***.**.....
.**....*...*......-....-..*....*......
..*.*..**............**...*.***.*...-.
...*....*..*...............*...***.*.*
--.......***..................*.....**
...-...........................***....

*** Life<Cell> 16x26 ***

Generation = 0, Population = 25.
--0-------------0---------
--------0--0--------------
------------0-------------
----------0---------------
---0----------------------
--------------------------
--------------------0-----
-0------------------------
-----0-----------000------
--------------------------
---0------0---------------
-0--------0-------0-------
--------------------------
-------0----00------0-----
-------0---------------0--
----0---------------------

Generation = 25, Population = 121.
-.*.....1*-*......*******.
.-.*.....***.*...*.....-*.
*.*.**...*.....*.*.*....**
1.........***.*-..*1......
....*.*...11...*.......1.1
....*.1...-..-.*.-.*1....-
....-......*......*.......
.-****......*.-.*.*.....*.
.*..-.*.--*......*....*.-*
.***1*1..*........**..*..*
...*-...................-.
...*..**.*.*.*.*-...-.**..
....****.....*.**.-...***.
***...........***.....**0.
**.***..*..**..........*..
..****.***............-**.

*** Life<Cell> 24x31 ***

Generation = 0, Population = 18.
0--0---------------------------
---------------0---------------
------------------0------------
----------------------0---0----
-----0-----0-------------------
----------------------------0--
-------------------------------
---------0---0--------0--------
-------------------------------
---------------0---------------
-------------------------------
-------------------------------
---------0--------------0------
-------------------------------
-0-----------------------------
-------------------------------
-------------------------------
-------------------------------
-------------------------------
-------------------------------
------0------------------------
-------------------------------
------------------------0------
-------------------------------

Generation = 19, Population = 305.
-.****1****.00..1..-..---*--0-*
-*1.*-*0.**....-.1-**-*..-*..-.
...*...*.**...-.**.*...1-*.-*-*
1*1.-1.*-.......*..*.....-.-.--
.*.*-...**.*0.....**.*.10.1.1-1
-.1*0..-****...*0*.-..00.....*1
.*0.*.-.*-.....**..*-*--.1.1110
*.***.-0*...*..1..*111*0-..-*-1
*...-*1**.*.*.-*1...*.*.*..*.**
-.-.......*.*1..-..-..*.1....**
*.1.0**.*.**..*-.1....--..****1
.....1.*-.-.1.*.*-1..-*..1*.*1*
-*..*...-...1*-....-.*....*-..*
0.0---.*...-010..1..10.--1****-
*1-.*.**.....1-*.*..1..**---*0-
*11--1.-*.1.-*-.-.--1-.**11-.01
.---...*..0-01.-.-1*-1.*1-.--**
-..--*0*--..0*1-11.1--.--0--.*-
.*..---..***-*01..-0--*-100010-
...0-*0**.1-*.0-1--1*--*.--0-0-
..-.-....*1..***10-0--.-*0-00-0
-.1.010-00**010-0-0-0-*-0-0--0-
*1--1---*--0-----0-010.-0---0-0
-.-1-.0--*0-0---0-001-.--0-0-0-

*** Life<Cell> 21x20 ***

Generation = 0, Population = 8.
--------------------
--------------------
--------------------
--------------------
--------------0-----
--------------------
--------------------
--------------------
---------0----------
--------------------
--------------------
--------------------
--------------------
--------0-----------
--------------------
--------------------
--------------------
------------0-------
---0----------0-----
----------------0---
-------------0------

*** Life<Cell> 25x21 ***

Generation = 0, Population = 18.
--------0-----00-----
---------------------
--------------00-----
---------0-----------
------0--------------
----0----------------
--0-----------0------
---------------------
-------0-------------
---------------------
-------------0-------
---------------------
---------------------
--0------------------
---------------------
--------0---0--------
---------------------
---------------------
-------------0-------
---------------------
---------------------
---------------------
---------------------
----------0----------
--------------------0

*** Life<Cell> 36x21 ***

Generation = 0, Population = 29.
---------------------
-----------00--------
---------------------
---------------------
---------------------
---------------------
---------0--0--------
---------------------
---------------------
---------------------
0---0--------------0-
--------------0-0----
---------------------
---------------------
---0---0-------------
------0-----0--------
---------------------
---------------------
---------------------
---------------------
---------0-----0-----
---------------------
-----0--0------------
------0--------------
---------------------
-00------------------
--0-0--------0-------
----0----------------
---------------------
---------------------
--------0------0-----
---------------------
------------0--------
---------------------
---------------------
--0----------0-------

Generation = 10, Population = 309.
0---1----0---**00--1-
-01--*.1****....*.*-*
0----1-*----..11-0---
---01--1---*11-*0-010
00-0-----00-.0-00--00
----1-0-00.*.--1*-0--
-10..*011-..0--*-*1-0
----1--0--1-10.*.1-0-
-01-101-0---*-0-.---0
------1-11--1-11-00-0
0-..*.*.*.-***-1-0---
--1-.-.-.-01*---0-0--
-011-01--.-100---0---
0-1-0-1-*-----0---0--
-.--*0*1.--*.-00-0---
10--.-.-*---1---0-0-0
*11-----1--000-0---0-
---1--0-.-------0---0
-*--1-0..-*----0---0-
1*0-0---00--0-0-0-0--
-*.1-11**-*-10--00---
.-010-1-0*.-.---1----
1*.-**.*0..--.*.--00-
011-*--.*---*1--1----
1-*1*.*.**1---100----
*.***-*1*0.10-0------
*.*.*.*0-..00*-0-----
--.0.1.-.--10-1------
..11*1.-.0*1*1*.-0-0-
-1-*10.-11-01-.-10---
.-*-**-.00.-*..*1---1
0-.---.0-0-11.*-10---
-10111-0--1**.-*--1*1
1..-000---0-.-0.-----
0-.-----.-1--*0...--0
-010-0-1*-1--*--0----

Generation = 20, Population = 293.
.*-1.-.**.0**....1-1.
...**..-.*...*..**..*
-1....*.0...****.*..*
-1...00.*..*.-*..1-..
*.-*.*.1*-....*.-1-.1
-...**.**-**.*.....*1
.**....*.-..**.*.....
--..*0.****1.-...**..
.***.-**.--*.*-.*-0..
-11.-*11..-.-.--.-*..
*.**.........*.*0.-.*
*-.-.........*-*0..-1
-.*..1*0*..*...*..*.*
-..-***..*0..*.-.-011
*.-.*...*..*.0..***-1
-.1-*....*.-***1*...-
*...0..*.***---10.---
*...*.1*.-1..-.*000--
-.-*..**....*1-...---
**..*.**...**1*1.**--
*.***..*.0..*-.*.-0*-
****...-..*..--..-*--
*..-.......1.....0.**
*....**...*.*..1.0*1*
.......*.****1**-.*.*
.**....**0.--**-**..*
.*...**.**..0.-0....*
-*.1..*.*--*.**--*.-.
.*.**.*.......*.-.11*
.*.....**..-*1*-*...0
.*..*....**..*....1-*
...-*-...**-...-.*1.*
-**....**.**..*..0*.*
...-..*0*.*.*..*1...*
...**-*1*.*--*.***-..
-...1-**.-*1**1.0....

*** Life<Cell> 3x25 ***

Generation = 0, Population = 7.
-------0--------------0--
------000---0------------
------0------------------

Generation = 30, Population = 6.
......*..................
......*..................
...-***..-.-....-1.-..-..

*** Life<Cell> 36x25 ***

Generation = 0, Population = 23.
-------------------------
-------------------------
-------------------------
-------------------------
---------------------0---
-------------------------
-------------------------
--0----------------------
----0----0---------------
-------------------------
-------00----------------
------------------0--0---
-------------------------
-0-----------------------
-------------------------
-------------------------
0------------------------
-----0-------------------
-------------------------
-------------------------
------------------0------
-------------------------
--------------------0----
0--------0----------0----
-----0-------------------
-----------------0-------
----------------------0--
-------------------------
-------------------------
---0---------------------
-------------------------
-------------------------
-------------------0-----
----------------------0-0
-------------------------
-------------------------

Generation = 20, Population = 382.
*---**-....0*1---11-**-**
*110-*.**..-.-*0011.-.1-0
-0*..0.*..*.***01...*.-**
*-*.....--*0-0-*-*-.**1.-
**..-...**01......0...*.*
**-.-.-1*-***0--11.-1..--
..1...***.-..-***--.*.-.-
*---...-*.*.*.-**.*...***
*1.*...**-...*...-*.*.*.*
.*.*..**.-*****-*.*...*.*
.*..*.*.*-....**.*.-.....
..*****.*******..*-*.-.-1
*.-**-*..*****-*....-..-*
**..*-.---**.*-*.*.**...0
.*.*01*...-1.-.-.0.**..-.
*0...1...*0*---**-....-1-
.*...****.*.*.*1*-.1.....
..1-...*.1*1*..*11*.**.11
...*.**..0**.-1-..-..***-
..---**.-**1-..*.*.....*.
.*.*..*****.0...-1...1.-.
..*...1*....1*-*.*.*.-..1
*.**.......*-*-.**.....-.
*.0*...1..0.*****.....*..
*.-...-**.-..1*1*...***..
........*.*.-*0...-**..*.
.......*.*--*.-.***...**.
1*..*..**.-0.***.*.....*.
1*.1.11*1**.....*1....***
1***-*...00.-.*.-1-...***
1-0*-.-.1.1..-.1.1...*...
0..-....----*****-1..**..
*.11--0***11***--*.--1**-
*0-.*---1.*---.*..*.1.*0*
---0**-*10.--*-0--*0*.***
.-1*-.1---**-**..1.--.*1.

