*** Life<Cell> 19x27 ***

Generation = 0, Population = 2.
----------------------0----
---------------------------
--------0------------------
---------------------------
---------------------------
---------------------------
---------------------------
---------------------------
---------------------------
---------------------------
---------------------------
---------------------------
---------------------------
---------------------------
---------------------------
---------------------------
---------------------------
---------------------------
---------------------------

Generation = 1, Population = 7.
---------------------0-0---
--------0-------------0----
-------0-0-----------------
--------0------------------
---------------------------
---------------------------
---------------------------
---------------------------
---------------------------
---------------------------
---------------------------
---------------------------
---------------------------
---------------------------
---------------------------
---------------------------
---------------------------
---------------------------
---------------------------

Generation = 2, Population = 8.
--------0-----------0-0-0--
---------------------------
------0---0-----------0----
---------------------------
--------0------------------
---------------------------
---------------------------
---------------------------
---------------------------
---------------------------
---------------------------
---------------------------
---------------------------
---------------------------
---------------------------
---------------------------
---------------------------
---------------------------
---------------------------

Generation = 3, Population = 22.
-------0-0---------0-----0-
------0-0-0---------0---0--
-----0-0-0-0---------0-0---
------0-0-0-----------0----
-------0-0-----------------
--------0------------------
---------------------------
---------------------------
---------------------------
---------------------------
---------------------------
---------------------------
---------------------------
---------------------------
---------------------------
---------------------------
---------------------------
---------------------------
---------------------------

Generation = 4, Population = 8.
--------0---------0-------0
---------------------------
----0-------0---------0----
---------------------------
----------------------0----
---------------------------
--------0------------------
---------------------------
---------------------------
---------------------------
---------------------------
---------------------------
---------------------------
---------------------------
---------------------------
---------------------------
---------------------------
---------------------------
---------------------------

Generation = 5, Population = 26.
-------0-0-------0-0-----0-
----0---0---0-----0---0---0
---0-0-----0-0-------0-0---
----0-------0--------------
---------------------0-0---
--------0-------------0----
-------0-0-----------------
--------0------------------
---------------------------
---------------------------
---------------------------
---------------------------
---------------------------
---------------------------
---------------------------
---------------------------
---------------------------
---------------------------
---------------------------

Generation = 6, Population = 30.
----0-0-0-0-0---0-0-0-0-0--
---------------------------
--0---0-0-0---0---0-0-0-0-0
---------------------------
----0---0---0-------0-0-0--
---------------------------
------0---0-----------0----
---------------------------
--------0------------------
---------------------------
---------------------------
---------------------------
---------------------------
---------------------------
---------------------------
---------------------------
---------------------------
---------------------------
---------------------------

Generation = 7, Population = 53.
---0---------0-0---------0-
--0-0-------0-0-0---------0
-0-0-0-----0-0-0-0---------
--0-0-0---0-0-0---0-------0
---0-0-0-0-0-0-----0-----0-
----0-0-0-0-0-------0---0--
-----0-0-0-0---------0-0---
------0-0-0-----------0----
-------0-0-----------------
--------0------------------
---------------------------
---------------------------
---------------------------
---------------------------
---------------------------
---------------------------
---------------------------
---------------------------
---------------------------

Generation = 8, Population = 8.
--------------0---------0--
---------------------------
0---------------0----------
---------------------------
--------0------------------
---------------------------
----------------------0----
---------------------------
----------------------0----
---------------------------
--------0------------------
---------------------------
---------------------------
---------------------------
---------------------------
---------------------------
---------------------------
---------------------------
---------------------------

Generation = 9, Population = 27.
-------------0-0-------0-0-
0-------------0-0-------0--
-0-------------0-0---------
0-------0-------0----------
-------0-0-----------------
--------0-------------0----
---------------------0-0---
---------------------------
---------------------0-0---
--------0-------------0----
-------0-0-----------------
--------0------------------
---------------------------
---------------------------
---------------------------
---------------------------
---------------------------
---------------------------
---------------------------

Generation = 10, Population = 28.
0-----------0-0-------0-0-0
---------------------------
0-0-----0---------0-----0--
---------------------------
0-----0---0-----0-----0----
---------------------------
--------0-----------0-0-0--
---------------------------
--------0-----------0-0-0--
---------------------------
------0---0-----------0----
---------------------------
--------0------------------
---------------------------
---------------------------
---------------------------
---------------------------
---------------------------
---------------------------

Generation = 11, Population = 68.
-0---------0---0-----0-----
--0-----0---0-0---0---0---0
---0---0-0-------0-0---0-0-
--0---0-0-0-----0-0---0-0--
-0---0-0-0-0---0-0---0-0---
0-----0-0-0-----0---0---0--
-------0-0---------0-----0-
---------------------------
-------0-0---------0-----0-
------0-0-0---------0---0--
-----0-0-0-0---------0-0---
------0-0-0-----------0----
-------0-0-----------------
--------0------------------
---------------------------
---------------------------
---------------------------
---------------------------
---------------------------

Generation = 12, Population = 32.
0-------0-0-----0-0-0-----0
---------------------------
--0-0-------0-0-----0-0-0--
---------------------------
----0-------0-0-------0-0--
---------------------------
0-------0-------0-0-------0
---------------------------
--------0---------0-------0
---------------------------
----0-------0---------0----
---------------------------
----------------------0----
---------------------------
--------0------------------
---------------------------
---------------------------
---------------------------
---------------------------

Generation = 13, Population = 76.
-0-----0---0---0-----0---0-
0-0-0---0-0-0-0-0-0---0-0-0
-0---0-----0---0---0-----0-
--0-----------------0------
---0-0-----0---0-----0---0-
0---0---0---0-0-0-0---0-0-0
-0-----0-0-----0---0-----0-
0---------------0----------
-------0-0-------0-0-----0-
----0---0---0-----0---0---0
---0-0-----0-0-------0-0---
----0-------0--------------
---------------------0-0---
--------0-------------0----
-------0-0-----------------
--------0------------------
---------------------------
---------------------------
---------------------------

Generation = 14, Population = 54.
----0-0-----------0-0------
---------------------------
--0---0-0-------------0----
---------------------------
0---0-0-0-0-------0--------
---------------------------
0-0-0-0-0-0-0---0---0-0----
---------------------------
0---0-0-0-0-0-----0-0-0-0--
---------------------------
--0---0-0-0---0---0-0-0-0-0
---------------------------
----0---0---0-------0-0-0--
---------------------------
------0---0-----------0----
---------------------------
--------0------------------
---------------------------
---------------------------

Generation = 15, Population = 96.
---0---0---------0---0-----
--0-0---0---------0-0-0----
-0-0-0---0-----------0-0---
0-0-0-----0-------0---0----
-0-0-------0-----0-0-------
--0---------0---0-0-0-0----
-------------0-0-0-0---0---
--0-------------0-0-----0--
-0-0---------0---0-------0-
0-0-0-------0-0-----------0
-0-0-0-----0-0-0-0---------
--0-0-0---0-0-0---0-------0
---0-0-0-0-0-0-----0-----0-
----0-0-0-0-0-------0---0--
-----0-0-0-0---------0-0---
------0-0-0-----------0----
-------0-0-----------------
--------0------------------
---------------------------

Generation = 16, Population = 8.
------0---------0----------
---------------------------
------0-----------------0--
---------------------------
---------------------------
---------------------------
---------------------------
---------------------------
---------------------------
---------------------------
---------------------------
---------------------------
--------0------------------
---------------------------
----------------------0----
---------------------------
----------------------0----
---------------------------
--------0------------------

Generation = 17, Population = 25.
-----0-0-------0-0---------
----------------0-------0--
-----0-0---------------0-0-
------0-----------------0--
---------------------------
---------------------------
---------------------------
---------------------------
---------------------------
---------------------------
---------------------------
--------0------------------
-------0-0-----------------
--------0-------------0----
---------------------0-0---
---------------------------
---------------------0-0---
--------0-------------0----
-------0-0-----------------

Generation = 18, Population = 30.
----0---0-----0-0-0-----0--
---------------------------
----0-0-0-------0-----0---0
---------------------------
------0-----------------0--
---------------------------
---------------------------
---------------------------
---------------------------
---------------------------
--------0------------------
---------------------------
------0---0-----------0----
---------------------------
--------0-----------0-0-0--
---------------------------
--------0-----------0-0-0--
---------------------------
------0-0-0-----------0----

Generation = 19, Population = 67.
---0-0-0-0---0-----0---0-0-
------0-------0---0---0-0-0
---0-----0-----0-0---0-0-0-
----0---0-------0-----0-0-0
-----0-0---------------0-0-
------0-----------------0--
---------------------------
---------------------------
---------------------------
--------0------------------
-------0-0-----------------
------0-0-0-----------0----
-----0-0-0-0---------0-0---
------0-0-0---------0---0--
-------0-0---------0-----0-
---------------------------
-------0-0---------0-----0-
------0---0---------0---0--
-----0-----0---------0-0---

Generation = 20, Population = 28.
--0---0---0-0-------0---0--
---------------------------
--0---0---0-----0---0-----0
---------------------------
------0---------0----------
---------------------------
------0-----------------0--
---------------------------
--------0------------------
---------------------------
----------------------0----
---------------------------
----0-------0---------0----
---------------------------
--------0---------0-------0
---------------------------
------------------0-------0
---------------------------
----0-------0--------------

Generation = 21, Population = 79.
-0-0-0-0-0---0-----0-0-0-0-
------------0---0-------0-0
-0-0-0-0-0-0---0-0-0-0---0-
--0-------0---------0-----0
-----0-0-------0-0---------
----------------0-------0--
-----0-0---------------0-0-
------0-0---------------0--
-------0-0-----------------
--------0-------------0----
---------------------0-0---
----0-------0--------------
---0-0-----0-0-------0-0---
----0---0---0-----0---0---0
-------0-0-------0-0-----0-
--------0------------------
-----------------0-0-----0-
----0-------0-----0-------0
---0-0-----0-0-------------

Generation = 22, Population = 72.
0---------0---0-0-0-----0--
---------------------------
0-0-------0---0-0---0-0---0
---------------------------
--0-0---0-0---0-0-0-0---0-0
---------------------------
----0-0---------0-----0---0
---------------------------
----------0-----------0-0--
---------------------------
----0---0---0-------0-0-0--
---------------------------
--0---0-0-0---0---0-0-0-0-0
---------------------------
----0-0---0-0---0-0-0-0-0--
---------------------------
----0---0---0---0-0-0---0--
---------------------------
--0-0-0---0-0-0---0-------0

Generation = 23, Population = 131.
-0-------0-0-0-----0---0-0-
--0---------------0-0-0-0-0
---0-----0-0-0---0-0---0-0-
0---0---0---------0---0-0--
-0---0-0---0-0-------0-0---
--0---0-0-0---0---0-0-0-0--
---0---0-------0-0---0-0-0-
----0-0---0-----0-------0-0
---------0-0---------0---0-
----0---0-0-0-------0------
---0-0-0-0-0-0-----0-----0-
--0-0-0---0-0-0---0-------0
-0-0-0-----0-0-0-0---------
--0-0---0---0-0-0---------0
---0---0-0---0-0---------0-
------0-0-0-----------0----
---0-0-0-0-0-0-0-----0-0-0-
--0---0-0-0---0-0---0---0-0
-0-----0-0-----0-0-0-----0-

Generation = 24, Population = 32.
0-------0-----0---------0--
---------------------------
0-------------0-0-----0----
---------------------------
------0-0---------------0--
---------------------------
------0---------0-----0----
---------------------------
------0---------0-----0----
---------------------------
------0-0---------------0--
---------------------------
0-------0-------0----------
---------------------------
--------------0-------0-0--
---------------------------
--------------0-------0-0--
---------------------------
0-------0-------0----------

Generation = 25, Population = 85.
-0-----0-0---0-0-------0-0-
--------0-------0-----0-0--
-0-----------0---0---0-0---
0-----0-0-----0-0-----0-0--
-----0---0-------------0-0-
--------0-------0-----0-0--
-----0-0-------0-0---0-0---
---------------------------
-----0-0-------0-0---0-0---
--------0-------0-----0-0--
-----0---0-------------0-0-
0-----0---------0-------0--
-0-----0-0-----0-0---------
0-------0-----0-0-----0-0--
-------------0-0-----0---0-
---------------------------
-------------0-0-----0---0-
0-------0-----0-0-----0-0--
-0-----0-0-----0-0---------

*** Life<Cell> 4x43 ***

Generation = 0, Population = 8.
----------------0-----00-------00----------
-------------------------------------------
-------------------000---------------------
-------------------------------------------

Generation = 38, Population = 26.
...........................-.*....*........
.**..*.........**....*.......*...*.*...-.--
.....***.......**...*.*...-..*...*.*......-
-.0..**.-............*..........-.*.-......

*** Life<Cell> 15x41 ***

Generation = 0, Population = 40.
-----------0-----------0-----------------
-----------------------------------------
-----------0------------------0----00--0-
0----------------------0-----------------
-----------------------------------------
-------0-00------0-----------------------
-------------0-----------0------------0-0
--0------0------------------------------0
---00---------0------0--------0----------
-------------------------0---------------
----0---00-------------------0------0----
-----------------------------------------
-----------------------------------------
----------------0------------0-0---------
------------------0-0-------0------0--0-0

Generation = 36, Population = 103.
.*.*....................*.....**.........
.*..*..................**....*..*.....**.
.*.*......-..-.-..-.-..**......*.....*..*
..*.....**..........-.........*..........
.**....*..*...............*.........*....
*.*....*.*........**................*.*..
*..*....*.........*..*.....**...**...*...
*...**............*..*...***..**.*.....-.
.*....*......*.......*..***..*.*..*......
......*.....*.*........**..***.*..*......
....**........*.....*.***...**..*.*......
.*........**..-........*.................
*.*..........***.*.......................
......-...*..............................
.....-.....-.....**......-...............

*** Life<Cell> 13x34 ***

Generation = 0, Population = 16.
------------0----------------0----
----------------------------------
----------------------------------
----------------------------------
------------0---------------------
------00-------------------------0
---------------0------------------
----------------------------------
------0---------------------------
-------0-0-------0----0----------0
----------0----0------------------
----------------------------------
--------------0-------------------

*** Life<Cell> 6x6 ***

Generation = 0, Population = 2.
------
------
------
0----0
------
------

Generation = 1, Population = 6.
------
------
0----0
-0--0-
0----0
------

Generation = 2, Population = 8.
------
0----0
------
0-00-0
------
0----0

Generation = 3, Population = 12.
0----0
-0--0-
--00--
--11--
--00--
-0--0-

Generation = 4, Population = 6.
------
------
------
-0**0-
------
0----0

Generation = 5, Population = 18.
------
------
-0000-
01**10
000000
-0--0-

*** Life<Cell> 10x72 ***

Generation = 0, Population = 4.
------------------------------------0-----------------------------------
------------------------------------------------------------------------
------------------------------------------------------------------------
--------------0---------------------------------------------------------
------------------------------------------------------------------------
------------------------------------------------------------------------
------------------------------------------------------------------------
------------------------------------------------------------------------
-----------------------------------------------------------------0------
--------0---------------------------------------------------------------

Generation = 43, Population = 242.
-*---*-1.......**-.***...-..***.1-........*........-...-............0--.
*--.-1-...*..*..*****.**..0*..-.-0..*.-.-.*..*..-..-0...*.1**-*---.**1.0
*-.-.*.1...*-.-*.-*..***...***.-*..***.*...*..*.-......*..*.*.*...*-*.*.
0*.0-...-..0.......**.**..0.-..-...**.*0.**-..0....-..1*...1.-*...*--..-
-0.0-**01..*1*1...*.*..........*...*......-..**.-....-***....**..-.**..-
0---.0****...***...*.......-1..-.1**-............1*-.1*-100..*...1*0----
-0----*0--.*...1............*...**..***.***..1*...*..**.*-***-..0-*-.01-
--0-0**----...*1.*.........*..-..-**.-*-*.-0*.1...11*-0.*.0--.*.**10-10-
-0-0-0.-0-*.-.*....-....***....-...*1.............-...**.*.*0-*.--0-10-0
--0-00----1--1**.****....****..-......11...***-......*1.1**-1..*--*1--0-

*** Life<Cell> 7x19 ***

Generation = 0, Population = 30.
---0----0--000--0--
-------------------
-----00-0--00------
0------------0--0--
00-------0----0----
---00-00-0-0-0--0--
--0-----0-0------0-

Generation = 18, Population = 42.
-*...-.1...........
.0...*1**.--..*...-
.*1-.*.*.1...**0.*0
.****0......-....*-
*...-1...-**..*....
*.*..-...*******...
.**....-...-*.0.-..

Generation = 36, Population = 20.
..**.......*.......
.-...*...**.**....-
...*.....*....*-..-
......*...**.**...-
....*....-.........
....**.............
...*...-...........

Generation = 54, Population = 35.
......**....****.**
.....*.**..*.....**
.....*..*.**...*..*
......**...*..**.*.
.........-..*.*..*.
.........*.*..*....
.......-..*...**...

Generation = 72, Population = 9.
......**...**......
.....*.*...**......
......*............
...................
...................
...................
.......-...........

Generation = 90, Population = 9.
......**...**......
.....*.*...**......
......*............
...................
...................
...................
.......-...........

*** Life<Cell> 6x49 ***

Generation = 0, Population = 24.
------0----00---0---0--0-----------0-------------
-------------------------------------------------
----------0--------0-----------------------------
---0--------------------------0----------0-------
0----------00--------------------0---------------
-----0---0-------0------00-00------------0-------

*** Life<Cell> 11x46 ***

Generation = 0, Population = 39.
--------0-----------0---------------00-------0
----------------------------------------------
-----------0--0--0--------0-----------------0-
----0-----------------------------0----0------
--------0------------------------------------0
----0----------0-----------0------------------
----------------------------------------0-----
---0--------------0--------0--0---00--0---0---
------------------0------------------0------0-
-0-----0--------0------0----------------------
--0---------------------0-0------------0-----0

Generation = 30, Population = 152.
......-.....**.....**..**.....*.****..........
.*.......**.**.....**..**.....*.****.***.**...
-**..................**...............-.**....
.*.*..**.*..**..**....0..............****.....
.1*..***.*......***.......*...**1.....*.....**
..*...***.*......*.......*...****.*.........-*
.......**.....***......*.*...*....*....-......
**....*..1.*..***.**..**.*..*.**.**.....**....
**.**..****...**...*..**.1*..*.*0.......**.**.
...**...**...-..*..*...****....*...-.-......*.
......-..-......***-....*...***..........***..

Generation = 60, Population = 84.
.....*****....*...............................
.....*....*..*.*..............................
-...*..*..*...**.....**.......................
..*.*..*.*..........*****.....................
.*........*........*...**.....................
..***..*.*..........**........***.............
......**.....**......***.*...*...*............
......*.......*..........*..*....**...........
.....**.********............*...**..***.......
........**.***......**.............-..........
....................**.......*.*..............

Generation = 90, Population = 92.
.....*.****....***......................*.....
...**.*...*.*...*.**....................*.....
-.....*.*.....*.*..................*..........
........***....*****..............*.*......*..
.........**...............*........**.....*.*.
.......***..**.**.......**..........**..***.**
.......*........*....................*****.***
...........***..............................**
.......*.....**..................**...**...*..
........**......................***...*..*....
.................................**....***....

*** Life<Cell> 1x20 ***

Generation = 0, Population = 19.
0000000-000000000000

Generation = 24, Population = 1.
--0---...---........

Generation = 48, Population = 3.
1-0-1-...---........

Generation = 72, Population = 2.
1-0---...---........

*** Life<Cell> 18x60 ***

Generation = 0, Population = 8.
------------------------------0-----------------------------
------------------------------------------------------------
------------------------------------------------------------
----------------------------0-------------------0-----------
------------------------------------------------------------
-------0----------------------------------------------------
------------------------------------------------------------
------------------------------------------------------------
------------------------------------------------------------
------------------------------------------------------------
-----------------------------------0------------------------
------------------------------------------------------------
------------------------------------------------------------
----------------------0-------------------0-----------------
------------------------------------------------------------
--0---------------------------------------------------------
------------------------------------------------------------
------------------------------------------------------------

Generation = 4, Population = 30.
--------------------------0-------0-------------------------
-------0----------------------------------------------------
------------------------------*-----------------------------
------------------------0-------0-----------0-------0-------
------------------------------1-----------------------------
---0-------0------------------------------------------------
-----------------------------------0------------------------
----------------------------0-------------------0-----------
------------------------------------------------------------
-------0--------------0-------------------0-----------------
-------------------------------0-------0--------------------
--0---------------------------------------------------------
------------------------------------------------------------
------------------0-------0-----------0-------0-------------
-----------------------------------0------------------------
0-----0-----------------------------------------------------
------------------------------------------------------------
--0-------------------0-------------------0-----------------

Generation = 8, Population = 35.
----------------------0-------0-------0---------------------
-------0----------------------1-----------------------------
----------------------------01.1.--1------------------------
--------------------0-------0-.-----0---0-------0-------0---
------------------------------.-.---------------------------
---------------0------0-------------------0-----------------
------------------------------*-----------------------------
--1---------------------------------------------------------
------------------------------0-----------------------------
------------------------------------------------------------
---------------------------0---------------0----------------
----------------------------0-------------------0-----------
------------------------------------------------------------
--0----1------0---------------0---0---------------0---------
------------------------------------------------------------
----0-----0-----------0-------------------0-----------------
------------------------------------------------------------
------------------------------------------------------------

Generation = 12, Population = 116.
------------------0---------***1.1-*------0-----------------
---0---0---0---0------0---1--1.-1---------0-----------------
----------------------0-01-.-..-.-----*1--------------------
--0-------------1---------.--0.---1-0---0-------------------
----------------------0----1.-.0.0----0---------------------
-------0---0------10------0-1---*-----0-------0-------------
--------------------------01*0.0--00-------0----------------
0-----0-------------0---------------0---0---------------0---
--------------------------1-------0-------------------------
--0----0------00------0-------0---0-------0-------0---------
-----------------------0------*1-------0-------0------------
--0-0-----0-----------0-0-------0---------0-0-------0-------
------------------------------0-----------------------------
0--0--1---*0------0-------0---0---0---0-------0-------0-----
---------------------------0---------------0----------------
0-----*-*-----0---0-------0-0---------0-------0-0-----------
------------------------------------------------------------
--0-0--0--0---0-------0-------0---0-------0-------0---------

Generation = 16, Population = 123.
--------------0-----*-1-*-11*.**.--.---0*-.---0-------------
--.---------------------1--**..*.10-.-.-1-1-----------------
--------------------*1-*..-*-*...0-..*.*00.-----------------
---.--------0--.---------1*---.011.-0-1-0---0-----------0---
------------------0----1-1--**.*.-0--0.---------------------
--0---.1---------1*1---1*-.1.0*..-110-----------------------
------------------0------.11.*.--1.1------------------------
----------------------1----1-1.0*0--------0-----------------
--------------------------1*-*.-0-.1.-----------------------
------.1-----.--.----------0.-.---1-------------------------
----------0--------0-------0--..*0-1---------------0--------
---------001--------------------0---------------0-----------
--------0-*-0-----------------.-----------------------------
-----..1-*..10------------0-----------0-------------------0-
------0---.-0-----------------1-----------------------------
----11.*.--0*-----0-----------------------------------------
------1-0-0-------------------0-----------------------------
------0-0*------------------0-------------------0-----------

Generation = 20, Population = 270.
----------0-----1--1.*1-*1*.******1*-1-..-.0.0----0---------
--.----0---------1-111.-.-1*....*--1*-*--0*---0-------------
---0--0-------*-0--1..-.**1*-....1-..*..0**--1*-------------
--0*10-01-----..1-.-.---0-.1*0.1*1.*101---0-0---0---0-------
---01-0-0---------*----.-.-1.....*.-.*.-.-1---1-------------
0----*.--0-1-11*1...110**0...-...1-*1*--.-0-----------------
----1---0-0---0---.0011.1.......-...1---00---------0--------
---------0100------.---.----*-...1.-001-0---0-0-0-------0---
----0-----*-0-----0---1-....*.*0*-.-*0----------------------
--0--1*1--.**.--.*11----0---.0.0--.10-0-------------------0-
----0-0-1-.-0-00--1------1.***..*-.-1--0-------0-------0----
----100*-10*-0*1--0---0---0*0-***0--------0-0-------0-------
----1--00-.-*-*-0---------0*--.-*--0------------------------
---1-..1**...1*-11----0----0*--1----------0-----0-----0---0-
--1-.-*--***-00-1--0------11--1-*100---------------0--------
01-.*.*.*--.*-0-0-----0-----0---0---------------------------
--1-10.-*-----------------0---*---0-------------------------
--0--.*-1*1-*1----0-----0-0---*-1-----0-----0-------0-----0-

Generation = 24, Population = 353.
--1-0-0-*---1--110.*...0.1...***..-..*-**.**.**--0----0-----
-*..*0-*.*---00*.1-.1-.-**..*....1--*-*1*-.*.0.00-0---------
--1*00-01---0-*-10*.*.*.**..0...*****...-*.-1..-1--1--------
-....*-11-0*0-..*-.-.-*-*1.*.*.....*1***1-11-1*-----0-------
0--0-0*-*-0-01..1**--.-*0.-..**.**.0...-**.--.-0------------
-000-**1.-**0......**.-......1...*....1-*-.---1-----------0-
0--.-*-0-0*-----.-.1*.1.........-...1----11-1-.-------------
--100---*1-----.-1-.*-**1-.-.-.....1-..0.1--------0---------
0-.0--10-*.0-.-*11*--1*1*....*.1.0.1*0.11*1---0-------------
-11.1...0-....*...1*1-1-0---.1.*01***--01-0-----0-----------
1---.11*--*0*-0-1**-*-----...*..*.**.-*--0-----------------0
----.1*.-.0*1**.-..---*10*1.11...*.0.-------0---0-----------
1-0-.---1.*0*0..*10-0--101-.-0.*.*-*.*-0--------------------
---*..*-..*.**.*..-1*0-1*00**-*.----0-0-------0---0---0-----
-01-.*.-..*.--*---*-1-0-0*.1-.-0.--***0---------------------
.*-**..**1*...*--*--0-0---1-*1*.-0*-0-0---0---------------0-
*0*-*1.-.0-1-.1-1-----1---.-1...*--1--0---------------------
-**--..0**.*..1-0---0-----*-**.*11*-*---0-------0-------0---

Generation = 28, Population = 404.
-0***.0-*--1--*1*-*....-......****-***1...**.*.-1*-1-0----0-
1*...0-...1-*.-...1*...-..........-1***.*0.*.*.*-*01*-0---0-
--..1.-**1.-**..--**.*....*.*...****.*.****11..-.0--1-01----
-..*.*1-.--*1-...-.0...1.-..**..**.**...*1**0*.-11------0---
0----*.0*-1--.**-**1-*-*-*1........-*......11*--.--0--1-----
-*--0*...0.*-..*.*.**.***.....****...*--.-*0.111------0---0-
00*.1.*.--.01--1*..-.....*..*.*.*...1**-*-*-...110-0-------0
--..--*1*.11-1-*-.-..*.**1*-**......****.-1---1-----0-0-----
01*.--.***.0-*-*-..11.....**...*........*.1.----.-0---------
...*****11.***.*...*.-.--.0-**..-*.*.1--.0.1--.---0-0-0---0-
.-1*.-*.1****---*.*-..*1-*..*..*...*.*.0-0--11---------0-0--
--1.*-****..*.*.-..--1..*..........-.1.1*-1-0---0-0-0-----0-
*-0-*-1.1..*.-...*1*.--.*.-..**...0*..-0--10--1-------------
1***...-..*.....**-*.-1.*-0..**..1--**1-*-0---0-------0-0-0-
.-.0....****0**1*0**11.10...1*-0.-0***-10-1----------------0
..1.....*..*...1.**1.-*1--1.**.*1.*1--1---0-0-0-------0-0-0-
.0*-...1.0.*-*1-*0----.1*-..-*.**---1-.0--0-----------------
0..*1***....**.0**1000-1-0.-.....1.-*-*-*-0---0---0---0---0-

Generation = 32, Population = 333.
*-....0-.1*-11**.1.....-..**.....**...-..******0**-.*1---0.-
...*.--***-.**.*....***0....**...........-***.....1....00---
11..-.*....0*...-...*.......**.*.**..**....--..1.0...*-.----
1*.......--.11*..-.0.......*..*..*.**.***...0*.-.*01-110----
--....*..---....1*.****.1*.....***.-...***.*..1-..-0-1.*1---
..-1-....-***..***..*..**.........***.-0.*.-***1-1---1.1----
-**...*.11**.*.*...*...**.......**..1..-.1*-..*1---0-**-----
*1**-.*.**..-...*.-*.......-...*.*.....*..1.0*1-*00-1-------
1*.**1...**-*.-*-..-..*.......***............---*1-.--------
*.**.*..1.*.......*....1-.-1....-...**-....**-.01-*---------
*-...1.....*.*10...0*...-....*....**....0.1--*-0-----0------
-1*..-....*..**.-..1--.*.*...***...-**.**1.1*-*-------------
*---.0.....*.-....-.*-*..*-*.**.......-**-.1--.1.-----------
-..***.1**.*..*...-..*...0**.*.*.*0-.*.1.1*001.1------0-----
*.......**.*-.*..0.*...10*..-.**.--...*.*011*0--------------
......*..*...**....*.-..1*-.....-.*-*1-11---0---------------
...1...*.-..*..0..10.0*..-*.-...*1*1.-.-1.--.---------------
0***1**....*...*...1-.0.--.-.....*.1.0*-.-*-----------------

Generation = 36, Population = 325.
.-...*-1.-.*..*........0....*.....*..*-......**1..-*...0-1*-
.......***1...*...*...**....*...*.*...*..-.**...***.***.*--0
1-..-**..*.**.*.1**.*..*....*...*.*.....*..**..*.-....-..*-0
-***.....--*1-***-....*.....*.*.....*.***..**..*..0--..1---0
10*......-.1....-......*....*..**..**..*.*.....-.**-0....-*1
..*--...*-***..*.*....*.**...*.......*....*-.*.*----.*.*---0
-.....*.-**....*.*.....*.*....**.*..*....-*1...-**010..--10-
.**.-.*...**-...*.*.****.*.-..**.**...*....**..-..*0*-**1---
*....-...*.-...*...*...........**....**.....*-1**1-.*--00---
*.......**.....*....**.-*.-*....-**...1*.....1.1--*.00-1----
*-....*.**........*1.*..1......*.......*...1-.--0-1-100--0--
-*...1*........*-*...-...***....**.1.*.*...1*0*.1-100-------
.-*.*-.*..*.....*.-*.-...*-....*...*.*-.....*1**.-----------
-..**.....*...*.**1......**.**..*..-*....*.0.-**.-11------0-
....***..**.-.*..-.....*.*..**...*-....*..*..---1----0------
.....**........**....-....-.....***...1..---*-.*------------
**..*.*..-**.........*...0..-...****.-.*.*1-.11-------------
**..1.....**........-.*.*0.-....***....1*-.111-0------0-----

Generation = 40, Population = 310.
.-....-..-..........***1...**.........-.....*.**..-....0-**-
....**.*............*.**...**......*.....-..*..*.........**1
1.**1*..*...**.**.........**.***............*....*....1.*.1-
..*.*.**.1**1-***...*..*...*.***....*........*.*..***.**01--
...**....-.*......*....*..*........*...........1...*-.*.*...
...*-...*-...*......*.*...........*.*.....*1**..-1***..**-1*
..*.*..****.*.......*......***...........**-...-..*.0..0-..0
.**.1..*....-.*.*...*.*...*-......*...**..*....-.....0..--*-
.....-*..........*..*..***.......*.....***........-..-..110-
.**..*.....*..........*.**-.....-..**.-***...-*.**...--.*11-
.**............*..*......***...*............1*-11--..-.-0--0
0*.**...**.....*1****1..*..*...**...*......-.....0-*--.-----
.1..*.**........**-***..***..*........*****......--11--00---
-....*.....**....*.***..***.*......0.***.***.1.*....0-0---0-
............0....1........**.*....1....**....-11.011-10-----
........**..*........-..**...*...*...*1..01..0*.-0*01-0-----
**..**...1**..........**.*..*.....*..-...*.-*1.-1-1---------
**..**.....*........-..**-*0.......*.*.*.-*.-.-*-0----------

Generation = 44, Population = 348.
.1....-..-******......***.............-.....*..***0....**.*0
**...*...*......*...**..*................-.*.*.*......***..*
**.****..........*.**.....................***..**..........-
.**....*..**1*....*.*..*......*....*......**............-.*0
..**..*..1........*..**...***.*...*.*....*..........-..***.*
...*-**..-........**.*....**.**...*.*...**.-...*1..*..***..*
....*****.........*..*....*........*.......1...-....1.**0**.
...**.*.*...-......****....***.................-*..*.1.*-0.-
.....-..*...........***...*.**...**.......**...*..-*.-.*-**.
.***..**..............**.**..*.*..*..**...**.1*...**..**.*-0
****.............**.....*.*...........*.*....**.-....-.*.-1*
.***.*.......***.*..*-*..***....*...**....**....*-*.*-*-*00-
.....**.....*.*..*-*...***.*..***..*.*.......*...11---.-..1*
-..........***...**.....**.*.*.**..1.*..***..**......1*-111-
..*..*...***0....**....*.*.*...*..**.....**..*-*.-.**.--1010
*.......*.*......**..0**.*.*..*..*...*..*-***0..-1.*..-10-0-
**..**..*-*..........*...*.***....***-*.*.*..1.-.-*-.*111---
**..**...*..........-.**.0.1......***.........**00*-*1----0-

*** Life<Cell> 14x79 ***

Generation = 0, Population = 32.
-0------------------------0-------------0-----------------------0--------------
-------------------------------------------------------------------------------
--------------0----------------------------------------------------------------
----0----------------------0---------------------------------------------------
------------------0---------0---------------------------------------0---------0
--------------0----------------0----------------------------0------------------
-------------------------------------------------------------------------------
-------------0------------------0----------------------------------------------
---------------------------------------------------------------------0---------
-------------------0-----------------------------------------------------------
---0-----------------------------------0---------------------------------0-----
-------------------------------------------------------------------------------
---0------------------------------------------0-----------------------0--------
----------0---------------------0------0---0-------0-------0-------0------0----

Generation = 33, Population = 309.
.......-.........-.........*1.-...-.***....-....1...-.........***............-.
...*****.*...........1**.-.*.-.....**.**......***..............-.*...........--
...**.....**...*........*..........**...*...**.*1*.*..........**...*..**.......
.....*-*.**...*.**........*..........***..**0..-.-*.-........*..**.*.*......**.
...****.*.....*....**....*...........*...*.*.****.....-.**....*....***..0...*1.
..-.**.-*......1...**..1.............*............***...**..*-*....*..**.......
.**.****.......*...**...*.*....-...-*..1........*.......**-1*.*.....**.*...***.
.*......*.***....*.**.*...**.....................**..*...***...........*...***.
..1.....**...***.**.*...............*.***-*.*...*-...*...-.*...***..****....*..
-.......*..*.*.*...**..***.*...**....*****.*..-**...*....****....***.*.........
-.....*.0.**..-*0..-......*.....*........*.*...*-....**...*....*..*............
-....-**.......*..........**.***.........**..**.....*********.1*****1..........
..**-.*......***.....-....**.**..........*.*.**.************..*....**.......1**
0-******.....*...........................***.-**-..........*...******.........-

*** Life<Cell> 25x24 ***

Generation = 0, Population = 31.
------------------------
------------------------
------------------------
----------------0-0-----
--------0---------------
------------------------
-----0--------0---------
--------0---------------
-------------0----------
-----------0------------
--0000------------------
------------------------
-0----------------------
----0------------0-----0
------------------------
-------0----------------
0------------------0----
------------------------
-0------0---------------
------------------------
0--0------------------0-
------------------------
---0-----------------0--
------------------------
--0-----0--------0-0---0

Generation = 4, Population = 103.
--------0---------------
------------------------
-----0--------1---------
--------1---0-*-----0-0-
----1-------01----------
--------.--0------------
-01010---11--.----1-----
----1-------0---1-0-----
-1------11-.--.--0------
--0-01-0-----.-1-0-----0
--.0*.-*01----1---------
--0--1-10---------------
01*--*-------0-----1----
1-------1--0-0-----*----
-*0011--0---------------
---1-------0------------
*1*11----------0------11
----0------------1-----0
-0-001------0--------1--
-------0----------------
0-.-0--10--------00--.10
------------------------
-01----1-----------0----
------------------------
----*-0-----00-0---0-010

Generation = 8, Population = 177.
-----*-------1*---------
-----------1--.---------
--1*.1--1-----.---------
----------1-.-.---*---0-
10-*--*-1*---*--1-------
--1--000.*1---*-.1.----1
----..-11..--.-0.-.1--1-
1-00*0---1.--1-1*..-----
0.--***1..1.-1*.1*-0-1--
*11.-.*..--0-.--*..*----
-0.*..-.*.**-.*--.------
-11*1*--00---.--1--.1---
1-*1*.-10--.--.----.--1-
.--*1--*.11-1.-000*..-01
..-.-*-.-----.0--0------
-0--*.---------1-.0-0-0-
.*.*1.0----1-*--1.1---.1
---*0------0---.-1---1-.
1--.1*.101------01-01---
1----*-----------.-1-10-
0-*.001*1--0--1-*----.*.
---00------------0-1-011
11..0--.---1-*----.*1-1-
--01---0----0----------1
-0--*--**0*-.1-100-*0*-.

Generation = 12, Population = 266.
0-0-0.*-*00.1*.-0-1-----
-00-1-0--01--0.*1------1
-0*..--.*-.-01.0.--0--1-
--.*-..**01..1.-.**-----
.*-..-.-.**-1.111-0--0.-
-1111--0..*.-1.-.**--*-.
-11-..--...11.**.*.--0*0
.--1.-0--1.1-.1-...--10-
0*1*...*..-*--....-1--1-
***...*...-.*.0*....---1
*0*****.....-**10*1---*-
--...***--*.-*1*-*-.*00-
1-.1..11111.0..*-1-.11*0
***.*-.**.**-.*-1*.*..**
..*.**1*101-0.0*-----1..
--*1..-0-*0.*--1-.*--*0*
....**0**01.*.10**..01.*
*1*..--*-10-1.1*-.*.--1*
*.1.-...-..---1--*****--
-0.*0*---*1-0---1.-.**0-
-*..01-....*---1.**01..*
*-0*--.*01-0-1-00*0*1-**
.*...11..*1**.*0-0***-.0
-.-.-0---.100--00.10-*0.
*1..*-*..-.-..-.-*-.-.-.

*** Life<Cell> 5x65 ***

Generation = 0, Population = 17.
-------0--0-------------------0-----------------------0----------
-----------------------------------------------------------------
--------------------------0--------------------------0-------0---
----0----------0------------------------------0-------------0----
-----0----------------------0---00----0----------------------0---

Generation = 5, Population = 117.
--0--111--1-00-0-----------0-0-01-10-0-0---------0-01-1--0-0-----
---0--00--00--0-------0-----------0--------------00--0----0--0---
0--------0-----0---0-0-0---0-0-0**0--0-0--0---0-0-----.-0-----0-0
---0---0--0-0-0-0-0-0-0-0-0--000110-000--010-0-0---0-000---0-0-0-
--0-0-0-011----0---0---0----1-****10.10--010--0---0-01*0--0---0-0

Generation = 10, Population = 135.
0---0**-1.***--111----0-----0-1***----0-----011-11*-*.--0-0-0*1-0
--10-0*--------1-------0------10.-1*--1-------1---*-*1--*---1-1--
-0100*-**--**0-10-0---0-000-.*1-..*-1..1-0.0---00-01--.1*10*0-00-
0-0-0--111---01--0---0---1---0.0-..1.-0---1-0---0-1-.-----1-0-0-0
-0-0--1*.--*11-1----0--0--*1--..**.-.-1*-*.-01*-0-01..*1*----0---

Generation = 15, Population = 152.
--.11..-1..****-1.-.-*------1-***...-0.1*1---.1-.-.-**1***01-.*0-
*1-*.**0-1**---*000-0-0-0-01--.-.11.1-*0*-.0-0.-.0.-**...1.0*-*00
1*.**.**.0*..*-.1----*--1--0...-...1-..-10*000--10.*1........0111
11*0.0*..*.01-..--*--*0.-*-01.*1-*.*.*.---.1.*.-*--0**-11-*-.**--
*-.0-..*.1-..-***.-0--1*--...1.*.*.-.****...0*.-1*...**1**-001-*-

Generation = 20, Population = 115.
1-.-....1.*****1..-.-.1-.1-1*-**....-***.**1**1**.*...-...1.-**--
.-1....1*1.*---*--.-01111-.1--*-.....-..*-*--..1.*.-..*..*.-.*.--
.**....*.**...0**0-0-*-1..-*...-....-*.**-*00--.-*....*....*.-*..
*..*..*..*...-..-1..-.*.-.0..*.1-.....*-*1...*...-.0.*..*..-..*--
.1..*........1..**.1.*1*1****-.....-..**........***...*..**.0*1.*

Generation = 25, Population = 126.
--*1......**....**-**..0.1*.*0......-..**..-.*-..*****1...1.-.*.*
...*...*.1*.11..*-*1**.*.....*.1.....-*..1.1.*.**.*-*....**0.*..1
.......**.*.*...*---..**..-...*-....*..*...-.-0**..*..*..*.*.*...
*.*......***.**.-1**0..........1-...*.....*.****.*****.*...-...-*
.1.............*****....**.*..**...-.********.*.*.*.********-.*..

*** Life<Cell> 20x14 ***

Generation = 0, Population = 35.
--0--------0--
--------------
---------0--0-
-------0------
-00------0----
0--000---0----
--0-----0---00
-0------------
------0-------
--------------
---0-----0-0--
--------------
--------------
------0-0-----
---0----------
--------------
----------0---
-00---00------
-------0------
-----0----00-0

Generation = 15, Population = 102.
.1*..-...**.**
*1..**..-***-*
-*-.*.*....*.-
..1..*.-.....*
..**.*..*.1.**
0-*.........-*
*-.1..........
*......*....-.
*.*---.*-..*1.
.*11**..**.*10
...1**....-.*.
*...*....-.*-.
*1.*..*--...0*
.**.*1-.-..*.*
..--***...*.-.
-1.*1...-.*--1
-.1*.-*******.
....**.....-.-
-.-1...**..1**
-...-***..****

Generation = 30, Population = 65.
.**...........
*..*....******
.**....**.....
.........*...*
.........**..*
.-...**...*...
......*.*...*.
...*.**......*
..**..*..*....
.....*....*..-
..........*...
....*.....*...
.1..**...*....
...*.*...***..
..**.***..*...
.......*.....-
......*.......
..**.**.......
...*...*...-..
-...****......

Generation = 45, Population = 19.
..............
..............
..............
..............
....*.........
.-.*.**.......
...*.*........
....*.*.......
..............
.....**......-
.....***......
..............
..............
..............
...**.........
.............-
.......*......
.......*......
......*.*..-..
-.............

*** Life<Cell> 11x12 ***

Generation = 0, Population = 6.
--------0-0-
------------
------0-----
------------
---0--------
------------
---------0--
------------
------------
------------
-----------0

Generation = 20, Population = 54.
.*-..-.****-
.-...**11.-1
-1..*0**.*.*
.-0..-1-**-*
*.-****....*
*--.-*..****
.11...*..1.*
-1.*.-..**0-
-*.*....-1..
*--.*.01.-.1
--.*...*....

Generation = 40, Population = 34.
.....***...-
.....*.**...
....*.*..*..
......**.*..
.**....*....
.*.*........
.*.*........
.*......*...
..*..***-.*.
...*....*..*
....****..*.

*** Life<Cell> 21x29 ***

Generation = 0, Population = 35.
-----------0--0----------0---
-----------------------------
-------0--0---0--------------
-----0----------------------0
-------------------------0--0
-----------------------------
0----0----0------------------
----------------0------------
-----0--00-------------0-----
------------0----------------
--0-0------------0-----------
-----------------------------
------0------------------0---
--------------0----------0---
-----------------------------
-----------------------------
--------0----0---------------
-----------0--0--------------
---0--------------------0----
---------0-------------0-----
-----0-----------------------

Generation = 15, Population = 271.
-.-*****.*.-.***0*-**-..**1.-
1.-*0.0..100.*.--.*0.*0-11-.*
-...0*........1*....--...**.*
*-.*1.-.-*.*-1*-.--..1*.*.*..
1.**.*-*.1--.....*...*-***..*
-*--*1...*.*.-.-*.---0-****1*
1*..-.1...*.*.....1-1-*...--*
0*-*0.**-1.1.*-1**11*0--.*1*.
***-.1..*.*......**0-1*--***.
-111.-*-****-1*1.-1--*-.1***.
..*....-.1-*1-..*-0--.*-.-.*.
-.-.-*..0-..*.0-1*0--.-0-.0-.
*-00*-1--*..*-**11-.*.....-..
--**-**--*-....***0*****-.-..
..*1..1**..-.0*.-*-*.*.-.*00*
-*1..1*-*.**-.*...---.***..**
10*0...*-***.-******-.-1**.**
*-**.*-.**...-.*--1.*.-.1***1
*1..*....-***..-*.*...-0...*-
-.*.*.-..-...-.-.**01.-.0*--*
-***-*1..1.**..*-.01--0-0***-

Generation = 30, Population = 173.
.*1........-....**...........
.**...-...-.....*..**.....-..
*.*...........-....*--*......
...**......*1....*...**......
*.**..*..****....*...**......
***.....*..**1*1.**.*......-.
*..*......**.*...**..**......
.*.***.****.......*..*.-.....
.******...*..**...*--...1**..
-........**.**.*.-.*1...*..*.
............-1.*..-.....*..*.
....*.****.*.*...*.*....*.-.*
*-*.*.**...*.....*.......*.*.
**.....--*-*.....***.......*.
.........*.*....1.*......**..
-...*.**...*.......*.*..*....
..*.......***......*.*..**...
......*...*.......1**...1*...
..*......*..**.........-****.
-..*.***.....****..****.-...*
.............******.-**.-....

*** Life<Cell> 20x58 ***

Generation = 0, Population = 12.
---------------------------------------------0------------
----------------------------------------------------------
----------------------------------------------------------
---------0---------------0--------------------------------
----------------------------------------------------------
--------------------------0-------------------------------
----------------------------------------0-----------------
----------------------------------------------------------
----------------------------------------------------------
--0---------------------0----0----------------------------
----------------------------------------------------------
----------------------------------------------------------
----------------------------------------------------------
----------------------------0-----------------------------
-------------------------------------------0--------------
----------------------------------------0-----------------
----------------------------------------------------------
----------------------------------------------------------
----------------------------------------------------------
-------0--------------------------------------------------

Generation = 40, Population = 242.
.-..*........-.........***...-..-.-**......-..............
...**.......*....*...***.*........*..*..............**1...
-.**...**...*........*.**......-..*.*..........-..-.**....
..*.*1.*-...**..................-..*.................0..-0
...*****.....**.................................0.*....*..
.......****........*............................**.*1*....
...-.****.*...1.....*.........-.......*........***.**.*...
.........*..-.-.**.*.*................*.......*......***..
.....**..*......**......*....................*..*..*.*.**-
..**...*****...*.............*****....*....*.*...***.**..*
**..*..**.***..**.......*...*..***....*...**..........-.**
**.**....**.**.....*........*..*..**.....**...*......*...*
***........*.-....*.**..........***......***......*.1....*
..............*.*..*.........*.....*....*..**.....-.*---.*
...........*..*....*1..-...*-....**......*.*....**.....*.*
..........**.**............***..........**.*....**....-*.-
.-.........*.**.....0......-............**1..*.**-.*...*.*
..........***1......................-..***..*.....-..*-.*.
1-...................................-.***..**..*.....-.-.
.1.................-................-.........**......0...

Generation = 80, Population = 144.
.-.......**.............*....-..-.-**......-..............
.........**............*.*........*..*....................
.......................**......-..*.*.....................
................................-..*....................-.
..........................................*...............
.**.............................**........*....**.........
.**................**.........-.**.......**...............
......***.........*..*.................**.................
..................*****...............*.**................
....................*.**.............**.**..*.***.........
......................*...............*.**..***...*.......
..............***...*.*..............**.**.***..**........
..............*..*.***.................*........*.***.....
..............**.***..........................********....
................***......*........*.......................
........................*.*......**...........*.*..*..*...
.-......................*.*.....*.*............*......*...
.........**......**......*......*...................*.....
--.......**......**..............**.*...............*.*...
.-...............................****................**...

*** Life<Cell> 22x63 ***

Generation = 0, Population = 9.
--------------------------------------------------------0----0-
---------------------------------------------------------------
----0----------------------------------------------------------
--------------------------------------0------------------------
---------------------------------------------------------------
----------------------------------------------0----------------
---------------------------------------------------------------
---------------------------------------------------------------
---------------------------------------------------------------
--------------------------------------------------------------0
-------------------------------------0---------------0---------
---------------------------------------------------------------
---------------------------------------------------------------
---------------------------------------------------------------
---------------------------------------------------------------
---------------------------------------------------------------
-------------------0-------------------------------------------
---------------------------------------------------------------
---------------------------------------------------------------
---------------------------------------------------------------
---------------------------------------------------------------
---------------------------------------------------------------

*** Life<Cell> 2x40 ***

Generation = 0, Population = 2.
0--------------------------------------0
----------------------------------------

Generation = 2, Population = 2.
--0----------------------------------0--
----------------------------------------

Generation = 4, Population = 6.
0-0-0------------------------------0-0-0
----------------------------------------

Generation = 6, Population = 6.
0-0---0--------------------------0---0-0
----------------------------------------

Generation = 8, Population = 6.
0-----0-0----------------------0-0-----0
----------------------------------------

Generation = 10, Population = 6.
--0-0-----0------------------0-----0-0--
----------------------------------------

Generation = 12, Population = 10.
0-----0-0-0-0--------------0-0-0-0-----0
----------------------------------------

Generation = 14, Population = 10.
--0-0---0-0---0----------0---0-0---0-0--
----------------------------------------

Generation = 16, Population = 6.
0-------------0-0------0-0-------------0
----------------------------------------

Generation = 18, Population = 6.
--0---------0-----0--0-----0---------0--
----------------------------------------

Generation = 20, Population = 18.
0-0-0-----0-0-0-0-0110-0-0-0-0-----0-0-0
----------------------------------------

Generation = 22, Population = 18.
0-0---0-0---0-0-00*--*00-0-0---0-0---0-0
----------------------------------------

Generation = 24, Population = 14.
0-------------00*-****-*00-------------0
------------------1--1------------------

*** Life<Cell> 1x80 ***

Generation = 0, Population = 1.
0-------------------------------------------------------------------------------

Generation = 1, Population = 1.
-0------------------------------------------------------------------------------

Generation = 2, Population = 2.
0-0-----------------------------------------------------------------------------

Generation = 3, Population = 1.
---0----------------------------------------------------------------------------

Generation = 4, Population = 2.
--0-0---------------------------------------------------------------------------

Generation = 5, Population = 2.
-0---0--------------------------------------------------------------------------

Generation = 6, Population = 4.
0-0-0-0-------------------------------------------------------------------------

Generation = 7, Population = 1.
-------0------------------------------------------------------------------------

Generation = 8, Population = 2.
------0-0-----------------------------------------------------------------------

Generation = 9, Population = 2.
-----0---0----------------------------------------------------------------------

Generation = 10, Population = 4.
----0-0-0-0---------------------------------------------------------------------

Generation = 11, Population = 2.
---0-------0--------------------------------------------------------------------

Generation = 12, Population = 4.
--0-0-----0-0-------------------------------------------------------------------

Generation = 13, Population = 4.
-0---0---0---0------------------------------------------------------------------

Generation = 14, Population = 8.
0-0-0-0-0-0-0-0-----------------------------------------------------------------

Generation = 15, Population = 1.
---------------0----------------------------------------------------------------

Generation = 16, Population = 2.
--------------0-0---------------------------------------------------------------

Generation = 17, Population = 2.
-------------0---0--------------------------------------------------------------

Generation = 18, Population = 4.
------------0-0-0-0-------------------------------------------------------------

Generation = 19, Population = 2.
-----------0-------0------------------------------------------------------------

Generation = 20, Population = 4.
----------0-0-----0-0-----------------------------------------------------------

Generation = 21, Population = 4.
---------0---0---0---0----------------------------------------------------------

Generation = 22, Population = 8.
--------0-0-0-0-0-0-0-0---------------------------------------------------------

Generation = 23, Population = 2.
-------0---------------0--------------------------------------------------------

Generation = 24, Population = 4.
------0-0-------------0-0-------------------------------------------------------

Generation = 25, Population = 4.
-----0---0-----------0---0------------------------------------------------------

*** Life<Cell> 25x25 ***

Generation = 0, Population = 2.
00-----------------------
-------------------------
-------------------------
-------------------------
-------------------------
-------------------------
-------------------------
-------------------------
-------------------------
-------------------------
-------------------------
-------------------------
-------------------------
-------------------------
-------------------------
-------------------------
-------------------------
-------------------------
-------------------------
-------------------------
-------------------------
-------------------------
-------------------------
-------------------------
-------------------------

Generation = 1, Population = 5.
110----------------------
00-----------------------
-------------------------
-------------------------
-------------------------
-------------------------
-------------------------
-------------------------
-------------------------
-------------------------
-------------------------
-------------------------
-------------------------
-------------------------
-------------------------
-------------------------
-------------------------
-------------------------
-------------------------
-------------------------
-------------------------
-------------------------
-------------------------
-------------------------
-------------------------

Generation = 2, Population = 5.
-*10---------------------
-------------------------
00-----------------------
-------------------------
-------------------------
-------------------------
-------------------------
-------------------------
-------------------------
-------------------------
-------------------------
-------------------------
-------------------------
-------------------------
-------------------------
-------------------------
-------------------------
-------------------------
-------------------------
-------------------------
-------------------------
-------------------------
-------------------------
-------------------------
-------------------------

Generation = 3, Population = 11.
1.-10--------------------
0-00---------------------
110----------------------
00-----------------------
-------------------------
-------------------------
-------------------------
-------------------------
-------------------------
-------------------------
-------------------------
-------------------------
-------------------------
-------------------------
-------------------------
-------------------------
-------------------------
-------------------------
-------------------------
-------------------------
-------------------------
-------------------------
-------------------------
-------------------------
-------------------------

Generation = 4, Population = 9.
**--10-------------------
-0-----------------------
**-----------------------
-------------------------
00-----------------------
-------------------------
-------------------------
-------------------------
-------------------------
-------------------------
-------------------------
-------------------------
-------------------------
-------------------------
-------------------------
-------------------------
-------------------------
-------------------------
-------------------------
-------------------------
-------------------------
-------------------------
-------------------------
-------------------------
-------------------------

Generation = 5, Population = 19.
**11*10------------------
0-0-00-------------------
**0----------------------
-------------------------
110----------------------
00-----------------------
-------------------------
-------------------------
-------------------------
-------------------------
-------------------------
-------------------------
-------------------------
-------------------------
-------------------------
-------------------------
-------------------------
-------------------------
-------------------------
-------------------------
-------------------------
-------------------------
-------------------------
-------------------------
-------------------------

Generation = 6, Population = 15.
*.*-.*10-----------------
---0---------------------
*.-000-------------------
-------------------------
-*10---------------------
-------------------------
00-----------------------
-------------------------
-------------------------
-------------------------
-------------------------
-------------------------
-------------------------
-------------------------
-------------------------
-------------------------
-------------------------
-------------------------
-------------------------
-------------------------
-------------------------
-------------------------
-------------------------
-------------------------
-------------------------

Generation = 7, Population = 24.
...-..-10----------------
---1--00-----------------
..0--10------------------
000-00-------------------
1.-10--------------------
0-00---------------------
110----------------------
00-----------------------
-------------------------
-------------------------
-------------------------
-------------------------
-------------------------
-------------------------
-------------------------
-------------------------
-------------------------
-------------------------
-------------------------
-------------------------
-------------------------
-------------------------
-------------------------
-------------------------
-------------------------

Generation = 8, Population = 12.
...1..--10---------------
----0--------------------
..1----------------------
---0---------------------
-.1----------------------
-0-----------------------
**-----------------------
-------------------------
00-----------------------
-------------------------
-------------------------
-------------------------
-------------------------
-------------------------
-------------------------
-------------------------
-------------------------
-------------------------
-------------------------
-------------------------
-------------------------
-------------------------
-------------------------
-------------------------
-------------------------

Generation = 9, Population = 20.
...-..-1*10--------------
--0--0--00---------------
..--0--------------------
--0-0--------------------
-.-----------------------
-1-----------------------
**0----------------------
-------------------------
110----------------------
00-----------------------
-------------------------
-------------------------
-------------------------
-------------------------
-------------------------
-------------------------
-------------------------
-------------------------
-------------------------
-------------------------
-------------------------
-------------------------
-------------------------
-------------------------
-------------------------

Generation = 10, Population = 27.
...-..1*.*10-------------
-0-1--0------------------
..-01---00---------------
-0--10-------------------
-.1-0--------------------
-*-----------------------
**10---------------------
-------------------------
-*10---------------------
-------------------------
00-----------------------
-------------------------
-------------------------
-------------------------
-------------------------
-------------------------
-------------------------
-------------------------
-------------------------
-------------------------
-------------------------
-------------------------
-------------------------
-------------------------
-------------------------

Generation = 11, Population = 44.
...1..-*..-10------------
0--*-01-0-00-------------
..1---00110--------------
0---*10-00---------------
-*--1--------------------
-.000--------------------
**-10--------------------
0------------------------
1.-10--------------------
0-00---------------------
110----------------------
00-----------------------
-------------------------
-------------------------
-------------------------
-------------------------
-------------------------
-------------------------
-------------------------
-------------------------
-------------------------
-------------------------
-------------------------
-------------------------
-------------------------

Generation = 12, Population = 39.
...**.-*..--10-----------
-0-*-1--10---------------
.*--111--*---------------
--00*--0-----------------
-*----0-00---------------
0.1110-------------------
**1--0-------------------
-------------------------
-.--10-------------------
-0-----------------------
**-----------------------
-------------------------
00-----------------------
-------------------------
-------------------------
-------------------------
-------------------------
-------------------------
-------------------------
-------------------------
-------------------------
-------------------------
-------------------------
-------------------------
-------------------------

Generation = 13, Population = 59.
..***.1.*.-1*10----------
01-*-*--*-0-00-----------
.*-0-**--*0--------------
-01-*-0------------------
-*1----0110--------------
1.------00---------------
*.---10------------------
000-0--------------------
-.-1*10------------------
-10-00-------------------
**0----------------------
-------------------------
110----------------------
00-----------------------
-------------------------
-------------------------
-------------------------
-------------------------
-------------------------
-------------------------
-------------------------
-------------------------
-------------------------
-------------------------
-------------------------

Generation = 14, Population = 74.
.*****-*.*-*.*10---------
1-0.0.10*010-------------
..111.*0-*-000-----------
01-0*11-0----------------
-.-11--1**10-------------
*.1--00------------------
*.1--*1000---------------
--1010-------------------
1.1*.*10-----------------
---0---------------------
*.-000-------------------
-------------------------
-*10---------------------
-------------------------
00-----------------------
-------------------------
-------------------------
-------------------------
-------------------------
-------------------------
-------------------------
-------------------------
-------------------------
-------------------------
-------------------------

Generation = 15, Population = 77.
.**.**1*.*1**.-10--------
-1-.-.--.--1--00---------
*.-**..--.0--10----------
1*11.---100-00-----------
-.---00***-10------------
..*----0--00-------------
..---.*--10--------------
-0*1-10-00---------------
-*-..*-10----------------
------00-----------------
..0--10------------------
000-00-------------------
1.-10--------------------
0-00---------------------
110----------------------
00-----------------------
-------------------------
-------------------------
-------------------------
-------------------------
-------------------------
-------------------------
-------------------------
-------------------------
-------------------------

Generation = 16, Population = 56.
.**..*-...-**.--10-------
-*-.-.10.01*-------------
*.-**..-1.1--------------
-*--.11--1-0-------------
1.-111-...---------------
...1-001-0---------------
.*-1-**------------------
0-**---0-----------------
1*-.**-------------------
-10--0-------------------
..10---------------------
---0---------------------
-.1----------------------
-0-----------------------
**-----------------------
-------------------------
00-----------------------
-------------------------
-------------------------
-------------------------
-------------------------
-------------------------
-------------------------
-------------------------
-------------------------

Generation = 17, Population = 73.
.**...-...-**.-1*10------
-*-*0**1*1*.----00-------
**1.*..--.*0-------------
1*1-.-*0--0-0------------
-.1--*0**.-1-------------
...-111*--0--------------
.*1--*.0-1---------------
1-.*----0----------------
-.1.**11-----------------
-----10------------------
.*--01-------------------
--010--------------------
-.-----------------------
-1-----------------------
**0----------------------
-------------------------
110----------------------
00-----------------------
-------------------------
-------------------------
-------------------------
-------------------------
-------------------------
-------------------------
-------------------------

Generation = 18, Population = 72.
.*****1***-*..1*.*10-----
-.-.1**-*-..0------------
..-.*..-1..1----00-------
-.*1.-.--11--0-----------
1.*1-.-.**1--------------
.**1*-*.-----------------
.**--*.10----------------
--.*--00-----------------
1.-**.**-----------------
-10-0*-------------------
..-----------------------
--1----------------------
-.110--------------------
-*-----------------------
**10---------------------
-------------------------
-*10---------------------
-------------------------
00-----------------------
-------------------------
-------------------------
-------------------------
-------------------------
-------------------------
-------------------------

Generation = 19, Population = 94.
..**..*.**-...*...-10----
-.0.*..1.-**-0000-00-----
..1.*..0*.*--1-0110------
1**-*-.-1---0-0-00-------
-..*-.0.*.-1-0-----------
*..**1*.-00--------------
.*.1-*.-11---------------
10.*---1-----------------
-*-....*0----------------
-*10-*-0-----------------
.*--01-------------------
-0*-0--------------------
-*--10-------------------
-.0-0--------------------
**-10--------------------
0------------------------
1.-10--------------------
0-00---------------------
110----------------------
00-----------------------
-------------------------
-------------------------
-------------------------
-------------------------
-------------------------

Generation = 20, Population = 98.
..**...***-..**...--10---
-*-.****.-**--11-0-------
..-.**.-*.*--*---*-------
***1*1.--11----0---------
-...1.1.*.--0---00-------
...*.**.0-1--0-----------
.*.-0*.-*----------------
*1..110*00---------------
-.-**..*10---------------
0*-10*-1-----------------
*.1---00-----------------
01*--0-------------------
1*11*10------------------
0.-0---------------------
**1*-0-------------------
-------------------------
-.--10-------------------
-0-----------------------
**-----------------------
-------------------------
00-----------------------
-------------------------
-------------------------
-------------------------
-------------------------

Generation = 21, Population = 116.
..****.***-..***..-1*10--
1.-......-**00-*-10-00---
*.1....-*..-0.--1.0------
.**-.-*-1*-0000----------
1*..*.*.*.-1----110------
...*..*.---0--0-00-------
***--..-.-0--0-----------
*-*.**-.--0--------------
-.1.....*-0--------------
-*1-1*0--0---------------
..*-011-0----------------
1*.--100-----------------
*.**.*10-----------------
-.0---0------------------
**-*--0------------------
00000--------------------
-.-1*10------------------
-10-00-------------------
**0----------------------
-------------------------
110----------------------
00-----------------------
-------------------------
-------------------------
-------------------------

Generation = 22, Population = 120.
...**...**-*.*.**.-*.*10-
*.-.*..*.-**1-1*0*-0-----
*.*....0*..1-.0--.1000---
..*1.1.-**--1-10-0-------
**.*..*.**1--0-0-*10-----
...*.*.*0--10------------
*.*-0*.-.11-0---00-------
*1*...0.00-0-0-----------
1.-...*..010-------------
0**--.-10----------------
*.*---*0-----------------
-..1-*-------------------
*.***.--0----------------
-.10---------------------
*.-.-010-----------------
-1-----------------------
1.1-.*10-----------------
---0---------------------
*.-000-------------------
-------------------------
-*10---------------------
-------------------------
00-----------------------
-------------------------
-------------------------

Generation = 23, Population = 145.
...**...**1*.*...*1.*.-10
.*0.*..*.-..*0-.1*0---00-
..*.*.*-...*0.-01.*1-10--
*..-*-*-..---0---10-00---
.*.*.**...*-0-01-*-10----
*..*.*.*-01*---00-00-----
*.*11*.1.-*-1--0110------
*-**..1*11-10-0-00-------
-.-...*..---00-----------
1.*1-.0-1-00-------------
*.*---*------------------
-..*0*-00----------------
.*....-0-0---------------
-.---0000----------------
.*1.01-10----------------
0------------------------
-*--..-10----------------
---1--00-----------------
..0--10------------------
000-00-------------------
1.-10--------------------
0-00---------------------
110----------------------
00-----------------------
-------------------------

Generation = 24, Population = 120.
..***...**-*.*..*.-*..--1
.*-.*..**1...-1*-.1-0----
..*.*.*-...*-.01-..*0----
.**-*1*0..101------------
****...*.**1-01-1.-------
*......*-1-.0--1---------
*..--*.-.1.-*0---*-------
.-*...-.-*0*10-0---------
-.-..**..010-1--00-------
*.**1*----11-0-----------
..*00-*---00-------------
1***-*0-1----------------
......----0--------------
-*1----------------------
.**.1-1--0---------------
-10-00-------------------
-.11..--10---------------
-1--0--------------------
..1----------------------
---0---------------------
-.1----------------------
-0-----------------------
**-----------------------
-------------------------
00-----------------------

Generation = 25, Population = 142.
..***..*.*-...**..-*..-1-
.*0.*..*.-..*--.-.--10--0
..*.*..0.*.*-*--1..*-1---
*..1*-.-**--*--00--00----
*..***.*.*.--1*1-.-------
*.*...*.---.10---0-------
.*.-1..1.-.-.-0-1.0------
.1...*1.1.1.*1-----------
1*-..**..--10-0-110------
.**.*.0---**-10-00-------
*..---*000--00-----------
**..0*---0-0-------------
*..*..1-00-0-------------
0*-00-0--00--------------
*...*1-10-0--------------
0-10-1--0----------------
-.-*.*-1*10--------------
0-0--0--00---------------
..--0--------------------
--0-0--------------------
-.-----------------------
-1-----------------------
**0----------------------
-------------------------
110----------------------
