21

25 9
34
2 4
20 0
17 1
1 8
13 7
4 3
24 1
11 0
4 0
11 3
5 4
21 2
10 4
11 1
14 7
12 5
11 7
11 4
0 1
14 0
23 3
18 1
3 4
0 4
3 4
8 0
19 2
14 3
7 6
19 1
24 4
21 7
18 8
2 2
12 16

8 15
19
2 8
5 5
5 5
5 4
4 0
0 11
7 12
7 13
2 8
1 14
5 5
2 9
2 2
2 1
0 4
4 7
5 6
7 10
7 8
8 18

20 76
19
15 70
0 16
5 53
15 8
1 54
19 3
11 70
1 66
4 11
14 70
2 50
0 10
4 32
16 33
10 40
13 39
13 12
5 64
14 49
18 33

22 19
17
13 18
13 9
10 13
11 5
21 0
19 6
17 3
12 10
16 1
1 14
7 5
19 10
1 14
6 2
4 11
2 16
2 11
46 47

20 38
40
16 9
2 17
9 7
18 3
14 14
9 16
12 21
19 26
13 31
12 26
13 27
11 7
1 6
17 2
0 4
14 25
18 0
2 17
13 15
10 17
2 31
17 10
8 10
14 29
2 14
12 4
15 13
19 19
3 7
9 13
17 21
5 12
13 24
13 34
9 35
8 32
4 10
4 23
4 7
12 33
35 9

21 15
6
10 5
19 2
16 12
1 10
19 3
7 0
22 46

9 36
1
1 10
13 45

10 37
16
1 36
0 7
1 14
9 27
1 22
5 19
8 21
6 16
4 26
6 8
2 9
4 5
3 19
5 6
3 31
9 23
25 27

10 80
40
8 60
0 64
3 33
5 55
2 24
7 74
8 16
7 57
7 21
4 59
2 68
9 14
6 68
4 58
9 79
7 19
8 66
8 71
9 65
9 50
4 52
7 42
7 76
8 14
3 62
8 74
8 39
8 8
3 75
7 30
1 21
1 64
1 40
8 19
8 34
6 34
3 43
4 58
1 56
1 63
10 17

22 34
34
11 26
9 3
3 5
0 29
4 0
9 7
4 10
18 11
5 28
20 24
9 22
6 20
21 17
3 33
13 10
2 8
20 30
1 7
9 14
2 14
7 31
14 25
2 28
2 23
2 9
17 20
7 25
11 4
21 29
7 26
3 32
0 16
17 19
19 27
34 44

8 70
37
2 28
3 50
2 38
6 13
2 29
5 7
3 8
3 60
3 31
0 64
1 13
2 49
2 15
6 42
5 31
0 69
3 57
1 35
3 39
0 8
4 34
5 38
2 10
1 61
2 8
4 40
7 49
6 46
6 29
0 36
0 66
1 62
5 4
1 62
5 4
7 28
7 5
30 14

15 13
18
13 6
10 3
13 6
7 2
0 9
13 3
14 12
0 5
14 10
14 10
9 0
13 10
7 0
8 5
1 9
8 11
4 8
5 2
45 42

7 57
4
1 43
4 45
2 5
4 51
13 38

3 24
34
1 19
2 15
1 13
0 11
0 12
0 21
1 1
1 1
1 5
0 14
0 18
0 9
1 23
2 18
1 3
1 11
2 12
0 0
0 6
2 15
2 18
1 0
1 2
0 4
2 11
0 5
1 13
0 7
1 9
2 4
0 4
2 9
2 2
2 15
22 38

25 60
1
16 9
33 3

4 47
7
3 1
3 43
1 5
1 19
0 34
2 34
3 44
30 12

3 36
14
1 7
2 25
2 17
0 27
2 23
0 0
2 2
1 19
0 28
1 0
2 28
2 32
2 35
2 10
24 30

20 24
27
19 11
8 9
7 10
11 9
13 17
7 9
9 17
4 17
9 17
15 8
10 8
9 5
12 5
10 1
14 12
15 11
6 14
12 14
3 21
16 2
19 5
6 23
4 3
13 5
4 14
4 2
13 9
2 40

23 19
47
3 16
4 12
14 13
18 6
7 12
7 10
13 9
8 11
7 14
19 17
14 3
15 8
12 1
16 17
16 9
2 14
14 7
14 18
12 4
16 11
16 14
20 16
13 1
13 8
5 16
19 6
0 4
10 0
15 13
9 6
7 18
12 2
22 14
8 6
5 1
1 2
2 12
6 0
3 5
6 0
4 11
2 15
16 12
15 6
21 17
1 3
18 13
19 34

19 80
29
9 27
10 4
6 29
10 9
8 63
4 73
9 79
0 7
5 6
11 30
14 17
1 10
11 17
1 41
13 44
0 50
8 71
8 12
8 45
12 72
15 51
0 16
7 50
8 39
5 43
12 42
9 63
12 27
8 23
15 5

25 80
8
0 0
0 1
1 0
1 1
23 78
23 79
24 78
24 79
80 1
