22

50 4
10
12 2
7 3
24 2
11 1
42 1
28 2
21 0
19 1
18 2
20 2
120 29

56 67
17
14 45
33 4
19 3
33 0
13 41
44 44
12 56
24 45
11 8
4 49
25 18
35 4
4 47
11 30
51 65
20 22
48 41
173 131

7 27
28
3 23
3 22
0 20
3 1
4 0
2 20
0 0
0 3
2 20
2 9
1 22
2 15
4 15
1 14
0 13
6 18
0 10
3 16
4 1
0 15
5 19
2 7
5 11
6 25
1 6
0 3
5 17
5 7
68 62

12 39
26
5 33
2 38
11 22
2 10
1 4
2 20
4 29
6 18
1 37
3 33
0 6
1 6
1 1
10 15
4 36
2 14
9 18
3 10
10 17
4 19
11 0
4 10
6 13
4 0
8 6
8 25
5 87

74 33
22
0 6
23 2
55 21
64 30
20 24
72 25
6 14
56 3
19 17
64 32
73 5
21 16
32 31
32 0
48 5
18 25
12 25
46 18
63 17
20 3
59 31
32 4
170 182

97 69
2
91 2
87 68
159 90

75 46
24
57 1
31 27
73 40
10 36
26 14
21 33
33 25
39 5
51 8
9 42
3 22
33 19
54 37
44 15
0 39
59 4
27 4
47 21
70 35
47 8
16 35
54 39
64 12
55 37
77 115

35 74
27
25 65
15 71
21 58
23 12
34 12
7 44
0 6
13 44
7 26
27 51
6 65
4 72
28 0
21 46
26 5
3 27
18 56
34 28
3 65
1 12
6 29
6 16
2 38
26 66
11 70
18 4
29 36
55 11

64 71
4
19 18
46 8
36 19
25 37
194 138

36 42
7
28 26
24 32
33 20
21 22
27 41
8 1
25 39
47 90

27 68
10
3 65
26 41
20 63
2 55
13 64
11 9
10 65
24 57
23 28
17 31
100 108

95 63
7
0 53
94 34
70 13
49 8
20 29
49 45
11 0
132 43

96 77
23
78 11
66 3
22 56
53 74
63 21
73 38
93 45
85 66
94 40
44 52
72 74
38 55
86 26
55 29
39 3
28 73
11 4
19 39
22 38
91 21
31 5
35 37
28 66
38 92

34 91
30
11 78
32 62
27 50
14 30
2 17
27 85
2 83
25 25
3 47
32 9
32 28
12 86
9 73
6 65
9 77
24 22
33 0
19 0
19 15
29 12
15 33
28 30
29 38
21 0
13 76
25 79
8 6
25 11
26 1
31 47
130 61

50 83
17
38 47
8 62
30 70
25 64
5 8
49 8
44 32
15 13
20 73
47 40
24 24
6 78
25 29
46 68
6 35
2 80
28 39
24 107

95 66
3
73 45
36 63
63 60
164 3

51 63
12
7 62
8 26
19 6
13 48
29 50
3 51
12 61
34 16
40 49
6 46
50 8
38 50
14 127

40 32
28
21 9
33 14
11 24
10 18
29 28
39 29
12 15
22 7
6 0
0 31
2 10
30 20
22 21
1 22
2 17
6 6
35 21
2 15
38 13
16 28
4 26
33 4
10 16
26 14
4 25
25 2
2 3
29 17
72 2

20 21
15
19 20
4 9
12 19
8 19
18 12
6 8
14 3
2 15
3 15
15 9
19 14
1 2
4 19
10 0
14 14
100 162

46 40
25
26 10
13 18
16 35
21 0
10 7
28 9
20 23
32 7
7 27
2 10
26 25
14 19
24 11
21 4
42 10
24 31
38 27
4 26
3 4
20 1
23 38
15 2
28 23
2 32
10 10
28 95

61 88
18
2 9
9 38
44 81
6 7
47 54
24 45
59 0
41 77
24 16
11 16
6 13
28 44
21 20
57 11
15 6
7 72
36 40
50 25
174 136

90 86
18
84 28
20 74
52 34
87 14
2 8
22 29
87 21
20 78
34 78
58 63
1 6
17 18
25 60
25 57
78 83
58 1
39 59
8 26
9 131
