26

12 4
5
6 1
8 1
1 0
0 0
9 3
43 8

47 14
9
31 3
40 10
43 7
30 11
38 0
38 11
20 9
40 0
30 3
35 1

7 49
13
1 14
0 37
1 15
3 17
4 41
4 17
5 37
3 47
4 44
1 15
1 44
5 39
6 19
17 1

41 24
13
22 14
7 18
1 8
25 6
34 18
5 10
34 18
36 17
27 16
4 5
24 18
9 8
27 5
4 1

13 48
21
3 37
6 35
0 0
2 11
9 8
10 21
6 38
7 10
4 21
4 24
8 8
0 12
12 44
3 10
5 33
3 31
6 3
9 2
3 35
5 32
1 33
1 10

16 31
23
0 13
4 25
5 6
6 17
8 28
5 5
1 14
13 19
14 13
14 10
4 16
1 11
15 18
6 10
1 6
15 3
2 17
3 8
5 18
4 7
13 25
8 14
4 29
27 4

25 26
4
24 16
11 1
15 8
24 22
1 10

39 33
5
33 8
23 16
10 9
24 5
14 27
12 6

8 8
6
4 5
3 7
1 4
5 4
7 5
6 2
15 8

16 47
14
15 38
12 18
10 45
3 10
10 11
10 15
9 20
0 16
7 3
1 28
4 0
3 19
4 42
11 10
42 1

28 40
9
14 2
9 33
0 35
1 25
6 0
24 10
20 37
13 1
8 24
42 9

33 38
5
11 27
4 7
15 34
9 1
24 17
36 9

46 21
28
6 13
34 4
13 1
36 13
26 2
0 7
27 10
40 20
39 18
35 20
33 8
23 19
35 5
11 12
29 4
34 20
35 2
21 2
7 10
35 20
8 3
18 2
20 3
45 3
29 18
9 14
41 5
14 0
43 9

30 45
12
20 27
1 40
27 29
26 43
14 21
15 17
2 1
6 9
14 4
29 0
29 42
12 40
38 10

26 7
27
22 5
25 0
19 3
15 0
10 4
23 6
6 4
22 6
0 2
1 4
12 1
15 2
13 4
21 5
1 3
10 5
3 6
6 5
0 0
3 5
0 2
10 4
12 6
1 1
21 2
13 2
3 3
27 8

47 1
9
31 0
41 0
24 0
8 0
34 0
31 0
22 0
32 0
19 0
1 3

35 29
13
18 9
31 6
1 0
19 9
1 4
33 2
2 22
14 24
34 1
28 18
12 2
16 1
17 24
8 4

35 5
7
16 1
1 1
17 1
11 4
2 2
21 3
19 2
4 8

15 5
7
11 4
0 0
7 2
1 2
11 0
14 3
7 3
34 5

50 46
16
45 32
24 3
29 45
34 23
2 6
3 20
38 25
16 18
33 23
19 21
26 19
13 33
24 40
22 21
9 21
44 25
46 1

18 47
15
6 6
7 3
3 40
12 36
9 9
9 32
4 23
8 7
8 12
1 31
6 15
10 33
0 7
4 27
2 16
13 7

39 2
7
1 1
7 1
24 1
19 1
4 1
13 1
0 1
35 4

46 16
25
8 8
26 13
17 9
34 8
9 9
4 15
23 7
37 13
33 3
2 4
37 9
5 15
24 13
35 0
11 9
32 1
14 6
35 9
32 8
21 5
22 10
40 4
41 14
14 11
10 12
34 7

40 18
2
11 12
16 2
23 4

29 38
33
2 2
4 27
14 35
27 10
1 13
28 22
25 33
22 24
9 12
14 37
4 16
20 33
18 20
14 12
28 11
10 8
8 19
6 7
23 20
0 4
15 1
15 10
25 20
13 30
15 7
2 16
25 34
11 17
7 15
5 31
26 23
18 33
0 20
12 5

44 2
3
27 1
43 0
16 0
16 10
