*** Life<FredkinCell> 17x10 ***

Generation = 0, Population = 21.
--00--0---
---0------
0---------
----------
----------
-0--0-----
------00--
----0---00
---------0
----------
---0------
-----0-0--
-------0--
----------
-----0----
----00----
------0---

Generation = 19, Population = 83.
665-----4-
--3--320--
--1-53-6-0
31-583-6-1
52-5--2--7
5-46----98
52-17-3-2-
-6--------
--0-55---4
5-4-7---1-
--2--3--4-
-2---+-5-7
-31-3-23-3
25-5363423
--75-56-2-
-66234-4--
---3-72-12

Generation = 38, Population = 96.
++-++++-+-
3--96--4+-
37-8995+--
45+---9-+-
+-6+---6-+
---+5-98+-
---4+5857-
--57---87-
-5--++++-+
--6-++684-
+-79--7799
88++7+-+9-
+-48--4--8
+-5--+-8-7
--+--+---+
8+-45-+-++
-4-+--97-7

Generation = 57, Population = 80.
-+9+--+---
-++--++-+-
7++-+--++-
-+---++---
+6---9+++-
-++---++-+
-++7---+--
+-9--+---+
----++++-+
-+--++-97+
-+-+-+--++
+-+++---9+
++---+-+++
-+-+--+---
----9+-++-
-+-99+----
5-----+-8+

*** Life<FredkinCell> 1x11 ***

Generation = 0, Population = 5.
0-000----0-

Generation = 13, Population = 4.
-2--7----32

Generation = 26, Population = 7.
56+--1-6+-6

Generation = 39, Population = 6.
--+9--8++-+

Generation = 52, Population = 7.
--+-+1++++-

Generation = 65, Population = 4.
++----+--+-

Generation = 78, Population = 7.
+-++-1--+++

Generation = 91, Population = 6.
+-+++--++--

*** Life<FredkinCell> 16x14 ***

Generation = 0, Population = 3.
----------0---
--------------
0-------------
--------------
--------------
--------------
--------------
--------------
--------------
--------------
--------------
--------------
--------------
--------------
-------------0
--------------

Generation = 9, Population = 36.
-0-0-----0-0--
--0---0-0-0---
-----0---0----
0-----0-0-----
-0------------
0---------0--0
---------0-00-
-------------0
---------0-0--
0---------0--0
-0----------0-
0------------0
--------------
-----0-0------
----0---0-----
-----0-0------

Generation = 18, Population = 19.
0-----0----022
--------------
--0-0-----11--
--------------
------------10
--------------
--------------
--------------
--------------
--------------
0-------------
--------------
-10-------0---
--------------
--20----0---0-
--------------

Generation = 27, Population = 109.
-001---3--1---
-----000-----0
-00232--5-2-5-
00-000-000-0-0
0-0-0--1310-4-
0000-000-----0
--3100---34---
--00----0---0-
-2---1-1--01-3
0--00-----0--0
--124--0-23-32
-0-0-00--0-0-0
4-20231-021-11
-0-000--00-0-0
--6-4--2--3-10
---0----0-000-

Generation = 36, Population = 25.
------0-2-1---
--------------
--0-4---6-2-5-
--------------
0-1-2---4-1-4-
--------------
2-4-------5---
--------------
0------------5
--------------
-----------4-4
--------------
---------2-0--
--------------
-------2-0----
--------------

Generation = 45, Population = 73.
-----------336
--0-0-----00--
-0---4---43--9
0-----0-00---0
--------5---53
0-----000--00-
-0---00--875--
--0-00---0----
----0---00-3--
--000--00---0-
-33--600-----4
00---0--------
5---43-0-----3
---00---0---0-
8-72-----0-1--
000-------0---

Generation = 54, Population = 36.
--0-23-7--2-4-
--------------
----45-4+-----
--------------
0-----------75
--------------
204-0-----9--7
--------------
--4-0--------7
--------------
35--------5-45
--------------
8-----2-0-----
--------------
--+--19-404---
--------------

Generation = 63, Population = 19.
-4-----+-----+
--0-----0---0-
---8-----8-+--
--0-------0---
-2------------
0-------------
--------------
--------------
--------------
--------------
--------------
-------------0
------------6-
-----------0--
----------8---
-----------0-0

Generation = 72, Population = 31.
------0-4-----
--------------
----8-----4-++
--------------
----4---------
--------------
4-------2+-9-+
--------------
0-----0-------
--------------
--4-86-0-58+-8
--------------
----------4---
--------------
+6-4-2-4-0-2-0
--------------

Generation = 81, Population = 61.
-----6--5+-9-+
--0-0-0-------
-0---8-6++-+-+
--------00-00-
-2---2------+-
--0-0-------0-
-----------96+
0-----------00
-4------------
-0--------0---
585------6-+--
000-0-----0---
-+---6--------
0----00---0---
----+-+4-0-2--
0-0-000---0---

Generation = 90, Population = 3.
----------3---
--------------
0-------------
--------------
--------------
--------------
--------------
--------------
--------------
--------------
--------------
--------------
--------------
--------------
-------------0
--------------

Generation = 99, Population = 36.
-6-9-----+-9--
--0---0-0-0---
-----+---+----
0-----0-0-----
-3------------
0---------0--0
---------+-+6-
-------------0
---------0-9--
0---------0--0
-9----------+-
0------------0
--------------
-----0-0------
----+---9-----
-----0-0------

*** Life<FredkinCell> 5x18 ***

Generation = 0, Population = 25.
-----0--00----00--
0--0----0--0------
--0------000-0--0-
-0-0---------00---
-0-0-0---0-0-0----

Generation = 7, Population = 41.
-00210201--1-1--1-
--15-11121-----0--
---22--04523-12-21
--1--1--021-3--332
-------------3--3-

Generation = 14, Population = 49.
2225-3----1--3---3
323---41-1-3252---
-43-65-066---4-03-
3-23-122-62--3-5-3
02-415-01-8-53----

Generation = 21, Population = 35.
---+---3----2558--
425------5-4-5-2--
6--5--1---+6---2--
----62-6-8---337--
1----64-8--28-636-

Generation = 28, Population = 36.
5-4-4----5---76---
----33+4---5--94--
----9-3--+-82--66-
--3-8-6-2---366---
-77------+--+69575

Generation = 35, Population = 41.
-----69+46---99---
----6-+-46-7--+---
948-+-56---8---9-9
+--7+---3+67-97+-6
6--83-+---+---+6-8

Generation = 42, Population = 47.
7----8++76-7--9+-3
--++8-+8-8797--55+
+--7-8---+---7+-+-
-758+-985---++-+7-
------+69-+---+89-

Generation = 49, Population = 45.
-8-+---+-8-8+++--6
----+3----+--++8--
+-+8-+-++--+68-++-
+-5-+8-+6-+8++-+-8
++++--+--+----+---

Generation = 56, Population = 50.
-88--+-+--+-+--+86
+4++-8-9---+9-+--+
+-++++6-+-++++---+
+-59--++---++---+9
++++7-+9-+---+--+-

Generation = 63, Population = 50.
+--+-+--8+-++----7
-8----++8--+++-9++
+-----7++--+----+-
++-+++-+++++-++-+-
-++--++++++9-+-+++

Generation = 70, Population = 47.
-++++--+-+++-+-+--
+-+-----9+++---+++
--++--8-+++-++-+++
--9+++-+-++++-+-++
----+-++-----+-+--

Generation = 77, Population = 52.
-++-+-++-++-+---+-
+--+--++++++---++-
-+-+++9-+++++++---
-----++-+++-++-+++
-++-++++++--+++---

Generation = 84, Population = 44.
-+-+-+----+--+-+++
-+++-++++---+-+-+-
-+++-------++-+++-
+-+----+-+--+-++++
-+--+--+---+++++-+

Generation = 91, Population = 42.
+-+----+-+-----++-
-+-++-+-+-+-+++---
---++-----++++-+--
-+++++------+++-++
--+++++----+--++++

Generation = 98, Population = 47.
+-+--+++-+-++++-++
-+++-------+---+-+
--+++++++-----++++
+-----+-+--++---+-
-+++-+-+-+-+-+++++

Generation = 105, Population = 31.
----+--+---++-----
++--+------+-+--+-
+-----------+++--+
--+----++++--++++-
-+--+-+++-+------+

Generation = 112, Population = 48.
+--+++--+-++++-+-+
+----+--+-----++++
--+-++-++-+-+++-++
+----+++-++---+-++
+-+-+++-+--+--++-+

Generation = 119, Population = 45.
+--+-+++++-++++-+-
--+-+---+-+--++-+-
+--+-+++---++--++-
+-+++--+++-----+-+
+--+++++-+---+----

Generation = 126, Population = 49.
+++---+--+--+--+++
+-++---+++++-++-++
-+++++++-+-++-+---
+-++--++-++-+++-+-
------+----+++--++

*** Life<FredkinCell> 20x7 ***

Generation = 0, Population = 18.
--0----
-------
---0--0
--0----
-------
00-----
0------
----0--
---00-0
-------
-----0-
-------
-------
0------
-------
-------
0-----0
------0
-------
-0-0---

Generation = 5, Population = 77.
1-0-1--
21100--
---0211
120---1
2---201
031-1-0
2-1-21-
4------
112---2
02--100
2-0---1
-0--2--
-0-1200
10-010-
-000---
1---00-
1-0-1--
2---10-
0-00001
0-0-031

Generation = 10, Population = 59.
-0-5--0
3--3---
2--05--
13--2--
-01-3-4
1------
--432--
5-----4
---3---
-2112-1
410-31-
-3--401
1--1--2
4--1301
--012--
3-002--
-1----3
3---3-2
1---1--
--2----

Generation = 15, Population = 62.
-0--7-2
--74--0
3-20-3-
-------
203--1-
2-21114
3--6-52
72----5
-3664--
----20-
7-2--15
---1--1
--1-4-5
-1-----
2---4-3
--02-3-
43124--
4-----3
4-02-1-
--3---1

Generation = 20, Population = 66.
-----5-
63-4--5
4--16--
-4--315
30---2-
-----27
3-6-3-7
-3-23-7
--66506
--6740-
--25616
3-1----
---3---
72--6--
-0-5-1-
-3-----
--335-9
-22---5
9-05-22
205--51

Generation = 25, Population = 84.
8-3-+6-
-499-1-
-02-6-4
6---336
-0-5629
3323---
6--856-
---2447
5-9--16
-4775-3
-2-8-29
4-4-741
----6-6
+-36-1-
401--15
4-02-3-
4-4-71+
645550-
--363-3
--63-5-

Generation = 30, Population = 69.
9--++-4
----2-8
-3--9--
--5----
--4-9--
46----9
886---8
8-226-8
6---7-9
3----2-
-5--8-+
-9-3+-4
5--3--8
+-6-7--
7-35-68
-557--5
-74--4+
7-76816
+-67-5-
3-6-263

Generation = 35, Population = 63.
+2-+-79
8-+-3--
-333+--
77----7
91-69-9
--3--2-
-+-+7-8
--44-4-
---+---
4---63-
----+--
----+--
7--6+-+
+5887--
-06--7-
--586--
--64-4-
-787---
-69--6-
5-735--

Generation = 40, Population = 49.
+-7+---
-5++---
--6----
---5---
+--9--+
--6-5-+
+--++9-
86-----
6--+82+
5------
+--++-+
-+-----
-------
--+----
+---7-+
6---7-6
5-7----
+--8---
+-+---6
-293--5

Generation = 45, Population = 68.
+-7----
+7-----
-5-3-4+
-+9----
-4-+--+
7-6--2+
-+7--+9
-79--59
7--+83-
5--9-6-
-6--+5+
7-86---
9169+6+
+9+-8--
----+-+
--9-9--
69--+-+
+9--+--
+---779
--+86--

Generation = 50, Population = 64.
-------
-7-+---
-------
+-+-98+
+-8++-+
8---62+
++-+-+-
--+++--
98++85-
64-+---
--7-+--
--+-+-9
-3-+--+
-+---4-
-2-8+--
-----57
69-++-+
---++--
-7++8-+
86+8--7

Generation = 55, Population = 73.
+-9+--+
---+-3+
--+--8-
+++-+9+
+-+++5-
-+-8--+
++----+
+---+-+
++----+
-4-+--5
+68-+8+
8++----
-67-+6+
--+-+-4
---++++
--++--8
9+9---+
+-+-+--
-9-+-++
+--+--8

Generation = 60, Population = 71.
---+---
+7+-+--
+--9-9-
+++++-+
+--+-6-
8+-+-4+
+++++++
-7---8+
++++98+
-4+-6--
+--+-9-
-+-+--+
+--+---
+--+--5
+---++-
--+---8
-+--++-
+-+----
++++9-+
---++--

Generation = 65, Population = 60.
-9-+--+
----+3+
---+-9-
-----+-
+6---8+
++----+
-------
-7---+-
+---+-+
---+9-7
--9++-+
9--+---
+-+++--
+++-+55
-6+-+--
--+---8
9++-++-
-9++---
-+-+9+-
--++--+

Generation = 70, Population = 76.
-------
+7+++6-
-----+-
++--+++
+---+9-
-+++85+
+---+++
+-++---
+--+-+-
+4++--8
-++-+--
+-++-+-
+--++++
+---+5-
--++-++
9-+--+8
-++++-+
---++5+
++-+-+-
--+++-+

Generation = 75, Population = 77.
+9+++9+
-7----+
-9+-+--
++--++-
+7-+++-
+---86+
++++-++
---+++-
--+--++
+7++---
-+--+-+
-+-++--
+-+++++
-++++6+
+8---++
---+-+-
+---++-
+-+--6-
--+++--
+-+---+

Generation = 80, Population = 49.
+--+--+
+7+-+--
+-+-+--
----+--
---++++
-------
--++-++
+-+----
---+--+
-8+----
------+
++--+-+
---++--
-+-++-+
---++++
-------
-----+-
++-+--+
+-----+
+-----+

Generation = 85, Population = 79.
+-++--+
-7++---
+++++--
+-++-++
-+-----
-++++6+
-+--+-+
+---+++
+-+++++
-+-++--
+++++-+
-++-+-+
-7-++--
-++-++-
+++++++
+----++
-+----+
+-++-++
--+++--
-+-+---

Generation = 90, Population = 69.
+-+----
-+-++-+
+++---+
-++-+--
++++++-
+-+--6-
+-++-+-
+---+--
-+-++--
-++-+++
--+-+--
--++---
+7+---+
-+-+--+
-+++-+-
--++-+-
++++-++
-++++-+
-++----
---+-+-

Generation = 95, Population = 72.
--+---+
-+--+9+
---+---
++++++-
++-++++
--+-+6-
-+++--+
-8+----
++++---
++--+-+
-------
++--+-+
+-+---+
-++-+++
-++-+-+
---++++
--+++--
++++--+
+++-++-
++----+

Generation = 100, Population = 63.
--++--+
++-----
----+--
+-++-+-
-------
-+--+6+
+-++--+
++++-+-
---++--
++-----
-------
-++++++
---++--
+++---+
+-++-++
+--+++-
+--++--
+++-++-
++--+--
+-+-+-+

Generation = 105, Population = 76.
++++-++
---+-+-
++++++-
---+---
++++---
+-+----
+--++-+
+++----
++-++--
-++++++
+---+-+
+-+--++
+-+-+++
+-+-++-
++--+-+
++-+-+-
-++--++
++-+--+
-++++--
-+--+--

Generation = 110, Population = 75.
+-+-+-+
-+-+--+
+-+++-+
--++-+-
++-----
++-+-6-
----+-+
++-++--
-+---+-
--+++--
---++-+
+-++-+-
+-+++-+
--+-+++
-+++-+-
++-++++
-++-++-
+++---+
++++-++
---+-++

Generation = 115, Population = 67.
--+---+
-++++-+
+++--+-
---+---
---++--
--+-+6-
--++++-
+--++-+
-+-+++-
--+--++
++-+---
-+-++--
---++-+
-+++---
-+++++-
+----+-
++++-++
--+++--
+-+-+++
+---+--

Generation = 120, Population = 49.
+-++++-
+---+-+
+--+--+
--++---
-----+-
+-++---
----+-+
-------
--+++--
+--+---
--+--+-
++++---
-------
+-+---+
+-+--++
++-----
--+++--
+-----+
+---+--
+-++---

Generation = 125, Population = 62.
--++---
-++----
----++-
--++--+
++-+--+
+++--7-
-+---++
+++++--
++++---
-----++
++++-+-
--+----
+-+++++
------+
-+-+++-
--+--+-
--+++++
+-+-+--
+-++---
--+----

*** Life<FredkinCell> 2x2 ***

Generation = 0, Population = 3.
00
0-

Generation = 5, Population = 0.
--
--

Generation = 10, Population = 0.
--
--

Generation = 15, Population = 0.
--
--

Generation = 20, Population = 0.
--
--

Generation = 25, Population = 0.
--
--

Generation = 30, Population = 0.
--
--

Generation = 35, Population = 0.
--
--

Generation = 40, Population = 0.
--
--

Generation = 45, Population = 0.
--
--

Generation = 50, Population = 0.
--
--

Generation = 55, Population = 0.
--
--

Generation = 60, Population = 0.
--
--

Generation = 65, Population = 0.
--
--

Generation = 70, Population = 0.
--
--

Generation = 75, Population = 0.
--
--

Generation = 80, Population = 0.
--
--

Generation = 85, Population = 0.
--
--

Generation = 90, Population = 0.
--
--

Generation = 95, Population = 0.
--
--

Generation = 100, Population = 0.
--
--

Generation = 105, Population = 0.
--
--

Generation = 110, Population = 0.
--
--

Generation = 115, Population = 0.
--
--

Generation = 120, Population = 0.
--
--

Generation = 125, Population = 0.
--
--

Generation = 130, Population = 0.
--
--

Generation = 135, Population = 0.
--
--

Generation = 140, Population = 0.
--
--

Generation = 145, Population = 0.
--
--

*** Life<FredkinCell> 1x20 ***

Generation = 0, Population = 13.
0-0-0-0--0-00-000000

Generation = 17, Population = 10.
3-2--146--1-+5--+3--

Generation = 34, Population = 6.
-----5--8---+--8+9--

*** Life<FredkinCell> 12x16 ***

Generation = 0, Population = 12.
----------------
0---------0-0---
----------------
----------0-----
------0------0--
----------0-----
------0---0-----
---0------------
----------------
----------------
0-------0-------
----------------

Generation = 6, Population = 65.
----1---1-00-0-0
---0--1-0---0---
--1-1-0--10-10-0
-00--1----0-0---
--0-0--0---21010
2-000-21--------
---------0---2-1
1----01-01----1-
----0---0--01-10
---0---01-2-1---
--0---------010-
-0-0-0----1-----

Generation = 12, Population = 62.
--0--1--3-61-2--
3-1---3-3---3---
--2---3-23--2--2
0--1------20----
-01-1-13-1----11
---1--3---4---4-
1---0-----4-12--
--2-------5---21
3----0-----1--1-
4---0-024-6-1---
2-----0---3-1-2-
3---------402---

Generation = 18, Population = 76.
--2-----5-------
41--217-5-5-4---
-1-15-4-2-4-32--
---2--4---6-0-4-
5323-2--0--74--2
6-22-------5-1--
21302-----6-54--
223-022-12923334
------2---4-314-
---1----6-+321--
-----------21--1
--1---------2-3-

Generation = 24, Population = 61.
6---3-4---------
8--4-------4--1-
-351--4-6-4---4-
----3-7---+-----
7-45----164-----
--54--5-------7-
4-----------687-
--3-134-4-+-537-
--4---5-0-5-----
6-----3---+641--
2---411-4-52----
----5-3-0---5---

Generation = 30, Population = 89.
7--4-2--80-4-5--
-----38--1--84-2
-77---7-8--1-5-3
3-3-3-----+-25--
-----61---7--2--
8---23---0-7-49-
5268--512--66+-4
--755-4-52+-6--+
-36512--2-64728-
9-4-51-3-6+----1
6--2625-72--5-5-
--5--4-----6-3--

Generation = 36, Population = 71.
8---5-8--0-5--3-
---7--+19-8-+---
----9-----8-45--
435--5+---+---6-
--4-6--9--8+---4
9-654-----8---+-
--9-------+--+--
3-+6546--2----9-
+-7-1------5+--1
---2--4-7-+-5-1-
---------26-6662
70---552----9-5-

Generation = 42, Population = 98.
+--595-4+1+----1
+2-7-6+-+4--+64-
--+1-6-6+---576-
-47447-----77-6-
-56---49789+-43-
+5+6-6---2--85--
6-99--7247+-9---
67-676---------+
+-+--39-4-7---91
+--46--4-7+863--
+--4---4-3+---8-
8---8----4+8+3--

Generation = 48, Population = 82.
-287+-9-+-+--8--
-3-867+-+--+-+--
----+-------7---
---58-----+-8-6-
-87986-----+8676
+-+-8-6---------
7-+-5---5-+-+---
-8-7-79-93+6-7-+
----5-+-4-+-+7+-
----8-9-+---7---
+3-7--8---+++8-6
--+4+-7---+++6+-

Generation = 54, Population = 87.
--9-+-+--2++++42
+-+---+5--+-+-6-
--+3--8+-9+7--+6
+98--+--3-+-----
-+9-9+-+-+--+8--
+-+8----8-+--8--
+7++-6+----++---
-8---+-----79--+
--+---+-6--8---2
+--5+-+--+--758-
----+-9-++----+6
+-+-+-+346-+---4

Generation = 60, Population = 93.
+5+------6+-++86
-++-77+-+7+-++--
89-4+-+----9-+-7
--+-9-+--6+-8---
+-++--9--++--9--
-++-++---4-----6
+-+-89-----++-++
--+7-++---+--+--
-8--85+4-6--+--4
-688+8+----+968-
+--+--++-++--9--
+5--+-+--9--+-+5

Generation = 66, Population = 73.
+-+---+---+-----
+-++--+-+-+-+-7-
--------+++----8
-++5-+----+-8---
--+---++---+--++
-+-++++4------+-
+-+-----6+-+++--
+--8-++--4+-9-+-
----8-+-6--++++4
--9----8----+-9-
+---+-+---+--++-
+-+-----6---+-+-

Generation = 72, Population = 67.
+-+---+-+-----8-
+-+++-----+-----
+-------++--+--9
-----------++---
-+--+--++++---++
---++---9--++-+-
--+-9++-9--++-+-
+-----------+--+
-----6+-7--+-++-
--+----8----+-+-
+-+---+-+-+-+++-
--+-+-+-6-+-+-+-

Generation = 78, Population = 99.
+7-++6-++++-+---
-----++8--+--+8-
--+5++-++-++++--
--+9+++--7+++-+4
-----+--++++--++
++----+898+-+-+9
-++-+---+-+-+++-
+-+++--3+--+--+-
++--98+--9--+++-
+-+----9-----7-6
---+------+---++
+-+-+7+78++--++-

Generation = 84, Population = 89.
+9+-+7-++---++--
+-+-+-++-----+--
++-6+---+++-+--+
+-----+-----+-+-
+++-+---+++-----
---+---8-9+---+-
-+--+++++---+++-
-----++-+-++--+-
+---+-+-+-+---+-
------+9+--++8+-
-9++++--++++++++
+-+++--8-++-+---

Generation = 90, Population = 92.
-9-++++-++--++--
--+--+---+--+---
---9-+-++--+-++-
--+--+---+++-+-4
-+---++--+++++-+
----++++-9--+---
----+-+++++++++-
-++++-+-+5-++--+
+--+-----++++++-
+---+-++--+--+-9
+---+--++--+++++
-+---9+9----++--

*** Life<FredkinCell> 7x8 ***

Generation = 0, Population = 21.
---0---0
-0-0---0
0----00-
-------0
-0-00-00
----000-
0-00-0--

Generation = 9, Population = 25.
43-7--21
--2-33--
7---13--
2---1-31
-4---42-
-2--1--1
-22--32-

Generation = 18, Population = 34.
764-25-5
-3-6-3--
-268---3
-313654-
--45-755
548--84-
478-68--

Generation = 27, Population = 26.
--8+---8
24--54--
---+5--6
---4--6-
--76-+-+
-8-+6+56
--9-89-+

Generation = 36, Population = 26.
+++-58--
596---67
----89-9
-5------
--+--+8-
-8+-9-6-
5+++-+--

Generation = 45, Population = 28.
--++9+-+
7+7----+
+----+--
+6--+-9-
----+-++
9++++++-
--++---+

Generation = 54, Population = 26.
---+--+-
7+--7---
-+--++++
+8----+8
+-+++-+-
-+++-+--
-+-+--+-

Generation = 63, Population = 28.
---+++-+
-++-----
+-++++--
+-5+-+--
++--+++-
+--+-++-
-+++---+

Generation = 72, Population = 29.
-+-----+
-+-+---+
+-+++--+
-----+-+
-++++-++
--+++-++
-+++++-+

Generation = 81, Population = 30.
+++++--+
+-+++-++
+--+--++
+---++++
----+--+
--++-+++
+------+

Generation = 90, Population = 25.
----+++-
-+---+-+
++-++--+
++6--+++
++-+----
--+----+
----+-++

Generation = 99, Population = 28.
++--+--+
+-----++
-++---++
-+--++--
++-++---
-++-+-+-
+-+++++-

Generation = 108, Population = 24.
----+-++
--++-+-+
--++-++-
---+----
+--+---+
+-++--+-
-++-++-+

*** Life<FredkinCell> 4x17 ***

Generation = 0, Population = 11.
------0--0-------
-0----0-----0----
-0-------0-----0-
--------0----00--

Generation = 14, Population = 30.
2--1----5-1--4-7-
3-54------21565-2
--33--5-2--5---1-
----32--2672-631-

Generation = 28, Population = 25.
-+-----+7--+4----
--+-9---57------8
--7+7-8++-4637--2
-4----9--+7------

Generation = 42, Population = 41.
++38+8-+--7+8-7-+
88+--5--9--6-+-4+
+-9+9+-+---+-+3--
8+6--8+8+--87--57

Generation = 56, Population = 34.
+--9+++-------9-+
+-+-+-+-+-------+
+++-+++--8++-+++9
9++--+--++---+--+

Generation = 70, Population = 38.
-+6++++--+-++--+-
-++-+-+9-++-+++8-
-+-++++---+----+-
-+-9+-+++-+---+++

*** Life<FredkinCell> 6x15 ***

Generation = 0, Population = 8.
---0---0-------
0-0--0---------
--0------------
----0----------
---------------
-------0-------

Generation = 4, Population = 25.
--20---2---0---
-0--0011-1-----
3--1--00-------
2------01------
---1---0-------
0-1122-----0---

Generation = 8, Population = 21.
---1-------2---
-0----551-0--1-
--1-4-----1----
4---12------1--
--15---2-------
0-5--4---------

Generation = 12, Population = 34.
---32--3--2----
4--44--522-30-0
---2----2--1--1
-2--24---0----2
3-17--1--------
--6--4-1211-01-

Generation = 16, Population = 13.
--83---5-------
----6----------
---4---4-------
6-2--6-3-------
--3------------
----2--5-------

*** Life<FredkinCell> 9x20 ***

Generation = 0, Population = 9.
--------------------
---------0----------
--------------------
-----------0--------
---0--0-------------
---------0-------0--
0------------0------
----------------0---
--------------------

Generation = 6, Population = 58.
00-0100-0----1------
---1-------0---01--0
0--0--01--00---1----
-----0--------1---00
--1--3--1---01---0--
---0---1----0--0-1-0
---11-----11-0-1---1
-----0----1--0----10
-1-0-10-00-1-0-0-0--

Generation = 12, Population = 57.
--2-2-1--0-0-10--0--
-2-----------2-0----
2-06-1-20-2--2-----0
--------1--20---33--
2--------10--7-0-20-
---------1-1-1-----2
-3-13-31-3--0--2-3--
---10--03------3---1
-----1--2--1-21----0

Generation = 18, Population = 74.
21-3312-0----2------
-------0-------231-0
4-1+--2-1------3--21
-----2-1-1-5--43-44-
26----1--144--1--3-3
1--2-2--13-------3--
2-----5-25-51-1-3--2
231--121--5--125--2-
--11232-5----4401---

Generation = 24, Population = 42.
-2----3------4--1---
-----1-------5---5--
6--+-3-----3-4----3-
2----2-------6--5--2
-8-2------4--------5
-4---4-------5-4-9--
-----3---6-7----3---
2-----2------1--4--3
-----5--7--3-46----3

Generation = 30, Population = 95.
5-4--342-22-15-322-2
320-1-1----32--54--5
---+--48-----7-62753
---4--3-4-0------75-
6+2235-85-572-52-99+
261--8----1-----5--4
4+33678-4----34--556
--522-4---+-242--2--
2-335-5-7-8---83-147

Generation = 36, Population = 67.
7--8555--3------34--
-----3-4-3---5-6-9-5
+-8---6+1----7---9--
-2---354---93-7--9--
-+4-4-2--5--3+------
---3-------4-8-5-+--
--347-----3-544----7
-67---67------475-38
2-3--67-9-9-----53--

Generation = 42, Population = 88.
--8----41-341-857--8
-3----3625---70----7
+-----7+466-2-5---65
----3-6-5-3-39--7---
-+--85--956--+65+--+
3--5---318------7+16
5+-69---5---88-+6---
5+845--984-8766---99
-2668-9-93-7--8---5-

Generation = 48, Population = 68.
869+-98----5--+-----
-3-6-----7---+-8----
+-----+---86-+---+89
9----58-8--+--+--+--
--------+9--6+9-+-++
---+-+---+-6-------8
-+-7+--65-----7-8-8-
7+-4--7-8-+--88-9-++
5-7--++-+-+-----66--

Generation = 54, Population = 96.
9--+9--55---69+-----
8----6484-196+5-8+-8
-++-9-+--------98+-+
+74+6-+----+-+--++9-
--978-4++--+--+--+++
58-+-+-52--73-29--4-
9--9++++6-6-+8----9+
-+-695-+----+-9++7+-
7-8---+-+4+-36+---9+

Generation = 60, Population = 91.
+-+++-+65+8---+9++6-
---8-8-+-9---+-+-+--
-++++-++-7--7+9+--8-
+94+8--6+---6+-7-+++
-++787--++--9++5--+-
-+---------7-+-+-+--
-+--+---7-8----+--++
-++6-6+-----++++--+-
7-+9----+8-9-7+--+++

Generation = 66, Population = 81.
+7-++++-6----+------
-----------9-+-+9--9
+-++--+----88-+--+--
-9-+-+-8---+--+--++-
8----9-+--+-9-+9++++
-+7+3+-+---9-+------
+----+++-8--++++++--
+++7+-+--+-+-++---+-
-6+9+-+9+--+-7-+--+-

Generation = 72, Population = 68.
-----++9---8-++---9-
---------+-+---+-+-9
+--+-+--9---++++-+-+
-+7-+--+++-+---8++--
8---+96--+---+-9-+--
-+-+-+-----+-----+-9
-+-+--+---8-++---+--
--+9+--++++-+------+
-----+--+--+-8+----+

Generation = 78, Population = 95.
+8+-+-+-8+--++-++--+
--4+--5+-+2++----+--
-++++-++++-+-+++++-+
++---+---+++9-+--+-+
-+--++---+++-+-++--+
--8+3+5----+5+4--+--
--8++----+++----+++-
--+---++++---+--+8-+
9--+--+-+9+-7-+--+++

Generation = 84, Population = 54.
---+-++++---------+-
-8-----+-----+-+---+
+----+-++----+----+-
++--+-+---+++--+--+-
---+-+-+++-------++-
---------+----------
+----+-+9---+-+---+-
--+-------++--------
-7--++--+++-9--++--+

Generation = 90, Population = 92.
---+-+-++--++------+
+-7+7+8--+-+----+-4+
++-+++++++--+----+++
-+-+-+++++----+++-+-
-+----+-++---+-++-++
8------+-+--8+6++---
-+-+-+-----+-+++----
++++--+++++-+-++---+
+8--++-+-++++-+++--+

Generation = 96, Population = 61.
+-++--++--------+-+-
---+---+---+-+------
+-----+-+-+-++++----
-++-+-++-+-+--+--+-+
+-+-+----------++---
---+-+-+-+-+-+---+-+
-+----+-+-----+-----
-+--+--+-+--+---+--+
+-+--++-+-+-----++--

Generation = 102, Population = 97.
--+-+---+++++-++-+-+
-++-9++++--++---++4+
++++++++---++-+++--+
+-++-+--++------+-++
-+--+----+++-----+++
++--5+-+6---9+7-+-7+
--+--+++++----+++--+
--++---++--++--+++-+
++----++++--++-+-+--

Generation = 108, Population = 82.
+++-++--++++---+-+++
-----+-------+---+--
++-+--++-++++-+++-++
+-+-+--------++-+-++
-++++-++---+-++++---
---+---+-+---+-----+
+-+-++-+-----+++--+-
+-+---++--+-+-+-+--+
----++++-+++--+-++--

Generation = 114, Population = 84.
---+-++--+++--+-+--+
++--+--++-------+--+
-+++-+++++--+-+---++
++-----+-++---++-+++
-+--++-++-+-+------+
-+-+7-++-+8--+++----
+----++++----+++---+
+++++-++-++---+++-++
----+-----++++------

Generation = 120, Population = 86.
---+---++-++++-----+
-------+-----+-----+
-++++++----++-+-+---
+++++--+-++-+-++-+-+
+-+--+-++----+-+-+--
-----+-+-+---+-+-+-+
-+++++-+-++++-+--+-+
+-+-++--+--+--++++-+
-+-+---+-++++-++++++

Generation = 126, Population = 81.
--+++++-+---+++-++++
+-------++9+-+-+--5-
-+--+-++---+--+-+--+
+-+---+-+-+++--++---
---+--+-------------
+-8---+-9+9-+--+++--
++--+-++---+-++-+--+
+-------+-++-+-++-+-
--+++++-+---+++-++++

Generation = 132, Population = 66.
++++-++-++---+---+--
---+-+-+-+-+--------
---+--++--++-+-+----
-----+-+-+-+++++-++-
--+--+--+---++---+--
---+-----+-+-+------
+--++-----++---+---+
-------+-++--+-++-+-
-++++++-+--+-+-+----

Generation = 138, Population = 79.
+--+-+++-++--+++----
-----+-+++-+-++---7-
+--+--++--++---+----
-----++--++-++---+-+
+--------++--+-+-++-
-----++-+-+-----+---
-+++++-+++-+++---+-+
-+-+++---+-+--+---++
+-+++--++-+--+++-+-+

Generation = 144, Population = 76.
+--++++-+--+-++-+---
-+-+-+---+---+---+-+
--++--+-+----+-+--++
++-+-+--+----+++--+-
++----+--+++--+--+-+
-+---+-+---+-+------
------+-++-++++-+--+
+-++--+--++---+-+-+-
-++++++-+--+-+-+----

Generation = 150, Population = 76.
++--+-+-+-------+-+-
++-+--+-----+--++-+-
-+--+-+--+++-++++-++
+-+-+--++-++---++-++
-+-+------+--------+
-++-+--++-++-----++-
++-++-+---++--++---+
-+-+-+------+--+-+++
+---++-----+--+---++

Generation = 156, Population = 85.
+++----+++++---+-+--
-------------+------
+-+-+++--------+--++
++++-++-++-+---++-+-
++++++-++-+++-++-+++
---------+-+---+-+-+
-+----+++-----+-+-++
++-+------++--++++-+
++++++----+++++++++-

*** Life<FredkinCell> 1x7 ***

Generation = 0, Population = 7.
0000000

Generation = 4, Population = 0.
-------

Generation = 8, Population = 0.
-------

Generation = 12, Population = 0.
-------

Generation = 16, Population = 0.
-------

Generation = 20, Population = 0.
-------

Generation = 24, Population = 0.
-------

Generation = 28, Population = 0.
-------

Generation = 32, Population = 0.
-------

Generation = 36, Population = 0.
-------

Generation = 40, Population = 0.
-------

Generation = 44, Population = 0.
-------

Generation = 48, Population = 0.
-------

Generation = 52, Population = 0.
-------

Generation = 56, Population = 0.
-------

Generation = 60, Population = 0.
-------

Generation = 64, Population = 0.
-------

Generation = 68, Population = 0.
-------

Generation = 72, Population = 0.
-------

Generation = 76, Population = 0.
-------

Generation = 80, Population = 0.
-------

Generation = 84, Population = 0.
-------

Generation = 88, Population = 0.
-------

Generation = 92, Population = 0.
-------

Generation = 96, Population = 0.
-------

Generation = 100, Population = 0.
-------

Generation = 104, Population = 0.
-------

Generation = 108, Population = 0.
-------

Generation = 112, Population = 0.
-------

Generation = 116, Population = 0.
-------

Generation = 120, Population = 0.
-------

Generation = 124, Population = 0.
-------

Generation = 128, Population = 0.
-------

Generation = 132, Population = 0.
-------

Generation = 136, Population = 0.
-------

Generation = 140, Population = 0.
-------

Generation = 144, Population = 0.
-------

Generation = 148, Population = 0.
-------

Generation = 152, Population = 0.
-------

Generation = 156, Population = 0.
-------

Generation = 160, Population = 0.
-------

Generation = 164, Population = 0.
-------

Generation = 168, Population = 0.
-------

Generation = 172, Population = 0.
-------

*** Life<FredkinCell> 11x8 ***

Generation = 0, Population = 1.
--------
--------
--------
-------0
--------
--------
--------
--------
--------
--------
--------

Generation = 10, Population = 7.
--------
-0-----0
--------
---0-0-0
--------
-0-----0
--------
--------
--------
--------
--------

*** Life<FredkinCell> 19x9 ***

Generation = 0, Population = 12.
---------
------0--
-------0-
---------
---------
--0------
---------
---------
---------
---------
---------
---0-----
------00-
------0--
---------
-----0---
0--------
----0---0
------0--

Generation = 1, Population = 37.
------0--
-----0---
--------0
-------0-
--0------
-0-0-----
--0------
---------
---------
---------
---0-----
--0-0-00-
---0-0-10
-----01--
-----00--
0---0-0--
-0--00--0
0--0-000-
----00-00

Generation = 2, Population = 41.
-------0-
----0---0
-----0---
--0---0--
-------0-
0---0----
---------
--0------
---------
---0-----
------00-
-0---01--
----01--1
---001--0
0-----10-
---01-100
0-0---0--
--0--1--0
0---1-0-1

Generation = 3, Population = 63.
----0-0--
---0-----
--0-----0
-0-0-----
0-0-0---0
-0-0-0-0-
0-0-0----
-0-0-----
--00-----
--0-0-00-
-0-0---10
0-0-----0
-0---2-12
0-011---1
-0------0
---12-211
--1-0-1--
-010--001
-000-0--2

Generation = 4, Population = 31.
-------0-
------0-0
---0---0-
---------
---------
0--------
-------0-
---1-----
------00-
--1---1--
---------
-----0-0-
0-00---23
--1-2----
------1--
-0-2-----
--2-1--0-
0--------
0-1-----3

Generation = 5, Population = 69.
---------
---0-0---
--0-0----
---0---0-
0--------
-0-----0-
0--0--0-0
--0-0-0--
--00-0-10
-0-0-02--
--0--001-
0-000--1-
---1-20-4
0021-1101
-00000-0-
0-0---21-
0--0-01-0
10--0--01
1--0---0-

Generation = 6, Population = 71.
---0-0---
----0-0--
-0-----0-
0-----0-0
---0-----
0-00-----
-----010-
001--01--
----01-21
0--1-1-00
0-10--1-0
---11012-
-00-0---5
11322221-
0--1-----
101220---
----11--1
2110-----
2-1---01-

Generation = 7, Population = 88.
--0-0----
-0---0---
--0-0-0--
---0-0-0-
---10-0-0
--1-0000-
-0-00-210
1-21-1-00
-00-120--
10-2022-1
1-21-02-1
000-2-230
-----2-2-
-2433--2-
-00-0-10-
---33-2-1
---0--10-
--21-1001
302--0123

Generation = 8, Population = 33.
---------
0-0-0----
---0-----
---1-----
------1--
----1---0
---------
-----2---
0--------
----1-3-2
------31-
---1---4-
0--10-0--
1-5-----1
0--------
-0-------
------2-1
2--------
4---1-23-

Generation = 9, Population = 71.
0-0-0----
---0-0---
0--1-----
--020-0--
---100-00
---0-000-
----00--0
1---0-1--
-0--120-1
1--2--40-
---100---
0-02--250
10--1---5
----3-22-
1-0-----0
--1---2-1
00---1---
31--0--01
50-0--343

Generation = 10, Population = 68.
---0-----
---10-0--
-0---00--
001--0--0
---21---1
--11-1--0
0-----2--
---1--20-
0-0---12-
--1312-1-
---2-13-1
101-2-3--
-1--22-26
-2534-331
--110---1
--23----2
-------0-
422------
-----045-

Generation = 11, Population = 91.
--01--0--
-00-1010-
-1-1---00
112--1-01
000-20-0-
002-1--01
-00---3-0
----023-0
--101--31
10-4---2-
1023---1-
21223-4--
--0-33---
1-6452442
--2--01--
-0------3
00-0--2--
5-31-10--
502-11-63

Generation = 12, Population = 57.
---2--1--
0---2-2--
-------1-
-----2-1-
1-1-----1
--3-2----
---0--41-
-0-----0-
0-21-----
------4--
2-34---21
-2-3-0---
----4-026
--7-6-5-3
1-3------
-1-3-0-1-
--211-301
----0---1
---02-474

Generation = 13, Population = 85.
0-0--020-
-0----3--
0---00-20
1-2-0--2-
--2220---
0041-1001
-0---05-0
-------10
-0321-13-
-----2--2
-04-01-32
--243----
-10-53---
128-7-644
-04-00101
---43-22-
--32-141-
--31-1-0-
--21--5--

Generation = 14, Population = 93.
-0-201310
0---20400
1-01-10-1
2-32-203-
--333---1
115-221--
-1-00----
--21023--
01--222-1
---413-23
21-4---4-
-23-40-50
--1164-26
2-9----5-
---11----
-12---33-
-0-31-521
-242-2-11
-0--2----

Generation = 15, Population = 86.
---31242-
1-01---11
----021-2
3-430-141
--44-0---
22--3-201
-2--10---
1032-3-10
12-23--32
--1-2-4--
3-450-3-2
-------6-
1-2-7--3-
--+4-266-
1042201--
1-34-0---
0---21---
53----0--
51-----74

Generation = 16, Population = 35.
0--------
--1-2-4--
---1-----
---4-----
------1--
3---4-3-2
0--------
-----4---
---------
--2---5--
------44-
---4---7-
--31----6
--+---7-4
---------
-1-------
--3-3----
6-4-0---1
--2----85

Generation = 17, Population = 77.
-00-1-4--
10-1---1-
---2--1--
--450-1--
1--430201
42-1--4--
12--105-0
1---0-3--
--3--22--
-0-4-36--
--45-1--2
---54--8-
-1--7-0-7
-2+--2--5
-04---1-1
1---3----
0-4-41--1
----12--2
51312-59-

Generation = 18, Population = 77.
--13-----
2-12--4-1
11---22--
315--2--1
2--54---2
5--242---
2-0---6--
2-321--10
1-----33-
1--5-4-23
--5602---
-2------0
12--84-38
23-4--76-
---22---2
2--44-3--
1---5-522
-3--2---3
6----16+-

Generation = 19, Population = 82.
00--1-4-0
30--2-5--
2-020--2-
426--3-42
-----0-03
-2--53--2
--10----0
----243-1
-23-3-442
20-6256-4
3-67--44-
-3-5----1
-33-950--
---57-8-5
-043-0---
313-5-4--
2--------
6-423--14
-----2-+-

Generation = 20, Population = 63.
--132-5--
4-----6-1
-------3-
-----4-5-
2-4-----4
5---6-4--
--211-61-
-0-----1-
--42--5-3
----3-7-5
4-78---52
-4-6-0---
1-4----3-
--+---9--
--5---1-2
-2-4-0-3-
---3--522
7-5-4-0-5
6-31---+-

Generation = 21, Population = 85.
002-3-620
-0122071-
2----2-4-
4-6-0--6-
3--5402--
62--7-5-2
2-3-----0
2-3-2-32-
--53-2644
2--6--82-
-18--2-6-
2--7--4-1
-35--5--8
23-5-2+-5
--6---20-
3-35---43
20-4---3-
8-6---1-6
7--2-----

Generation = 22, Population = 94.
11-342-31
4-2-3182-
3--2032-2
---514-72
---6----4
73--836-3
-241----1
3--2-4--1
-2--33--5
--2735-3-
42980--7-
-43-40-82
1-619603-
3------66
--73----2
42--5--54
31-55--42
-3-2-2-1-
81--2-6-5

Generation = 23, Population = 89.
-2245-6-2
-0--4-9-1
41------3
4-662-183
30474-2--
8--29-7--
2-----61-
-0-32532-
---3-46-6
20-8---4-
53-9124--
2-4-5-493
23--+7-48
43--72---
--84---0-
---5604-5
-2----55-
8--3--126
9-3--2-+-

Generation = 24, Population = 47.
1-----7-3
----5-+--
---2-----
---7-----
4-5-5---4
---------
3-----7-1
-----6---
1-5-3----
------8--
6-9-2--72
---7---+-
3--1+-0--
------+-6
1-9-2----
-2-------
--4-5-6-2
9---4---7
+---2-6+-

Generation = 25, Population = 63.
-2--528--
4-----+21
--03--2--
4--8----3
---7-0-0-
--5-9-7--
-2-------
--3-----1
------6--
-----5--5
---9-2--3
---85--+-
-36-+-1-8
--+5-2+--
-0---02-2
--3---4-5
3---6---3
+363-2--8
+1-23-7+-

Generation = 26, Population = 79.
--246---3
--225-+-2
-11-033--
-2--241--
4--85-2--
---2-3---
3-4-1-7-1
---3--32-
--5----4-
---836-46
--9+234-4
-4------3
34--+724-
-3-67-+6-
1-942-3-3
4--56-5--
4-----65-
+4------9
--3-428+-

Generation = 27, Population = 80.
-2-5-2834
--3361+-3
4--314443
-3--3528-
--5---30-
---3--7-3
-----081-
3-3--6---
-2-334---
--2-4-8--
--++3457-
-5-8----4
456---3--
44+-82+--
20+-3--0-
-2------5
---561-6-
-5--42-2-
+---5--+-

Generation = 28, Population = 57.
1-266-9--
4-4-7-+--
-------5-
-----6-9-
----5-4--
----9----
3-411-92-
-0-----2-
---44----
--3---9--
---+4-68-
-6-9-0---
----+-448
5-+------
----4----
-3-5-0-5-
--467--7-
--6-5---9
---26-8+5

Generation = 29, Population = 79.
2-----+3-
5-538-+--
4-1-14-63
------2+3
---860---
8-5--3-0-
-25---+-1
-------31
-2-55464-
-0-8-6+--
-3--54-94
2--+--4-4
456--75-9
---6--+66
20+----0-
4-36---65
---7--68-
-57--212+
---3--9--

Generation = 30, Population = 91.
322662-44
-----1+23
5-23-5---
4-68-63+-
4--9----4
-36--47--
-3-1----2
--33263--
13---57--
2--9-7-46
-4++6--+-
36---05+-
--71+864-
--+-8--7-
---4----3
53--6--76
42487--93
+68353-3+
-1--6-+-5

Generation = 31, Population = 88.
4-----+--
-0---2-3-
6-----4-3
---9---+-
5-5+6----
--739580-
34-2---2-
3044-7-31
-4---6--6
30-+48+-7
6--+74---
4-4-5-6+4
4---+9759
-4+-9--8-
20--4--04
---6705-7
5-598-6+4
--94-41-+
-2--72-+6

Generation = 32, Population = 33.
---------
5-5-8----
---3-----
---+-----
------4--
----+---3
---------
-----8---
1--------
----5-+-8
------6+-
---+---+-
5--1+-8--
5-+-----6
3--------
-3-------
------7-5
+--------
+---8-++-

Generation = 33, Population = 71.
4-2-6----
---3-2---
6--4-----
--6+3-3--
---+60-04
---3-580-
----10--2
3---2-3--
-4--567-6
3--+--+4-
---+74---
4-4+--6+4
65--+---9
----9-+8-
4-+-----4
--3---5-7
52---1---
+6--5--3+
+2-3--++6

Generation = 34, Population = 68.
---6-----
---48-+--
-1---54--
437--6--3
---+7---5
--74-6--3
3-----+--
---4--43-
1-5---84-
--3+58-5-
---+-56-4
565-5-7--
-6--+9-5+
-4+6+-+96
--+44---5
--46----8
-------+-
+79------
-----2++-

Generation = 35, Population = 91.
--27--+--
-05-92+3-
-2-4---63
548--7-+4
505-80-0-
838-+--04
-45---+-2
----285-1
--655--56
30-+---6-
64++---+-
676+6-8--
--7-++---
5-+7+2++7
--+--03--
-3------9
52-9--7--
+-+4-41--
+23-83-+6

Generation = 36, Population = 57.
---8--+--
5---+-+--
-------7-
-----8-+-
6-6-----5
--9-+----
---2--+2-
-0-----3-
1-76-----
------+--
7-++---+4
-8-+-0---
----+-85+
--+-+-+-8
4-+------
-4-6-0-7-
--5+8-8+5
----5---+
---39-++7

Generation = 37, Population = 85.
4-2--2+4-
-0----+--
6---15-83
5-8-3--+-
--7+80---
83+4-6804
-4---0+-2
-------41
-4875-85-
-----8--8
-4+-75-+5
--6+6----
-67-++---
54+-+-++9
-0+-40305
---77-58-
--6+-19+-
--+4-4-3-
--34--+--

Generation = 38, Population = 93.
-2-863+54
5---+2+33
7-24-64-4
6-9+-83+-
--8+9---5
94+-+79--
-5-21----
--44285--
15--669-6
---+59-69
75-+---+-
-87-70-+4
--81++-5+
6-+----+-
---45----
-44---69-
-2-+8-++5
-7+5-5-4+
-2--9----

Generation = 39, Population = 86.
---974+6-
6-54---44
----175-5
7-++3-4+4
--9+-0---
+5--+-+04
-6--20---
3055-9-41
26-77--57
--3-6-+--
8-++7-6-5
-------+-
6-9-+--6-
--+7-2++-
40+5603--
5-57-0---
5---91---
+8----1--
+3-----+7

Generation = 40, Population = 35.
4--------
--6-+-+--
---4-----
---+-----
------4--
+---+-+-5
3--------
-----+---
---------
--4---+--
------7+-
---+---+-
--+1----+
--+---+-9
---------
-4-------
--6-+----
+-+-5---+
--3----+8

Generation = 41, Population = 77.
-22-7-+--
60-4---4-
---5--5--
--++3-4--
6--+90505
+5-4--+--
46--20+-2
3---2-5--
--8--69--
-0-+-9+--
--++-5--5
---+7--+-
-6--+-8-+
-4+--2--+
-0+---3-5
5---7----
5-7-+1--5
----65--+
+3449-++-

Generation = 42, Population = 77.
--39-----
7-65--+-4
72---76--
74+--8--4
7--++---6
+--5+7---
5-5---+--
4-553--41
2-----+5-
3--+-+-69
--++76---
-8------4
67--++-6+
65-7--++-
---56---6
6--78-6--
6---+-++6
-8--7---+
+----3++-

Generation = 43, Population = 82.
42--7-+-4
80--+-+--
8-251--8-
85+--9-+5
-----0-07
-5--+8--5
--62----2
----4+5-2
-68-7-+67
40-+6++-+
8-++--7+-
-9-+----5
-8+-++8--
---8+-+-+
-0+6-0---
745-9-7--
7--------
+-+58--4+
-----4-+-

Generation = 44, Population = 63.
--398-+--
9-----+-4
-------9-
-----+-+-
7-9-----8
+---+-+--
--732-+2-
-0-----4-
--97--+-8
----7-+-+
9-++---+5
-+-+-0---
6-+----6-
--+---+--
--+---3-6
-5-7-0-9-
---+--++6
+-+-9-1-+
+-44---+-

Generation = 45, Population = 85.
424-9-+64
-065+2+4-
8----7-+-
8-+-3--+-
8--++05--
+5--+-+-5
5-8-----2
4-5-4-55-
--+8-6+69
4--+--+6-
-5+--6-+-
6--+--8-5
-8+--+--+
65-8-2+-+
--+---40-
7-58---+9
72-+---+-
+-+---2-+
+--5-----

Generation = 46, Population = 94.
53-9+4-75
9-7-+3+5-
9--5186-5
---+4+-+5
---+----8
+6--+8+-6
-693----3
5--5-+--2
-6--77--+
--4+7+-7-
96++7--+-
-+7-70-+6
6-+1++86-
7------++
--+6----6
85--9--++
83-++--+6
-8-5-5-4-
+3--9-+-8

Generation = 47, Population = 89.
-44++-+-6
-0--+-+-4
+2------6
8-++5-4+6
809++-5--
+--5+-+--
5-----+2-
-0-64+55-
---8-8+-+
40-+---8-
+7-+867--
6-8-8-8+7
78--++-7+
85--+2---
--+7---0-
---8+07-+
-4----++-
+--6--25+
+-4--4-+-

Generation = 48, Population = 47.
5-----+-7
----+-+--
---5-----
---+-----
9-+-+---8
---------
6-----+-3
-----+---
2-+-7----
------+--
+-+-9--+5
---+---+-
8--1+-8--
------+-+
4-+-6----
-5-------
--7-+-+-6
+---9---+
+---9-++-

Generation = 49, Population = 63.
-4--+4+--
9-----+54
--26--6--
8--+----6
---+-0-0-
--+-+-+--
-6-------
--5-----2
------+--
-----+--+
---+-6--6
---+8--+-
-8+-+-9-+
--+8-2+--
-0---04-6
--5---7-+
8---+---7
+8+6-5--+
+3-5+-++-

Generation = 50, Population = 79.
--4++---7
--75+-+-5
-23-187--
-5--5+4--
9--++-5--
---5-8---
6-9-2-+-3
---6--55-
--+----6-
---+7+-8+
--++977-7
-+------7
89--+++7-
-5-9+-++-
4-+76-5-7
8--8+-8--
9-----++-
+9------+
--4-+4++-

Generation = 51, Population = 80.
-4-+-4+78
--86+3+-6
+--6298+6
-6--6+5+-
--+---60-
---6--+-6
-----0+2-
5-5--+---
-6-878---
--4-8-+--
--+++88+-
-+-+----8
9++---+--
86+-+2+--
50+-7--0-
-5------+
---++1-+-
-+--95-5-
+---+--+-

Generation = 52, Population = 57.
5-4++-+--
9-9-+-+--
-------+-
-----+-+-
----+-7--
----+----
6-932-+3-
-0-----5-
---98----
--5---+--
---++-9+-
-+-+-0---
----+-+7+
9-+------
----8----
-6-8-0-+-
--7++--+-
--+-+---+
---5+-++8

Generation = 53, Population = 79.
6-----+7-
+-+6+-+--
+-3-29-+6
------5+6
---++0---
+-+--8-0-
-6+---+-3
-------62
-6-+98+6-
-0-+-++--
-7--+8-+7
6--+--8-8
9++--++-+
---9--+++
50+----0-
8-59---++
---+--++-
-++--525+
---6--+--

Generation = 54, Population = 91.
744++4-88
-----3+56
+-46-+---
8-++-+6+-
9--+----8
-6+--9+--
-7-3----4
--564+5--
27---9+--
4--+-+-8+
-8+++--+-
7+---09+-
--+1+++7-
--+-+--+-
---7----7
96--+--++
947++--+7
+++6+6-6+
-3--+-+-8

Generation = 55, Population = 88.
8-----+--
-0---4-6-
+-----8-6
---+---+-
+-+++----
--+6+++0-
68-4---3-
5067-+-62
-8---+--+
50-+8++-+
+--++8---
8-8-8-++8
9---+++8+
-6+-+--+-
50--8--08
---9+08-+
+-8++-++8
--+7-72-+
-4--+4-+9

Generation = 56, Population = 33.
---------
+-+-+----
---6-----
---+-----
------7--
----+---6
---------
-----+---
2--------
----9-+-+
------9+-
---+---+-
+--1+-+--
9-+-----+
6--------
-6-------
------+-9
+--------
+---+-++-

Generation = 57, Population = 71.
8-4-+----
---6-4---
+--7-----
--++6-6--
---++0-08
---6-++0-
----20--4
5---4-5--
-8--9++-+
5--+--+8-
---++8---
8-8+--++8
++--+---+
----+-++-
7-+-----8
--5---8-+
+4---1---
++--+--6+
+4-6--++9

Generation = 58, Population = 68.
---+-----
---7+-+--
-2---+8--
86+--+--6
---++---9
--+7-+--6
6-----+--
---7--66-
2-+---+6-
--5+9+-9-
---+-99-7
9+9-8-+--
-+--++-8+
-6+9+-+++
--+78---9
--69----+
-------+-
+++------
-----4++-

Generation = 59, Population = 91.
--4+--+--
-0+-+4+6-
-3-7---+6
97+--+-+7
+0+-+0-0-
+6+-+--07
-8+---+-4
----4+7-2
--++9--7+
50-+---+-
+8++---+-
++++9-+--
--+-++---
9-+++2+++
--+--05--
-6------+
+4-+--+--
+-+7-72--
+44-+5-+9

Generation = 60, Population = 57.
---+--+--
+---+-+--
-------+-
-----+-+-
+-+-----9
--+-+----
---4--+3-
-0-----6-
2-++-----
------+--
+-++---+7
-+-+-0---
----+-+8+
--+-+-+-+
7-+------
-7-9-0-+-
--8++-++9
----+---+
---6+-+++

Generation = 61, Population = 85.
8-4--4+8-
-0----+--
+---2+-+6
9-+-6--+-
--+++0---
+6+7-++07
-8---0+-4
-------72
-8++9-+7-
-----+--+
-8+-+9-+8
--++9----
-++-++---
96+-+-+++
-0+-80509
---++-8+-
--9+-1++-
--+7-7-6-
--47--+--

Generation = 62, Population = 93.
-4-++5+98
+---+4+66
+-47-+8-7
+-++-+6+-
--+++---9
+7+-+++--
-9-42----
--674+7--
29--+++-+
---+9+-++
+9-+---+-
-++-+0-+8
--+1++-8+
+-+----+-
---79----
-76---9+-
-4-++-++9
-++8-8-7+
-4--+----

Generation = 63, Population = 86.
---++6++-
+-+7---77
----2+9-8
+-++6-7+7
--++-0---
+8--+-+07
-+--30---
5078-+-72
3+-++--7+
--5-+-+--
+-+++-9-8
-------+-
+-+-+--9-
--++-2++-
70+8+05--
9-7+-0---
+---+1---
++----2--
+5-----++

*** Life<FredkinCell> 10x7 ***

Generation = 0, Population = 15.
-------
000-0--
0------
--0----
----0--
---0-0-
----0--
----00-
0--0---
---0---

Generation = 10, Population = 31.
-1-2-01
--2----
2-1-2-2
--3-11-
-2---3-
----23-
--303-3
-0400--
--2-2-1
-3--710

Generation = 20, Population = 25.
---3---
-5913--
3--4---
4---2--
3---5--
---84--
--539--
-28--64
--4---6
--18--0

Generation = 30, Population = 38.
632+737
---35-5
--2-7-3
-8+8---
74---44
86-9+52
8------
6---6--
854-347
8--+-5-

Generation = 40, Population = 24.
----8--
6+-5+9-
-------
8+++---
---+9--
+7-+-9-
---9+--
--++-+-
+--+---
-----6-

Generation = 50, Population = 29.
---+--+
-------
-64++56
-+-+-+-
+75-+7-
--+++-5
+3---5-
--+----
-7-+-5-
-9----5

Generation = 60, Population = 31.
+--++--
+++-+--
+-5+---
-----+6
+--++-+
+-+--+-
--6++-+
+--+---
+--+--9
--+-+-6

Generation = 70, Population = 35.
--+++--
+-++-+-
-+---8+
-+--++-
+-8++-+
-+++-+7
------+
+-+-++8
+-+-+--
-+--+-9

Generation = 80, Population = 23.
---+---
+++++--
-------
--++++-
+------
---+++-
+---+--
--+--+-
+--+---
++-+---

Generation = 90, Population = 45.
+++++8+
-++-+++
--+-+--
---++-+
++++++-
--++-++
++---++
-++-+++
-++++8-
-++++--

*** Life<FredkinCell> 9x10 ***

Generation = 0, Population = 12.
---------0
----------
------0---
--0-------
-0--------
----0---00
---00-----
----------
------00-0

Generation = 4, Population = 31.
-0---122--
----1---11
--010----0
0-----1---
-0---000--
0---21-3--
0-------11
--1-------
-01-13-1-0

Generation = 8, Population = 34.
-2--1-44-0
----3---33
11-----2-2
--1-1-----
---0201--0
1101-----6
-121----3-
--2-------
12-0-4---1

Generation = 12, Population = 45.
--5-325-31
-110-0-35-
-5----3-1-
--2---5-0-
-3216-5102
232---1-18
21-12-1-3-
1---3-0---
-6---44-2-

Generation = 16, Population = 30.
-2-6-67---
----6---77
4--10---34
--3-----0-
---1--6---
4-36-33---
43-----1--
--4-------
2---38-24-

Generation = 20, Population = 44.
2-6-68+75-
--41--2879
--53--66--
1-5-2-6-4-
35439-7-1-
66----482-
-44-4--3--
3-----0-0-
--2---46--

Generation = 24, Population = 43.
2--7+-++5-
-4--914-8-
-975-4-675
3-------8-
47--+-741-
-76--96+--
-4---34-94
--4-9---1-
--2----885

Generation = 28, Population = 42.
--+-++++--
4----2-88+
-+---5+886
----4-----
-77-+59---
68873---4-
-87343-7+5
5-6---2---
---1--6-9-

Generation = 32, Population = 41.
-5-8+-++-4
----+---++
-+7-4-++-6
--5---+-8-
---6+-+7-4
+88---9-5+
-9--6749-7
--8-------
--518-8--9

Generation = 36, Population = 43.
4-------65
-5+--27+--
-+9--7+++7
5---8-+-8-
7+-7-5-+35
+9--5-++-+
6+7-----+-
5-------3-
-+51--+-+-

Generation = 40, Population = 51.
5--9-+++8-
---2+-+--+
++-+5-+++9
--------8-
8+----+-47
+-++6++-8+
++86--7+++
--+-+-4-4-
6+-29-+-+9

Generation = 44, Population = 29.
-6--+---+-
----------
+-9+-9----
--9---+---
----+6--67
-+-+8+----
++-6--++++
----------
++64---+--

Generation = 48, Population = 36.
-8++-+--+9
-7-3+4----
-+9+------
9-+---+---
-+7+-8--89
+----+-+++
---8-9-+++
--+---5---
--6------+

Generation = 52, Population = 37.
8---+++---
-9-5+6----
+-+--++---
+-+-+-----
++-++++--9
--+-+--++-
----++--++
--+---6---
+++--++---

Generation = 56, Population = 36.
+-++----+-
89+6-----+
-+--6---+-
----+---+-
+++-----++
-+---++--+
+---++-+-+
--+-+-----
-+-8++--++

Generation = 60, Population = 44.
----+-++++
-+-6++----
++++---+++
+-+-------
----++++++
++-+---+--
++9-+--+++
--+---7---
+++--+-+++

Generation = 64, Population = 30.
-9----++-+
----+---++
---+----++
+---+-----
---+--++--
--+----+-+
-++--+++-+
--+-------
-+-+-+-++-

Generation = 68, Population = 43.
-9++--+-+-
8-+--+--+-
--+-7---+-
+---+---+-
--+--++++-
+--++++++-
++++-++--+
--+-+-7---
-++-+--+++

Generation = 72, Population = 42.
+++-----+-
8+-6+--+++
+---+++-++
+---+-+---
+++----+++
-+++-+-++-
++--+-++--
+---------
+---+-+-+-

Generation = 76, Population = 41.
+---+--++-
-+-+++----
+++-+++-++
----+---+-
+--++--+++
-+---++--+
++-++---+-
--+---8---
+-+-+-+-++

Generation = 80, Population = 43.
++---+++-+
9--++++++-
-+-+--+--+
+-+-+-+---
+--+-+++--
-+++++-+-+
+-+----+--
+---+---6-
-+---++--+

Generation = 84, Population = 39.
++-+++---+
--++--++++
-----++--+
+-----+---
++-++-----
+---++-+--
+-+-+++--+
+-----+-7-
---+-+++-+

Generation = 88, Population = 34.
-+++-++-+-
----------
---+-+++-+
+---+-+-+-
--+--++-+-
++--+-++-+
-+-++++-++
----------
------+--+

Generation = 92, Population = 46.
+--++++---
++--+-++-+
-+-+++---+
+---------
+--++++---
++-++--+++
+-++++-+-+
+---+-+-8-
-+-+++-+-+

Generation = 96, Population = 46.
----+-+++-
++--+-++-+
+-+---+++-
+-+---+-+-
----+-+-+-
--+++-++--
-++++++++-
+---+-+-8-
+-++--++++

*** Life<FredkinCell> 7x16 ***

Generation = 0, Population = 24.
---------00-----
0----0-----0000-
-------0-0-0----
0----------0----
---------0-00--0
----00000-------
---00-----------

Generation = 17, Population = 57.
14-1-6-632-2--6-
455----525--65-1
0425----0756----
-1--2-44-3---1-1
26-57--+0--61-2-
-721319-2-------
------52-335411-

Generation = 34, Population = 58.
------5-7---+-9-
9+--4--67++--+7-
---+-4-828++8+6-
8-7--5-47--6578-
-86--44-4----8-+
-7-79---9-9475--
676--7+-566+--+4

*** Life<FredkinCell> 10x15 ***

Generation = 0, Population = 19.
-0-------------
-----0---0----0
----0----------
-0--0----0--00-
---------------
-----0--0------
0--------------
-------0-----0-
---0----------0
-0----------0--

Generation = 19, Population = 73.
---15323--1003-
-4-----6443--5-
-35--6-0-4-0---
555-6----5---53
23---5---1-3-15
-5--644-12-----
--6342112-11---
-123--31-6-4--3
7-4623--------7
--24-3-647-2-75

Generation = 38, Population = 71.
-+4-----674----
-+7--98-----++-
6-+-4--567--4--
68-----4---879-
372688-63-2---9
---6-+886-85+-9
--97+-4-8-8-8--
--77+586--88---
--9----49-5---9
59----+-+9-4-++

Generation = 57, Population = 84.
-+-+-79++-76-6-
-+++----+9+---+
+-++++798+-664+
-++++---++-+-+-
5+--99--+8---6+
---99-++-+-7+++
+--++97----6+1+
+-++------+++-+
------8--+-5+4+
-+-+6--+---5+++

Generation = 76, Population = 61.
+------+--9--9+
++-------+---+-
---+--+----8+8-
+--++--++--++--
+-++-----+8----
+++-++---+--+++
-++----+++-----
+-+++--+-+-++-+
-++--+----+----
+-+-+-++-++---+

Generation = 95, Population = 76.
-++------+--+++
-+++----+-+++-+
+-++++--+++---+
++---+8+----++-
-+-+++--+-++++-
++--+-----+-+--
+++----+-+++--+
+-++--+--+++-+-
+--+-+----+-+7+
++-++-----+++++

Generation = 114, Population = 60.
+--+++------+-+
-+--+--++-+----
---+-++-----+--
--+-+--+-+-+---
+-++----------+
--++--+++++----
-+-++-+-------+
--+-+-++-++-+++
+++++++-----+-+
----+--+-++++--

Generation = 133, Population = 63.
-++----++++-+--
++--+--++---++-
+-+++++-+-++++-
----++-+------+
+---+--+-++++--
---+-+----+-+++
--+--+--+-+-+--
-+-----+----+--
--++-++-+--+-++
-++---++-----+-

*** Life<FredkinCell> 2x16 ***

Generation = 0, Population = 12.
--0-0---0-00---0
000-------0--00-

*** Life<FredkinCell> 5x2 ***

Generation = 0, Population = 4.
0-
-0
-0
-0
--

Generation = 4, Population = 6.
10
--
32
--
11

Generation = 8, Population = 6.
54
--
76
--
55

Generation = 12, Population = 6.
98
--
++
--
99

Generation = 16, Population = 6.
++
--
++
--
++

Generation = 20, Population = 6.
++
--
++
--
++

Generation = 24, Population = 6.
++
--
++
--
++

Generation = 28, Population = 6.
++
--
++
--
++

Generation = 32, Population = 6.
++
--
++
--
++

Generation = 36, Population = 6.
++
--
++
--
++

Generation = 40, Population = 6.
++
--
++
--
++

Generation = 44, Population = 6.
++
--
++
--
++

Generation = 48, Population = 6.
++
--
++
--
++

Generation = 52, Population = 6.
++
--
++
--
++

Generation = 56, Population = 6.
++
--
++
--
++

Generation = 60, Population = 6.
++
--
++
--
++

Generation = 64, Population = 6.
++
--
++
--
++

Generation = 68, Population = 6.
++
--
++
--
++

Generation = 72, Population = 6.
++
--
++
--
++

Generation = 76, Population = 6.
++
--
++
--
++

Generation = 80, Population = 6.
++
--
++
--
++

Generation = 84, Population = 6.
++
--
++
--
++

Generation = 88, Population = 6.
++
--
++
--
++

Generation = 92, Population = 6.
++
--
++
--
++

Generation = 96, Population = 6.
++
--
++
--
++

Generation = 100, Population = 6.
++
--
++
--
++

Generation = 104, Population = 6.
++
--
++
--
++

Generation = 108, Population = 6.
++
--
++
--
++

Generation = 112, Population = 6.
++
--
++
--
++

Generation = 116, Population = 6.
++
--
++
--
++

Generation = 120, Population = 6.
++
--
++
--
++

Generation = 124, Population = 6.
++
--
++
--
++

Generation = 128, Population = 6.
++
--
++
--
++

Generation = 132, Population = 6.
++
--
++
--
++

Generation = 136, Population = 6.
++
--
++
--
++

Generation = 140, Population = 6.
++
--
++
--
++

Generation = 144, Population = 6.
++
--
++
--
++

Generation = 148, Population = 6.
++
--
++
--
++

Generation = 152, Population = 6.
++
--
++
--
++

Generation = 156, Population = 6.
++
--
++
--
++

Generation = 160, Population = 6.
++
--
++
--
++

Generation = 164, Population = 6.
++
--
++
--
++

Generation = 168, Population = 6.
++
--
++
--
++

Generation = 172, Population = 6.
++
--
++
--
++

Generation = 176, Population = 6.
++
--
++
--
++

Generation = 180, Population = 6.
++
--
++
--
++

Generation = 184, Population = 6.
++
--
++
--
++

Generation = 188, Population = 6.
++
--
++
--
++

*** Life<FredkinCell> 14x8 ***

Generation = 0, Population = 19.
--------
---0----
------00
--0---0-
---0---0
--------
-----0--
--0-0---
---0---0
00---0--
-----0--
---0----
--------
-----00-

Generation = 10, Population = 57.
1-33----
-33-30--
--1-1-1-
--------
031-14-2
121----0
-3-3-131
02-42---
-4----1-
3--2445-
---203--
23014-42
-0-1-111
423346--

Generation = 20, Population = 55.
-2-748-2
16-18--0
5--3----
8----24-
-5-3----
6533861-
-4--2-32
--8-5---
-8-7--73
81456-95
--15--7-
--3-7965
-12----4
-63----4

Generation = 30, Population = 59.
1---7+--
6-65+9--
---79+--
-81+66--
58-767--
985---32
26--3--4
-7----+6
----3-8-
--778---
567+-7+-
5-76+---
--635474
7-59-7-9

Generation = 40, Population = 59.
5-8+-+--
++++-+-4
9+++9---
-93-7+++
6--+-898
++-8+96-
-9---+8-
7-----+-
------+8
987--+--
-97--++-
-+----+-
-7-5-875
8+---+7+

*** Life<FredkinCell> 12x17 ***

Generation = 0, Population = 29.
-------------0---
--0---0-------0--
--0----00--------
-0-0---------0-0-
--------------0--
----------0------
---0----0--0-----
---00----0-00----
-----------------
---0-0-0-0-------
-----------------
-----00---0----0-

Generation = 20, Population = 99.
4--23645655-5-4-9
7--486-463--6----
-1--+4-4-------25
-73-6--4-4--8----
717323----08-4--2
----3-99-6-6---61
6-662-336--9-5--3
795-8-5----356--3
2--------3--1-33-
-365-3-64---58-7-
--42--3-03-8-2514
-95-8-9----33--4-

Generation = 40, Population = 111.
+88-8-8++--9-6--+
+++--+7+-+9-+++7-
--+---+-+--+++4--
3----++9-759--+8-
+--748++--5++5--8
8586--++-+--+-8--
--++88-8+8--+84--
--+3+7-----6+8-88
+-++5--7-57+--896
-+--5-7+-+89+-5--
5-97---+1--+76-3-
9+-----+-+-7-----

*** Life<FredkinCell> 7x2 ***

Generation = 0, Population = 3.
0-
--
--
0-
-0
--
--

Generation = 2, Population = 7.
--
1-
10
0-
-0
0-
-0

Generation = 4, Population = 7.
10
--
3-
2-
10
--
-0

Generation = 6, Population = 7.
3-
2-
5-
2-
--
1-
10

Generation = 8, Population = 3.
5-
--
--
4-
-1
--
--

Generation = 10, Population = 7.
--
3-
61
4-
-1
2-
-1

Generation = 12, Population = 7.
61
--
8-
6-
21
--
-1

Generation = 14, Population = 7.
8-
4-
+-
6-
--
3-
21

*** Life<FredkinCell> 3x12 ***

Generation = 0, Population = 18.
-00000--0---
0--0------00
00-00000-0--

Generation = 19, Population = 20.
4-65---64+7-
63---4--33-7
142+23--0---

Generation = 38, Population = 20.
---+++++++--
+59-8++47--+
4-4--+----4-

Generation = 57, Population = 17.
-+++--++--+7
+---++++--++
-----+-+---+

Generation = 76, Population = 16.
+---++--+-+-
---+++--++++
-----+-+--9+

Generation = 95, Population = 21.
++-++-++--++
++++-++-++--
--+-+++-9---

Generation = 114, Population = 25.
+-++--+-+++-
++-+-+++++++
++--+-++++-+

Generation = 133, Population = 12.
++---+--+---
+++-+-+-+-+-
-+----------

Generation = 152, Population = 17.
-+----++-+++
+-++---+---+
+++-+-+-+---

*** Life<FredkinCell> 17x18 ***

Generation = 0, Population = 11.
------------------
-----------------0
------------------
0-----------------
--------------0---
------------------
------------------
-------0-------0--
------------------
------------------
------------------
------------------
---------0--------
-0---0------------
------------------
----------0-------
0-------------0---

Generation = 17, Population = 86.
-0-0-0-------0-0--
--0---0--1--------
-0-0-0--1----0100-
------5----1-04--0
-------4--1---1-1-
--1-1----0--------
-2------0-3--2-0--
----0-1--3--2---0-
-----0-------0-2--
--------------0---
3------0-----2----
-2---21-2--1----1-
1---1-14-31-42----
-----1--0-110-2-0-
1---2----23-------
20-2-22--0-0----1-
21--12-2--2--1---1

Generation = 34, Population = 107.
------------0-2-2-
----0-12-4-4-7-3-1
--------8-----5-3-
--3-53+-34-4-----5
------8---6---6---
37--4-32-2---6-2-3
--------25----2-3-
8452-2-5-----9-6--
-------1---57---3-
32-------40--0----
5--1-----5-----5--
-6-7---373-46+---2
-73--5------689-89
-0--2--3-----2-23-
--334-3-46--5-52--
--33--949--24-4---
6-3---55-+38----7-

Generation = 51, Population = 162.
-354-34----+4--345
48--4-47-+-9--5--2
6--7-3---5-6---6-4
3-47-6--9+--7+9+--
537-75-5-49-------
--56-74--74-68-6--
+--3867648--2---3-
+++5---9----++-7--
847-----7-8++--69-
4----+-6-6-70-97--
8-3427--577--96--8
+-++++---------+--
4--+9-++7914---9+-
4----47+3+65263-6+
+----++-7-+--887-+
-2---++++-+4---87+
+8957+7+++-+-8-2-5

Generation = 68, Population = 86.
--9------+9---5---
---8---+-+-+-----3
----------+-------
--6-8-+-+++---+-+9
-----+-------+----
-------+-+---+-9-9
+-----------------
-----7+-----+-9+--
-8--+----+----78--
-----+---8-----+--
--9-4----++-------
+-+-+-++-++----+-+
9+9--5----49+-+--+
-+-------+-----+--
+-5--+------+++---
--+6+--+------++-+
++----9-++----+7+-

Generation = 85, Population = 141.
+-+-----+--+-8--8-
4+--9++-+-7--+---8
+---+--6--+-+-+-8-
----++-+-++-+++++-
-6+-+++---+-++-+--
+++---7+-+++-++-6+
-+-+---++++9-7++--
+--+-+-++++-+--+--
-+--+8+++++++9++++
-9+---5-----4-++-+
++-+----+-+9-----+
+++++-+-+------+--
+----9-+--6-++--++
+----+-+--+------+
-------+-+-+--+-6-
-++-+-+---+------+
+-+8+-------++--++

Generation = 102, Population = 170.
-6+-9-++++-++-+-++
----+++----+-++--+
-+-++++-+----++-+9
--++++++++-++---++
--++-+--+-+-+-+++-
---+++-+-+-++----+
+---+--+-++++9+++-
---++---+-+-+-+++9
--+----++++---++-+
---+++++7-9-8++-8-
----+-++++--++++++
-+++----+++-+-+---
----+++-+++-+++-+-
-+6-+-9-7++--+6+--
+++-+-+--++++--+7-
++------++-++-++++
--+9++-++++-+-++++

*** Life<FredkinCell> 20x13 ***

Generation = 0, Population = 13.
----0--------
-------------
-------------
-------------
---------0---
-------------
-0-----------
--------0----
-----0-------
--0---------0
-------------
-------------
-------------
---------0---
-------------
-------------
----0------0-
-0-----------
-------------
----0----0---

Generation = 7, Population = 123.
021---1-3--10
00-0-----000-
----1-1--1--0
00-----00----
002-1--00---0
--0--00----0-
0-00-00-000--
---000--110--
-------0-000-
-0-0001-3-3-0
01-1---0-0-1-
1--0-2--2-0--
0-221-2------
2-1001-1111--
10-0-201--01-
--002------21
10100-222---0
1---442222-0-
2----0012---0
23----33-----

*** Life<FredkinCell> 12x8 ***

Generation = 0, Population = 22.
------00
-----0-0
--------
0-------
0-------
0-------
-----00-
---0-00-
--00--00
-0-0----
00------
-0-0----

Generation = 7, Population = 52.
--1--5-0
3---21-1
4-211--1
123---31
12-121--
--53-442
4020402-
5----121
-----115
-3---1--
3-1-0233
-2--20--

Generation = 14, Population = 46.
--5-169-
4-1-2---
-13---32
-5-66---
1-2142-2
1-8-395-
42-37--1
--634-33
-2---3--
------24
---223--
132---3-

Generation = 21, Population = 54.
748--7--
4+33-5-4
91431--7
--59-4-5
----4-1-
-6+---85
-34--373
72-4-985
-536-42+
--4737-6
-13-----
---32-59

Generation = 28, Population = 46.
-6-65+-4
7+-57--7
+2-4-9--
--------
4336-5--
28+---+7
-6----7-
-5865+-7
---88---
-87+5--7
85-5--8-
--4--2-+

*** Life<FredkinCell> 5x12 ***

Generation = 0, Population = 18.
0----0---0-0
--0-------0-
---0---00-0-
--0-0----0--
0-00----00--

Generation = 5, Population = 33.
-2-0210-12-3
2010--0010-0
01---32--1--
-0-0-1322---
-1-3--1--12-

Generation = 10, Population = 30.
-4---40-33-8
-02-0-11312-
-2------2-5-
---2314244-3
262-------42

Generation = 15, Population = 28.
-5---7--6358
-1--112----1
-4-2-6-13661
3-34-1--5---
-8------33-3

Generation = 20, Population = 30.
36-53---8--9
6-7---5-5-4-
4---3752-661
32----8---65
49--8-51-6--

Generation = 25, Population = 29.
--76--25--8+
--+13---7-72
-7-3---5-9-2
---66495-8--
7+-6-3---9-4

Generation = 30, Population = 35.
-7-------9-+
82+24-9-8585
+75-5+87--+-
-5-775-5-9--
-+-79-64-+65

Generation = 35, Population = 31.
--+-6-7-+-+-
+2-45-+29-+-
-7537-+-8-+5
7-7--7-5----
-+-8+--7--88

Generation = 40, Population = 25.
---88999+-++
----8-+---+-
-76---+--++-
----+---7-+6
---+---96++-

Generation = 45, Population = 30.
99+9+9+-----
-2+---+--6--
+--------+-7
97--+-+8+-++
-+7+-6++8+--

Generation = 50, Population = 30.
----+9--+-+-
---5+2----+7
+----+++-+++
-7-+-++9-+-+
++7+-+--9--+

Generation = 55, Population = 29.
++++-------+
+3--+5---7-8
+-+--+-----+
-+++-++++-++
--9-+-+---++

Generation = 60, Population = 30.
+--+-9-+--++
+-+-+-----+-
++-8-+--+-++
+-++-++--+++
---++-+-++--

Generation = 65, Population = 30.
+-++--+---+-
-5-8+7--+8-+
+++9++-++-+-
+---++-----+
++-+-+-----+

Generation = 70, Population = 34.
++---+-+-+++
--++---3++-+
--+++++++-++
++--+--++-+-
+--+--++-+-+

*** Life<FredkinCell> 14x4 ***

Generation = 0, Population = 5.
----
----
-00-
--0-
----
----
----
-0-0
----
----
----
----
----
----

Generation = 17, Population = 32.
----
5022
--46
55+-
3524
2---
---2
0-1-
-32-
--21
3444
-0-4
24-1
-21-

Generation = 34, Population = 16.
-+4-
----
+56+
+++5
----
----
-65-
--6+
----
----
----
-3-7
----
----

Generation = 51, Population = 32.
++--
+66-
+7++
-++7
++7+
9++-
9---
--7+
7+-5
----
+---
64-+
+---
2--+

Generation = 68, Population = 12.
----
----
+--+
+-+-
-+9-
----
----
-+--
----
----
-++-
--+-
----
-8-+

