*** Life<ConwayCell> 4x3 ***

Generation = 0, Population = 5.
.*.
*..
.**
.*.

Generation = 7, Population = 0.
...
...
...
...

Generation = 14, Population = 0.
...
...
...
...

Generation = 21, Population = 0.
...
...
...
...

Generation = 28, Population = 0.
...
...
...
...

Generation = 35, Population = 0.
...
...
...
...

Generation = 42, Population = 0.
...
...
...
...

*** Life<ConwayCell> 4x3 ***

Generation = 0, Population = 2.
..*
...
...
*..

*** Life<ConwayCell> 2x3 ***

Generation = 0, Population = 6.
***
***

Generation = 4, Population = 0.
...
...

Generation = 8, Population = 0.
...
...

Generation = 12, Population = 0.
...
...

Generation = 16, Population = 0.
...
...

Generation = 20, Population = 0.
...
...

Generation = 24, Population = 0.
...
...

Generation = 28, Population = 0.
...
...

Generation = 32, Population = 0.
...
...

Generation = 36, Population = 0.
...
...

Generation = 40, Population = 0.
...
...

Generation = 44, Population = 0.
...
...

Generation = 48, Population = 0.
...
...

Generation = 52, Population = 0.
...
...

Generation = 56, Population = 0.
...
...

Generation = 60, Population = 0.
...
...

Generation = 64, Population = 0.
...
...

Generation = 68, Population = 0.
...
...

Generation = 72, Population = 0.
...
...

Generation = 76, Population = 0.
...
...

Generation = 80, Population = 0.
...
...

Generation = 84, Population = 0.
...
...

Generation = 88, Population = 0.
...
...

Generation = 92, Population = 0.
...
...

Generation = 96, Population = 0.
...
...

*** Life<ConwayCell> 10x7 ***

Generation = 0, Population = 16.
*......
..*.*..
...*..*
.*....*
.......
.....*.
.....*.
.**.**.
......*
..*...*

Generation = 3, Population = 13.
...*...
..*.*..
..*.*..
...*...
.......
.......
....**.
..*....
.*..**.
..*....

Generation = 6, Population = 12.
...*...
..*.*..
..*.*..
...*...
.......
.......
.......
..**...
..**...
..**...

Generation = 9, Population = 12.
...*...
..*.*..
..*.*..
...*...
.......
.......
.......
..**...
.*..*..
..**...

Generation = 12, Population = 12.
...*...
..*.*..
..*.*..
...*...
.......
.......
.......
..**...
.*..*..
..**...

Generation = 15, Population = 12.
...*...
..*.*..
..*.*..
...*...
.......
.......
.......
..**...
.*..*..
..**...

*** Life<ConwayCell> 8x3 ***

Generation = 0, Population = 2.
...
...
...
...
...
.*.
...
.*.

Generation = 2, Population = 0.
...
...
...
...
...
...
...
...

Generation = 4, Population = 0.
...
...
...
...
...
...
...
...

Generation = 6, Population = 0.
...
...
...
...
...
...
...
...

Generation = 8, Population = 0.
...
...
...
...
...
...
...
...

Generation = 10, Population = 0.
...
...
...
...
...
...
...
...

Generation = 12, Population = 0.
...
...
...
...
...
...
...
...

Generation = 14, Population = 0.
...
...
...
...
...
...
...
...

Generation = 16, Population = 0.
...
...
...
...
...
...
...
...

Generation = 18, Population = 0.
...
...
...
...
...
...
...
...

Generation = 20, Population = 0.
...
...
...
...
...
...
...
...

Generation = 22, Population = 0.
...
...
...
...
...
...
...
...

Generation = 24, Population = 0.
...
...
...
...
...
...
...
...

Generation = 26, Population = 0.
...
...
...
...
...
...
...
...

Generation = 28, Population = 0.
...
...
...
...
...
...
...
...

Generation = 30, Population = 0.
...
...
...
...
...
...
...
...

Generation = 32, Population = 0.
...
...
...
...
...
...
...
...

Generation = 34, Population = 0.
...
...
...
...
...
...
...
...

Generation = 36, Population = 0.
...
...
...
...
...
...
...
...

Generation = 38, Population = 0.
...
...
...
...
...
...
...
...

Generation = 40, Population = 0.
...
...
...
...
...
...
...
...

Generation = 42, Population = 0.
...
...
...
...
...
...
...
...

Generation = 44, Population = 0.
...
...
...
...
...
...
...
...

Generation = 46, Population = 0.
...
...
...
...
...
...
...
...

Generation = 48, Population = 0.
...
...
...
...
...
...
...
...

Generation = 50, Population = 0.
...
...
...
...
...
...
...
...

Generation = 52, Population = 0.
...
...
...
...
...
...
...
...

Generation = 54, Population = 0.
...
...
...
...
...
...
...
...

Generation = 56, Population = 0.
...
...
...
...
...
...
...
...

Generation = 58, Population = 0.
...
...
...
...
...
...
...
...

Generation = 60, Population = 0.
...
...
...
...
...
...
...
...

Generation = 62, Population = 0.
...
...
...
...
...
...
...
...

Generation = 64, Population = 0.
...
...
...
...
...
...
...
...

Generation = 66, Population = 0.
...
...
...
...
...
...
...
...

Generation = 68, Population = 0.
...
...
...
...
...
...
...
...

Generation = 70, Population = 0.
...
...
...
...
...
...
...
...

Generation = 72, Population = 0.
...
...
...
...
...
...
...
...

Generation = 74, Population = 0.
...
...
...
...
...
...
...
...

Generation = 76, Population = 0.
...
...
...
...
...
...
...
...

*** Life<ConwayCell> 5x7 ***

Generation = 0, Population = 19.
***.*..
.*..**.
****...
**.****
*.*....

Generation = 10, Population = 0.
.......
.......
.......
.......
.......

Generation = 20, Population = 0.
.......
.......
.......
.......
.......

Generation = 30, Population = 0.
.......
.......
.......
.......
.......

Generation = 40, Population = 0.
.......
.......
.......
.......
.......

Generation = 50, Population = 0.
.......
.......
.......
.......
.......

Generation = 60, Population = 0.
.......
.......
.......
.......
.......

Generation = 70, Population = 0.
.......
.......
.......
.......
.......

Generation = 80, Population = 0.
.......
.......
.......
.......
.......

Generation = 90, Population = 0.
.......
.......
.......
.......
.......

*** Life<ConwayCell> 7x2 ***

Generation = 0, Population = 9.
**
.*
.*
**
..
.*
**

Generation = 4, Population = 4.
**
**
..
..
..
..
..

Generation = 8, Population = 4.
**
**
..
..
..
..
..

*** Life<ConwayCell> 9x2 ***

Generation = 0, Population = 16.
*.
**
**
**
.*
**
**
**
**

Generation = 3, Population = 0.
..
..
..
..
..
..
..
..
..

Generation = 6, Population = 0.
..
..
..
..
..
..
..
..
..

Generation = 9, Population = 0.
..
..
..
..
..
..
..
..
..

Generation = 12, Population = 0.
..
..
..
..
..
..
..
..
..

Generation = 15, Population = 0.
..
..
..
..
..
..
..
..
..

Generation = 18, Population = 0.
..
..
..
..
..
..
..
..
..

Generation = 21, Population = 0.
..
..
..
..
..
..
..
..
..

Generation = 24, Population = 0.
..
..
..
..
..
..
..
..
..

Generation = 27, Population = 0.
..
..
..
..
..
..
..
..
..

Generation = 30, Population = 0.
..
..
..
..
..
..
..
..
..

Generation = 33, Population = 0.
..
..
..
..
..
..
..
..
..

Generation = 36, Population = 0.
..
..
..
..
..
..
..
..
..

Generation = 39, Population = 0.
..
..
..
..
..
..
..
..
..

Generation = 42, Population = 0.
..
..
..
..
..
..
..
..
..

Generation = 45, Population = 0.
..
..
..
..
..
..
..
..
..

Generation = 48, Population = 0.
..
..
..
..
..
..
..
..
..

Generation = 51, Population = 0.
..
..
..
..
..
..
..
..
..

Generation = 54, Population = 0.
..
..
..
..
..
..
..
..
..

Generation = 57, Population = 0.
..
..
..
..
..
..
..
..
..

*** Life<ConwayCell> 3x9 ***

Generation = 0, Population = 16.
**.**.***
****...*.
*.*.*...*

Generation = 5, Population = 6.
......**.
.......*.
....***..

*** Life<ConwayCell> 8x7 ***

Generation = 0, Population = 17.
..*..*.
.......
...*..*
.*..**.
**.*...
.*..*..
.....*.
.*.***.

Generation = 1, Population = 20.
.......
.......
....**.
**.***.
**.*.*.
***.*..
..**.*.
....**.

Generation = 2, Population = 14.
.......
.......
...*.*.
**.*..*
.....*.
*....*.
..*..*.
...***.

Generation = 3, Population = 19.
.......
.......
..*.*..
..*..**
**..***
....***
...*.**
...***.

Generation = 4, Population = 11.
.......
.......
...*.*.
..*...*
.*.*...
...*...
...*...
...*.**

Generation = 5, Population = 9.
.......
.......
.......
..***..
...*...
...**..
..**...
....*..

Generation = 6, Population = 7.
.......
.......
...*...
..***..
.......
....*..
..*....
...*...

Generation = 7, Population = 8.
.......
.......
..***..
..***..
....*..
.......
...*...
.......

Generation = 8, Population = 6.
.......
...*...
..*.*..
..*..*.
....*..
.......
.......
.......

Generation = 9, Population = 5.
.......
...*...
..*.*..
....**.
.......
.......
.......
.......

Generation = 10, Population = 6.
.......
...*...
....**.
...***.
.......
.......
.......
.......

Generation = 11, Population = 5.
.......
....*..
.....*.
...*.*.
....*..
.......
.......
.......

Generation = 12, Population = 3.
.......
.......
.....*.
.....*.
....*..
.......
.......
.......

Generation = 13, Population = 2.
.......
.......
.......
....**.
.......
.......
.......
.......

Generation = 14, Population = 0.
.......
.......
.......
.......
.......
.......
.......
.......

Generation = 15, Population = 0.
.......
.......
.......
.......
.......
.......
.......
.......

Generation = 16, Population = 0.
.......
.......
.......
.......
.......
.......
.......
.......

Generation = 17, Population = 0.
.......
.......
.......
.......
.......
.......
.......
.......

Generation = 18, Population = 0.
.......
.......
.......
.......
.......
.......
.......
.......

Generation = 19, Population = 0.
.......
.......
.......
.......
.......
.......
.......
.......

Generation = 20, Population = 0.
.......
.......
.......
.......
.......
.......
.......
.......

Generation = 21, Population = 0.
.......
.......
.......
.......
.......
.......
.......
.......

Generation = 22, Population = 0.
.......
.......
.......
.......
.......
.......
.......
.......

Generation = 23, Population = 0.
.......
.......
.......
.......
.......
.......
.......
.......

Generation = 24, Population = 0.
.......
.......
.......
.......
.......
.......
.......
.......

Generation = 25, Population = 0.
.......
.......
.......
.......
.......
.......
.......
.......

Generation = 26, Population = 0.
.......
.......
.......
.......
.......
.......
.......
.......

Generation = 27, Population = 0.
.......
.......
.......
.......
.......
.......
.......
.......

Generation = 28, Population = 0.
.......
.......
.......
.......
.......
.......
.......
.......

Generation = 29, Population = 0.
.......
.......
.......
.......
.......
.......
.......
.......

Generation = 30, Population = 0.
.......
.......
.......
.......
.......
.......
.......
.......

Generation = 31, Population = 0.
.......
.......
.......
.......
.......
.......
.......
.......

Generation = 32, Population = 0.
.......
.......
.......
.......
.......
.......
.......
.......

Generation = 33, Population = 0.
.......
.......
.......
.......
.......
.......
.......
.......

Generation = 34, Population = 0.
.......
.......
.......
.......
.......
.......
.......
.......

Generation = 35, Population = 0.
.......
.......
.......
.......
.......
.......
.......
.......

Generation = 36, Population = 0.
.......
.......
.......
.......
.......
.......
.......
.......

Generation = 37, Population = 0.
.......
.......
.......
.......
.......
.......
.......
.......

Generation = 38, Population = 0.
.......
.......
.......
.......
.......
.......
.......
.......

Generation = 39, Population = 0.
.......
.......
.......
.......
.......
.......
.......
.......

Generation = 40, Population = 0.
.......
.......
.......
.......
.......
.......
.......
.......

Generation = 41, Population = 0.
.......
.......
.......
.......
.......
.......
.......
.......

Generation = 42, Population = 0.
.......
.......
.......
.......
.......
.......
.......
.......

Generation = 43, Population = 0.
.......
.......
.......
.......
.......
.......
.......
.......

Generation = 44, Population = 0.
.......
.......
.......
.......
.......
.......
.......
.......

Generation = 45, Population = 0.
.......
.......
.......
.......
.......
.......
.......
.......

Generation = 46, Population = 0.
.......
.......
.......
.......
.......
.......
.......
.......

Generation = 47, Population = 0.
.......
.......
.......
.......
.......
.......
.......
.......

Generation = 48, Population = 0.
.......
.......
.......
.......
.......
.......
.......
.......

Generation = 49, Population = 0.
.......
.......
.......
.......
.......
.......
.......
.......

Generation = 50, Population = 0.
.......
.......
.......
.......
.......
.......
.......
.......

Generation = 51, Population = 0.
.......
.......
.......
.......
.......
.......
.......
.......

Generation = 52, Population = 0.
.......
.......
.......
.......
.......
.......
.......
.......

Generation = 53, Population = 0.
.......
.......
.......
.......
.......
.......
.......
.......

Generation = 54, Population = 0.
.......
.......
.......
.......
.......
.......
.......
.......

Generation = 55, Population = 0.
.......
.......
.......
.......
.......
.......
.......
.......

Generation = 56, Population = 0.
.......
.......
.......
.......
.......
.......
.......
.......

Generation = 57, Population = 0.
.......
.......
.......
.......
.......
.......
.......
.......

Generation = 58, Population = 0.
.......
.......
.......
.......
.......
.......
.......
.......

Generation = 59, Population = 0.
.......
.......
.......
.......
.......
.......
.......
.......

Generation = 60, Population = 0.
.......
.......
.......
.......
.......
.......
.......
.......

Generation = 61, Population = 0.
.......
.......
.......
.......
.......
.......
.......
.......

Generation = 62, Population = 0.
.......
.......
.......
.......
.......
.......
.......
.......

Generation = 63, Population = 0.
.......
.......
.......
.......
.......
.......
.......
.......

Generation = 64, Population = 0.
.......
.......
.......
.......
.......
.......
.......
.......

Generation = 65, Population = 0.
.......
.......
.......
.......
.......
.......
.......
.......

Generation = 66, Population = 0.
.......
.......
.......
.......
.......
.......
.......
.......

Generation = 67, Population = 0.
.......
.......
.......
.......
.......
.......
.......
.......

Generation = 68, Population = 0.
.......
.......
.......
.......
.......
.......
.......
.......

Generation = 69, Population = 0.
.......
.......
.......
.......
.......
.......
.......
.......

Generation = 70, Population = 0.
.......
.......
.......
.......
.......
.......
.......
.......

Generation = 71, Population = 0.
.......
.......
.......
.......
.......
.......
.......
.......

Generation = 72, Population = 0.
.......
.......
.......
.......
.......
.......
.......
.......

Generation = 73, Population = 0.
.......
.......
.......
.......
.......
.......
.......
.......

Generation = 74, Population = 0.
.......
.......
.......
.......
.......
.......
.......
.......

Generation = 75, Population = 0.
.......
.......
.......
.......
.......
.......
.......
.......

Generation = 76, Population = 0.
.......
.......
.......
.......
.......
.......
.......
.......

Generation = 77, Population = 0.
.......
.......
.......
.......
.......
.......
.......
.......

Generation = 78, Population = 0.
.......
.......
.......
.......
.......
.......
.......
.......

Generation = 79, Population = 0.
.......
.......
.......
.......
.......
.......
.......
.......

Generation = 80, Population = 0.
.......
.......
.......
.......
.......
.......
.......
.......

Generation = 81, Population = 0.
.......
.......
.......
.......
.......
.......
.......
.......

Generation = 82, Population = 0.
.......
.......
.......
.......
.......
.......
.......
.......

Generation = 83, Population = 0.
.......
.......
.......
.......
.......
.......
.......
.......

Generation = 84, Population = 0.
.......
.......
.......
.......
.......
.......
.......
.......

*** Life<ConwayCell> 2x10 ***

Generation = 0, Population = 9.
..*.*.**..
**.*....**

Generation = 4, Population = 4.
.......**.
.......**.

Generation = 8, Population = 4.
.......**.
.......**.

Generation = 12, Population = 4.
.......**.
.......**.

Generation = 16, Population = 4.
.......**.
.......**.

Generation = 20, Population = 4.
.......**.
.......**.

Generation = 24, Population = 4.
.......**.
.......**.

Generation = 28, Population = 4.
.......**.
.......**.

Generation = 32, Population = 4.
.......**.
.......**.

Generation = 36, Population = 4.
.......**.
.......**.

Generation = 40, Population = 4.
.......**.
.......**.

Generation = 44, Population = 4.
.......**.
.......**.

Generation = 48, Population = 4.
.......**.
.......**.

Generation = 52, Population = 4.
.......**.
.......**.

Generation = 56, Population = 4.
.......**.
.......**.

*** Life<ConwayCell> 7x2 ***

Generation = 0, Population = 6.
.*
.*
..
..
**
*.
*.

Generation = 3, Population = 4.
..
..
..
..
**
**
..

Generation = 6, Population = 4.
..
..
..
..
**
**
..

*** Life<ConwayCell> 4x10 ***

Generation = 0, Population = 16.
...**.....
**...*....
.****..***
..*.**..*.

Generation = 5, Population = 5.
..........
**........
*.*.......
.*........

Generation = 10, Population = 5.
..........
**........
*.*.......
.*........

Generation = 15, Population = 5.
..........
**........
*.*.......
.*........

Generation = 20, Population = 5.
..........
**........
*.*.......
.*........

Generation = 25, Population = 5.
..........
**........
*.*.......
.*........

Generation = 30, Population = 5.
..........
**........
*.*.......
.*........

Generation = 35, Population = 5.
..........
**........
*.*.......
.*........

Generation = 40, Population = 5.
..........
**........
*.*.......
.*........

Generation = 45, Population = 5.
..........
**........
*.*.......
.*........

Generation = 50, Population = 5.
..........
**........
*.*.......
.*........

Generation = 55, Population = 5.
..........
**........
*.*.......
.*........

Generation = 60, Population = 5.
..........
**........
*.*.......
.*........

Generation = 65, Population = 5.
..........
**........
*.*.......
.*........

*** Life<ConwayCell> 7x10 ***

Generation = 0, Population = 21.
**..*..*..
..*.......
..*....***
*.*......*
..*..*..*.
...*..*.*.
..*....*.*

Generation = 5, Population = 11.
..........
.....*....
.....*....
..........
...*......
...*.**.*.
.....****.

Generation = 10, Population = 4.
..........
..........
..........
..........
..........
....**....
....**....

Generation = 15, Population = 4.
..........
..........
..........
..........
..........
....**....
....**....

Generation = 20, Population = 4.
..........
..........
..........
..........
..........
....**....
....**....

*** Life<ConwayCell> 4x3 ***

Generation = 0, Population = 11.
.**
***
***
***

Generation = 3, Population = 0.
...
...
...
...

Generation = 6, Population = 0.
...
...
...
...

Generation = 9, Population = 0.
...
...
...
...

Generation = 12, Population = 0.
...
...
...
...

Generation = 15, Population = 0.
...
...
...
...

Generation = 18, Population = 0.
...
...
...
...

Generation = 21, Population = 0.
...
...
...
...

Generation = 24, Population = 0.
...
...
...
...

Generation = 27, Population = 0.
...
...
...
...

Generation = 30, Population = 0.
...
...
...
...

Generation = 33, Population = 0.
...
...
...
...

Generation = 36, Population = 0.
...
...
...
...

Generation = 39, Population = 0.
...
...
...
...

Generation = 42, Population = 0.
...
...
...
...

Generation = 45, Population = 0.
...
...
...
...

*** Life<ConwayCell> 2x9 ***

Generation = 0, Population = 13.
.******..
.*.******

Generation = 4, Population = 0.
.........
.........

Generation = 8, Population = 0.
.........
.........

Generation = 12, Population = 0.
.........
.........

Generation = 16, Population = 0.
.........
.........

Generation = 20, Population = 0.
.........
.........

Generation = 24, Population = 0.
.........
.........

Generation = 28, Population = 0.
.........
.........

Generation = 32, Population = 0.
.........
.........

Generation = 36, Population = 0.
.........
.........

Generation = 40, Population = 0.
.........
.........

Generation = 44, Population = 0.
.........
.........

*** Life<ConwayCell> 9x1 ***

Generation = 0, Population = 9.
*
*
*
*
*
*
*
*
*

Generation = 1, Population = 7.
.
*
*
*
*
*
*
*
.

Generation = 2, Population = 5.
.
.
*
*
*
*
*
.
.

Generation = 3, Population = 3.
.
.
.
*
*
*
.
.
.

Generation = 4, Population = 1.
.
.
.
.
*
.
.
.
.

Generation = 5, Population = 0.
.
.
.
.
.
.
.
.
.

Generation = 6, Population = 0.
.
.
.
.
.
.
.
.
.

Generation = 7, Population = 0.
.
.
.
.
.
.
.
.
.

Generation = 8, Population = 0.
.
.
.
.
.
.
.
.
.

Generation = 9, Population = 0.
.
.
.
.
.
.
.
.
.

Generation = 10, Population = 0.
.
.
.
.
.
.
.
.
.

Generation = 11, Population = 0.
.
.
.
.
.
.
.
.
.

Generation = 12, Population = 0.
.
.
.
.
.
.
.
.
.

Generation = 13, Population = 0.
.
.
.
.
.
.
.
.
.

Generation = 14, Population = 0.
.
.
.
.
.
.
.
.
.

Generation = 15, Population = 0.
.
.
.
.
.
.
.
.
.

Generation = 16, Population = 0.
.
.
.
.
.
.
.
.
.

Generation = 17, Population = 0.
.
.
.
.
.
.
.
.
.

Generation = 18, Population = 0.
.
.
.
.
.
.
.
.
.

Generation = 19, Population = 0.
.
.
.
.
.
.
.
.
.

Generation = 20, Population = 0.
.
.
.
.
.
.
.
.
.

Generation = 21, Population = 0.
.
.
.
.
.
.
.
.
.

Generation = 22, Population = 0.
.
.
.
.
.
.
.
.
.

Generation = 23, Population = 0.
.
.
.
.
.
.
.
.
.

Generation = 24, Population = 0.
.
.
.
.
.
.
.
.
.

Generation = 25, Population = 0.
.
.
.
.
.
.
.
.
.

Generation = 26, Population = 0.
.
.
.
.
.
.
.
.
.

Generation = 27, Population = 0.
.
.
.
.
.
.
.
.
.

Generation = 28, Population = 0.
.
.
.
.
.
.
.
.
.

Generation = 29, Population = 0.
.
.
.
.
.
.
.
.
.

Generation = 30, Population = 0.
.
.
.
.
.
.
.
.
.

Generation = 31, Population = 0.
.
.
.
.
.
.
.
.
.

Generation = 32, Population = 0.
.
.
.
.
.
.
.
.
.

Generation = 33, Population = 0.
.
.
.
.
.
.
.
.
.

Generation = 34, Population = 0.
.
.
.
.
.
.
.
.
.

Generation = 35, Population = 0.
.
.
.
.
.
.
.
.
.

Generation = 36, Population = 0.
.
.
.
.
.
.
.
.
.

Generation = 37, Population = 0.
.
.
.
.
.
.
.
.
.

Generation = 38, Population = 0.
.
.
.
.
.
.
.
.
.

Generation = 39, Population = 0.
.
.
.
.
.
.
.
.
.

Generation = 40, Population = 0.
.
.
.
.
.
.
.
.
.

Generation = 41, Population = 0.
.
.
.
.
.
.
.
.
.

Generation = 42, Population = 0.
.
.
.
.
.
.
.
.
.

Generation = 43, Population = 0.
.
.
.
.
.
.
.
.
.

Generation = 44, Population = 0.
.
.
.
.
.
.
.
.
.

Generation = 45, Population = 0.
.
.
.
.
.
.
.
.
.

Generation = 46, Population = 0.
.
.
.
.
.
.
.
.
.

Generation = 47, Population = 0.
.
.
.
.
.
.
.
.
.

Generation = 48, Population = 0.
.
.
.
.
.
.
.
.
.

Generation = 49, Population = 0.
.
.
.
.
.
.
.
.
.

Generation = 50, Population = 0.
.
.
.
.
.
.
.
.
.

*** Life<ConwayCell> 9x6 ***

Generation = 0, Population = 17.
**.*..
....*.
*....*
.*..*.
..**..
*.*...
...*..
*.....
*..*.*

Generation = 3, Population = 11.
......
....**
.....*
....**
..*.*.
.*.*..
.**...
......
......

Generation = 6, Population = 11.
......
......
....*.
..**..
..*..*
.*.**.
.***..
......
......

Generation = 9, Population = 16.
......
...*..
..*.*.
.*...*
**...*
**...*
**....
..***.
......

Generation = 12, Population = 17.
...*..
...**.
...**.
....**
.*****
.**..*
.**...
......
......

Generation = 15, Population = 2.
......
......
......
......
......
.*....
.*....
......
......

Generation = 18, Population = 0.
......
......
......
......
......
......
......
......
......

Generation = 21, Population = 0.
......
......
......
......
......
......
......
......
......

Generation = 24, Population = 0.
......
......
......
......
......
......
......
......
......

Generation = 27, Population = 0.
......
......
......
......
......
......
......
......
......

Generation = 30, Population = 0.
......
......
......
......
......
......
......
......
......

Generation = 33, Population = 0.
......
......
......
......
......
......
......
......
......

Generation = 36, Population = 0.
......
......
......
......
......
......
......
......
......

Generation = 39, Population = 0.
......
......
......
......
......
......
......
......
......

Generation = 42, Population = 0.
......
......
......
......
......
......
......
......
......

Generation = 45, Population = 0.
......
......
......
......
......
......
......
......
......

Generation = 48, Population = 0.
......
......
......
......
......
......
......
......
......

Generation = 51, Population = 0.
......
......
......
......
......
......
......
......
......

Generation = 54, Population = 0.
......
......
......
......
......
......
......
......
......

Generation = 57, Population = 0.
......
......
......
......
......
......
......
......
......

Generation = 60, Population = 0.
......
......
......
......
......
......
......
......
......

Generation = 63, Population = 0.
......
......
......
......
......
......
......
......
......

Generation = 66, Population = 0.
......
......
......
......
......
......
......
......
......

*** Life<ConwayCell> 3x8 ***

Generation = 0, Population = 18.
*..***.*
*******.
*..*****

Generation = 2, Population = 2.
........
**......
........

Generation = 4, Population = 0.
........
........
........

Generation = 6, Population = 0.
........
........
........

Generation = 8, Population = 0.
........
........
........

Generation = 10, Population = 0.
........
........
........

Generation = 12, Population = 0.
........
........
........

Generation = 14, Population = 0.
........
........
........

Generation = 16, Population = 0.
........
........
........

Generation = 18, Population = 0.
........
........
........

Generation = 20, Population = 0.
........
........
........

*** Life<ConwayCell> 7x5 ***

Generation = 0, Population = 3.
.*...
..*..
.....
.....
.....
.....
..*..

Generation = 9, Population = 0.
.....
.....
.....
.....
.....
.....
.....

Generation = 18, Population = 0.
.....
.....
.....
.....
.....
.....
.....

Generation = 27, Population = 0.
.....
.....
.....
.....
.....
.....
.....

Generation = 36, Population = 0.
.....
.....
.....
.....
.....
.....
.....

Generation = 45, Population = 0.
.....
.....
.....
.....
.....
.....
.....

Generation = 54, Population = 0.
.....
.....
.....
.....
.....
.....
.....

Generation = 63, Population = 0.
.....
.....
.....
.....
.....
.....
.....

