21

69 4
21
48 1
42 2
3 3
35 2
59 0
48 2
39 2
38 1
64 2
3 1
37 1
24 2
37 3
64 2
19 3
15 0
28 0
45 1
10 2
33 3
43 1
87 122

58 85
33
27 13
46 27
25 15
21 38
2 36
43 41
31 62
22 62
33 13
7 51
2 15
54 47
2 18
57 64
46 5
44 42
21 27
18 43
8 57
57 68
9 53
46 53
54 57
55 7
37 80
29 0
7 84
28 39
53 54
14 77
31 10
26 29
30 75
44 124

88 55
42
22 14
58 42
72 2
73 45
58 24
44 38
80 32
70 25
55 43
56 16
50 20
48 18
42 43
47 36
75 33
63 48
77 15
34 17
57 34
58 1
52 13
36 46
51 48
48 15
52 15
21 15
66 41
16 22
57 8
29 25
31 38
85 32
11 32
76 31
22 34
68 50
65 35
23 12
55 33
46 50
51 12
21 19
210 179

31 79
18
3 46
23 56
8 76
9 56
17 49
20 60
0 56
21 19
20 51
27 8
3 78
0 8
21 66
19 50
14 77
12 55
5 59
21 23
122 189

62 43
10
19 16
33 11
21 7
0 40
60 11
40 42
5 7
15 4
54 37
21 15
209 53

82 20
3
79 11
19 4
29 14
388 56

91 62
28
7 22
18 40
64 49
70 43
84 46
65 10
36 39
43 8
3 36
14 56
82 8
7 27
23 47
62 18
24 30
16 5
69 26
40 61
56 21
87 24
44 32
89 39
24 55
72 41
46 29
90 24
50 34
69 48
93 183

55 58
9
33 8
22 34
18 46
16 57
24 32
8 8
5 21
44 55
4 19
170 146

33 39
28
27 2
20 32
17 7
15 7
5 26
0 4
15 25
8 32
3 3
23 14
22 34
28 17
8 1
14 27
17 34
11 14
10 26
7 9
25 10
18 29
18 26
7 17
9 25
15 26
10 20
4 29
22 16
28 17
89 32

77 75
11
53 56
74 7
61 17
68 32
27 22
23 18
7 49
7 44
10 45
21 13
20 61
155 108

81 73
14
21 7
11 43
53 13
0 21
31 15
52 17
28 10
59 27
22 38
76 10
47 5
20 4
22 61
44 71
103 54

45 96
20
34 73
27 89
32 12
39 33
44 3
32 54
39 45
31 82
30 85
5 0
36 12
32 68
11 61
38 15
24 78
44 6
42 91
32 44
19 44
30 73
490 44

69 25
9
41 16
10 19
63 17
28 15
33 5
8 9
16 9
54 6
28 2
447 108

37 74
11
34 69
30 22
0 35
4 62
32 23
12 10
23 60
13 59
2 30
10 54
8 24
114 29

69 29
7
9 15
57 10
61 27
52 2
30 25
2 14
27 28
89 70

87 86
38
27 46
74 59
66 16
24 72
78 6
8 64
18 2
64 64
57 66
45 74
71 23
5 16
7 75
50 31
16 39
38 15
59 29
47 61
27 44
32 79
56 26
67 57
36 68
59 40
70 3
65 55
4 65
18 81
14 22
68 52
80 44
40 33
17 34
38 14
8 72
68 48
36 68
86 63
142 156

94 37
17
41 30
32 15
43 4
58 4
67 5
57 12
92 13
27 35
10 1
52 33
9 1
90 7
74 13
65 14
6 24
54 0
12 1
395 119

52 35
37
36 34
24 1
43 6
43 30
51 28
39 21
3 8
13 0
18 27
42 21
9 33
17 16
10 0
50 23
43 29
32 11
22 13
44 4
6 18
38 23
32 1
11 6
28 2
8 12
21 14
2 8
3 22
18 14
11 4
34 15
38 17
26 31
25 25
11 2
41 26
25 15
2 22
325 90

60 1
26
27 0
24 0
55 0
35 0
49 0
17 0
14 0
34 0
59 0
6 0
31 0
40 0
8 0
30 0
26 0
12 0
58 0
26 0
41 0
1 0
49 0
12 0
37 0
21 0
7 0
54 0
88 134

67 11
42
51 6
56 5
17 10
48 10
16 8
53 2
17 1
3 6
33 9
33 0
52 4
44 2
4 0
21 9
62 4
20 2
15 7
45 4
28 6
44 5
55 4
52 2
58 8
58 0
12 8
13 3
12 2
46 10
51 3
49 4
66 4
49 3
11 9
34 2
30 3
19 10
14 1
65 5
9 1
31 10
43 2
33 8
94 110

90 48
45
84 32
9 29
67 19
6 10
52 18
0 10
65 34
27 5
55 1
23 33
69 11
37 0
9 35
13 7
70 32
32 3
28 41
15 0
55 31
28 4
77 4
53 40
68 24
11 14
0 24
40 31
77 10
14 26
40 7
67 1
53 45
20 42
79 35
25 0
41 44
41 37
30 8
9 38
35 29
52 39
73 37
23 18
81 18
63 43
33 25
143 28
