*** Life<ConwayCell> 18x15 ***

Generation = 0, Population = 12.
...............
.....*.........
...............
....*..........
..........*....
......*........
...............
...............
..............*
...............
........*.*....
...............
............**.
.......*.......
......*........
...*...........
...............
...............

Generation = 11, Population = 0.
...............
...............
...............
...............
...............
...............
...............
...............
...............
...............
...............
...............
...............
...............
...............
...............
...............
...............

Generation = 22, Population = 0.
...............
...............
...............
...............
...............
...............
...............
...............
...............
...............
...............
...............
...............
...............
...............
...............
...............
...............

Generation = 33, Population = 0.
...............
...............
...............
...............
...............
...............
...............
...............
...............
...............
...............
...............
...............
...............
...............
...............
...............
...............

Generation = 44, Population = 0.
...............
...............
...............
...............
...............
...............
...............
...............
...............
...............
...............
...............
...............
...............
...............
...............
...............
...............

Generation = 55, Population = 0.
...............
...............
...............
...............
...............
...............
...............
...............
...............
...............
...............
...............
...............
...............
...............
...............
...............
...............

Generation = 66, Population = 0.
...............
...............
...............
...............
...............
...............
...............
...............
...............
...............
...............
...............
...............
...............
...............
...............
...............
...............

Generation = 77, Population = 0.
...............
...............
...............
...............
...............
...............
...............
...............
...............
...............
...............
...............
...............
...............
...............
...............
...............
...............

Generation = 88, Population = 0.
...............
...............
...............
...............
...............
...............
...............
...............
...............
...............
...............
...............
...............
...............
...............
...............
...............
...............

Generation = 99, Population = 0.
...............
...............
...............
...............
...............
...............
...............
...............
...............
...............
...............
...............
...............
...............
...............
...............
...............
...............

*** Life<ConwayCell> 2x13 ***

Generation = 0, Population = 15.
.*.*.*..*.***
..***.**..***

Generation = 50, Population = 8.
..**.....**..
..**.....**..

Generation = 100, Population = 8.
..**.....**..
..**.....**..

Generation = 150, Population = 8.
..**.....**..
..**.....**..

*** Life<ConwayCell> 11x16 ***

Generation = 0, Population = 26.
...*............
......*...*.....
................
...*....*..*....
*...*..........*
.......*...*....
..*..*.*........
.**....*........
.......**.......
..*.*.........**
...*....*.....*.

Generation = 19, Population = 18.
................
................
................
................
..*.............
..*.............
.**.............
................
**..***.........
*.*.*.........**
.**...........**

Generation = 38, Population = 22.
................
................
................
................
................
..**............
.**.............
*.*..*..........
**.***..........
*.*.*.........**
.***..........**

Generation = 57, Population = 16.
................
................
................
................
................
.***............
................
*....*..........
*....*..........
*....*........**
.***..........**

Generation = 76, Population = 18.
................
................
................
................
..*.............
..*.............
.**.............
................
**..***.........
*.*.*.........**
.**...........**

Generation = 95, Population = 22.
................
................
................
................
................
..**............
.**.............
*.*..*..........
**.***..........
*.*.*.........**
.***..........**

Generation = 114, Population = 16.
................
................
................
................
................
.***............
................
*....*..........
*....*..........
*....*........**
.***..........**

Generation = 133, Population = 18.
................
................
................
................
..*.............
..*.............
.**.............
................
**..***.........
*.*.*.........**
.**...........**

Generation = 152, Population = 22.
................
................
................
................
................
..**............
.**.............
*.*..*..........
**.***..........
*.*.*.........**
.***..........**

Generation = 171, Population = 16.
................
................
................
................
................
.***............
................
*....*..........
*....*..........
*....*........**
.***..........**

*** Life<ConwayCell> 9x19 ***

Generation = 0, Population = 9.
...................
*...*..*...........
................*..
.............*.....
.......*...........
......*............
...................
...................
........*....*.....

Generation = 19, Population = 0.
...................
...................
...................
...................
...................
...................
...................
...................
...................

Generation = 38, Population = 0.
...................
...................
...................
...................
...................
...................
...................
...................
...................

*** Life<ConwayCell> 14x5 ***

Generation = 0, Population = 13.
.*...
.*.*.
.....
.....
*....
*....
....*
*....
.....
*..*.
...*.
...*.
...*.
*....

Generation = 45, Population = 6.
.....
.....
.....
.....
.....
.....
.....
.....
.....
...*.
..*.*
..*.*
...*.
.....

Generation = 90, Population = 6.
.....
.....
.....
.....
.....
.....
.....
.....
.....
...*.
..*.*
..*.*
...*.
.....

Generation = 135, Population = 6.
.....
.....
.....
.....
.....
.....
.....
.....
.....
...*.
..*.*
..*.*
...*.
.....

*** Life<ConwayCell> 9x7 ***

Generation = 0, Population = 26.
.*..*..
...*.*.
.**...*
**..*.*
****..*
......*
.*.....
.**.***
.**...*

*** Life<ConwayCell> 14x18 ***

Generation = 0, Population = 26.
.*..*.*...........
.......**...*.....
....**....**.....*
...*..........*.*.
............*.....
..................
...*..............
................*.
......*.*.........
.........*..*.....
.*..........*.....
...*..............
...*..............
.......*..........

Generation = 38, Population = 9.
..................
..................
......*.....*.....
......*.....*.....
......*.....*.....
..................
........***.......
..................
..................
..................
..................
..................
..................
..................

Generation = 76, Population = 9.
..................
..................
......*.....*.....
......*.....*.....
......*.....*.....
..................
........***.......
..................
..................
..................
..................
..................
..................
..................

Generation = 114, Population = 9.
..................
..................
......*.....*.....
......*.....*.....
......*.....*.....
..................
........***.......
..................
..................
..................
..................
..................
..................
..................

Generation = 152, Population = 9.
..................
..................
......*.....*.....
......*.....*.....
......*.....*.....
..................
........***.......
..................
..................
..................
..................
..................
..................
..................

*** Life<ConwayCell> 2x14 ***

Generation = 0, Population = 10.
**........*..*
..****....*..*

Generation = 1, Population = 8.
.****.........
.****.........

*** Life<ConwayCell> 13x15 ***

Generation = 0, Population = 4.
*..............
...............
......*..*.....
...............
...............
...............
...............
...............
..*............
...............
...............
...............
...............

Generation = 47, Population = 0.
...............
...............
...............
...............
...............
...............
...............
...............
...............
...............
...............
...............
...............

*** Life<ConwayCell> 10x12 ***

Generation = 0, Population = 20.
...........*
...*....*..*
....*.*..*.*
............
.*........*.
**.......*..
**..........
...**.......
*...........
.......*.*..

Generation = 35, Population = 4.
............
............
............
............
............
..**........
..**........
............
............
............

*** Life<ConwayCell> 20x18 ***

Generation = 0, Population = 20.
..................
....*.............
...........*.....*
..*...........*...
.....*.*..........
..................
...........*......
......*.........*.
..................
........*.........
...............*..
......*.*.........
.*................
..............*...
.......*..........
..................
..............*...
.......*..........
................*.
..................

Generation = 19, Population = 0.
..................
..................
..................
..................
..................
..................
..................
..................
..................
..................
..................
..................
..................
..................
..................
..................
..................
..................
..................
..................

Generation = 38, Population = 0.
..................
..................
..................
..................
..................
..................
..................
..................
..................
..................
..................
..................
..................
..................
..................
..................
..................
..................
..................
..................

Generation = 57, Population = 0.
..................
..................
..................
..................
..................
..................
..................
..................
..................
..................
..................
..................
..................
..................
..................
..................
..................
..................
..................
..................

Generation = 76, Population = 0.
..................
..................
..................
..................
..................
..................
..................
..................
..................
..................
..................
..................
..................
..................
..................
..................
..................
..................
..................
..................

Generation = 95, Population = 0.
..................
..................
..................
..................
..................
..................
..................
..................
..................
..................
..................
..................
..................
..................
..................
..................
..................
..................
..................
..................

Generation = 114, Population = 0.
..................
..................
..................
..................
..................
..................
..................
..................
..................
..................
..................
..................
..................
..................
..................
..................
..................
..................
..................
..................

Generation = 133, Population = 0.
..................
..................
..................
..................
..................
..................
..................
..................
..................
..................
..................
..................
..................
..................
..................
..................
..................
..................
..................
..................

Generation = 152, Population = 0.
..................
..................
..................
..................
..................
..................
..................
..................
..................
..................
..................
..................
..................
..................
..................
..................
..................
..................
..................
..................

Generation = 171, Population = 0.
..................
..................
..................
..................
..................
..................
..................
..................
..................
..................
..................
..................
..................
..................
..................
..................
..................
..................
..................
..................

*** Life<ConwayCell> 7x16 ***

Generation = 0, Population = 24.
.....*.*.*..*...
..*..**....*.*..
....*...**......
..........*..*..
..........**....
....*........*.*
.**..*........**

Generation = 20, Population = 7.
................
..........***...
..........*..*..
.............*..
............*...
................
................

Generation = 40, Population = 17.
........**...**.
.......*.*..*..*
......**.....*.*
.......*.*....*.
........**......
................
................

Generation = 60, Population = 32.
.............**.
.*...**.....*..*
.....**......*.*
*....*..**....*.
..*.***...**....
.**.*...*..*....
..*..*...***....

Generation = 80, Population = 4.
................
..............**
..............**
................
................
................
................

Generation = 100, Population = 4.
................
..............**
..............**
................
................
................
................

Generation = 120, Population = 4.
................
..............**
..............**
................
................
................
................

Generation = 140, Population = 4.
................
..............**
..............**
................
................
................
................

Generation = 160, Population = 4.
................
..............**
..............**
................
................
................
................

Generation = 180, Population = 4.
................
..............**
..............**
................
................
................
................

*** Life<ConwayCell> 5x14 ***

Generation = 0, Population = 13.
.*..**..**....
.......*......
...*......*...
*.............
**.......*.*..

Generation = 37, Population = 4.
..............
..............
..............
**............
**............

*** Life<ConwayCell> 10x7 ***

Generation = 0, Population = 19.
*.*..*.
**.....
*....**
.*.*...
*.*....
.....*.
....*.*
....*..
**.....
.*.....

*** Life<ConwayCell> 6x17 ***

Generation = 0, Population = 2.
.........*.......
*................
.................
.................
.................
.................

Generation = 22, Population = 0.
.................
.................
.................
.................
.................
.................

Generation = 44, Population = 0.
.................
.................
.................
.................
.................
.................

Generation = 66, Population = 0.
.................
.................
.................
.................
.................
.................

Generation = 88, Population = 0.
.................
.................
.................
.................
.................
.................

Generation = 110, Population = 0.
.................
.................
.................
.................
.................
.................

Generation = 132, Population = 0.
.................
.................
.................
.................
.................
.................

Generation = 154, Population = 0.
.................
.................
.................
.................
.................
.................

*** Life<ConwayCell> 19x12 ***

Generation = 0, Population = 27.
....*.*.....
...........*
*.*.........
..........*.
.*......*..*
.....*....**
......*.*..*
**...*......
........**..
............
*...........
............
..*.........
............
........*...
............
.........*..
...*........
..*....*....

Generation = 39, Population = 39.
.*.*........
*..*....**..
*......*..*.
**....**...*
......*.***.
.....**..*..
............
.....*.*....
.......*....
....*.......
....**......
......*.....
.......*.*..
...***..*...
...*........
...*..*.....
....**......
............
............

Generation = 78, Population = 30.
............
............
............
............
............
............
........**..
......*.*...
............
.....*......
......**....
......**.**.
............
.****.**....
**..***.*...
**..*..**...
.*.....*....
............
............

Generation = 117, Population = 12.
............
............
............
............
............
......**....
......**....
............
............
............
....**......
....**......
............
............
............
............
........**..
........**..
............

*** Life<ConwayCell> 3x3 ***

Generation = 0, Population = 8.
**.
***
***

Generation = 43, Population = 0.
...
...
...

Generation = 86, Population = 0.
...
...
...

*** Life<ConwayCell> 5x8 ***

Generation = 0, Population = 1.
...*....
........
........
........
........

Generation = 39, Population = 0.
........
........
........
........
........

Generation = 78, Population = 0.
........
........
........
........
........

*** Life<ConwayCell> 6x20 ***

Generation = 0, Population = 13.
..*....*............
..*...........*.....
...*..............*.
....................
........*.....**....
..*.....*.**........

Generation = 28, Population = 0.
....................
....................
....................
....................
....................
....................

Generation = 56, Population = 0.
....................
....................
....................
....................
....................
....................

Generation = 84, Population = 0.
....................
....................
....................
....................
....................
....................

Generation = 112, Population = 0.
....................
....................
....................
....................
....................
....................

Generation = 140, Population = 0.
....................
....................
....................
....................
....................
....................

*** Life<ConwayCell> 18x4 ***

Generation = 0, Population = 19.
....
*.**
....
....
**..
.*..
**..
.*..
....
.*.*
....
**..
...*
*...
....
**.*
.*..
....

Generation = 13, Population = 0.
....
....
....
....
....
....
....
....
....
....
....
....
....
....
....
....
....
....

Generation = 26, Population = 0.
....
....
....
....
....
....
....
....
....
....
....
....
....
....
....
....
....
....

Generation = 39, Population = 0.
....
....
....
....
....
....
....
....
....
....
....
....
....
....
....
....
....
....

Generation = 52, Population = 0.
....
....
....
....
....
....
....
....
....
....
....
....
....
....
....
....
....
....

Generation = 65, Population = 0.
....
....
....
....
....
....
....
....
....
....
....
....
....
....
....
....
....
....

Generation = 78, Population = 0.
....
....
....
....
....
....
....
....
....
....
....
....
....
....
....
....
....
....

Generation = 91, Population = 0.
....
....
....
....
....
....
....
....
....
....
....
....
....
....
....
....
....
....

Generation = 104, Population = 0.
....
....
....
....
....
....
....
....
....
....
....
....
....
....
....
....
....
....

Generation = 117, Population = 0.
....
....
....
....
....
....
....
....
....
....
....
....
....
....
....
....
....
....

Generation = 130, Population = 0.
....
....
....
....
....
....
....
....
....
....
....
....
....
....
....
....
....
....

Generation = 143, Population = 0.
....
....
....
....
....
....
....
....
....
....
....
....
....
....
....
....
....
....

Generation = 156, Population = 0.
....
....
....
....
....
....
....
....
....
....
....
....
....
....
....
....
....
....

Generation = 169, Population = 0.
....
....
....
....
....
....
....
....
....
....
....
....
....
....
....
....
....
....

*** Life<ConwayCell> 12x5 ***

Generation = 0, Population = 15.
..*..
...**
.*..*
...*.
.....
*...*
.*...
..*..
**...
..*..
.*...
*....

Generation = 37, Population = 12.
.**..
*..*.
*....
.*.*.
..*..
.....
.....
...**
...**
.....
.....
.....

Generation = 74, Population = 7.
.....
.....
.....
.....
.....
**...
*....
*.*..
.**..
.....
.....
.....

Generation = 111, Population = 7.
.....
.....
.....
.....
.....
**...
*....
*.*..
.**..
.....
.....
.....

Generation = 148, Population = 7.
.....
.....
.....
.....
.....
**...
*....
*.*..
.**..
.....
.....
.....

*** Life<ConwayCell> 17x9 ***

Generation = 0, Population = 13.
.........
..*.*....
.........
........*
*....*...
.........
.........
........*
......*..
......*.*
.........
....*....
......*..
....*....
.........
.........
*........

*** Life<ConwayCell> 15x14 ***

Generation = 0, Population = 5.
..............
..............
..............
..............
..............
..............
..............
...*..........
........*...*.
..............
.............*
..............
..............
.......*......
..............

Generation = 11, Population = 0.
..............
..............
..............
..............
..............
..............
..............
..............
..............
..............
..............
..............
..............
..............
..............

Generation = 22, Population = 0.
..............
..............
..............
..............
..............
..............
..............
..............
..............
..............
..............
..............
..............
..............
..............

Generation = 33, Population = 0.
..............
..............
..............
..............
..............
..............
..............
..............
..............
..............
..............
..............
..............
..............
..............

Generation = 44, Population = 0.
..............
..............
..............
..............
..............
..............
..............
..............
..............
..............
..............
..............
..............
..............
..............

*** Life<ConwayCell> 18x6 ***

Generation = 0, Population = 10.
...*..
......
*..*..
...*..
....*.
.....*
......
......
......
......
...*.*
......
......
....**
......
......
......
......

Generation = 10, Population = 4.
......
......
......
...**.
...**.
......
......
......
......
......
......
......
......
......
......
......
......
......

Generation = 20, Population = 4.
......
......
......
...**.
...**.
......
......
......
......
......
......
......
......
......
......
......
......
......

Generation = 30, Population = 4.
......
......
......
...**.
...**.
......
......
......
......
......
......
......
......
......
......
......
......
......

Generation = 40, Population = 4.
......
......
......
...**.
...**.
......
......
......
......
......
......
......
......
......
......
......
......
......

Generation = 50, Population = 4.
......
......
......
...**.
...**.
......
......
......
......
......
......
......
......
......
......
......
......
......

Generation = 60, Population = 4.
......
......
......
...**.
...**.
......
......
......
......
......
......
......
......
......
......
......
......
......

Generation = 70, Population = 4.
......
......
......
...**.
...**.
......
......
......
......
......
......
......
......
......
......
......
......
......

*** Life<ConwayCell> 10x20 ***

Generation = 0, Population = 17.
.*..................
...........*..*.....
....................
...............*....
..............*.....
....................
.........*.......*..
*.....*......*......
................**..
..*.........*..*.**.

Generation = 35, Population = 0.
....................
....................
....................
....................
....................
....................
....................
....................
....................
....................

Generation = 70, Population = 0.
....................
....................
....................
....................
....................
....................
....................
....................
....................
....................

Generation = 105, Population = 0.
....................
....................
....................
....................
....................
....................
....................
....................
....................
....................

Generation = 140, Population = 0.
....................
....................
....................
....................
....................
....................
....................
....................
....................
....................

*** Life<ConwayCell> 5x2 ***

Generation = 0, Population = 10.
**
**
**
**
**

Generation = 32, Population = 0.
..
..
..
..
..

Generation = 64, Population = 0.
..
..
..
..
..

Generation = 96, Population = 0.
..
..
..
..
..

Generation = 128, Population = 0.
..
..
..
..
..

Generation = 160, Population = 0.
..
..
..
..
..

*** Life<ConwayCell> 8x18 ***

Generation = 0, Population = 9.
*...*........*....
..................
..............*...
.....*............
..................
.....*..*.........
..*...............
..............*...

Generation = 13, Population = 0.
..................
..................
..................
..................
..................
..................
..................
..................

Generation = 26, Population = 0.
..................
..................
..................
..................
..................
..................
..................
..................

Generation = 39, Population = 0.
..................
..................
..................
..................
..................
..................
..................
..................

Generation = 52, Population = 0.
..................
..................
..................
..................
..................
..................
..................
..................

Generation = 65, Population = 0.
..................
..................
..................
..................
..................
..................
..................
..................

Generation = 78, Population = 0.
..................
..................
..................
..................
..................
..................
..................
..................

Generation = 91, Population = 0.
..................
..................
..................
..................
..................
..................
..................
..................

Generation = 104, Population = 0.
..................
..................
..................
..................
..................
..................
..................
..................

Generation = 117, Population = 0.
..................
..................
..................
..................
..................
..................
..................
..................

Generation = 130, Population = 0.
..................
..................
..................
..................
..................
..................
..................
..................

Generation = 143, Population = 0.
..................
..................
..................
..................
..................
..................
..................
..................

Generation = 156, Population = 0.
..................
..................
..................
..................
..................
..................
..................
..................

Generation = 169, Population = 0.
..................
..................
..................
..................
..................
..................
..................
..................

*** Life<ConwayCell> 12x4 ***

Generation = 0, Population = 19.
....
**..
...*
*..*
*..*
*...
...*
..*.
.***
.*..
.***
..**

Generation = 10, Population = 0.
....
....
....
....
....
....
....
....
....
....
....
....

Generation = 20, Population = 0.
....
....
....
....
....
....
....
....
....
....
....
....

Generation = 30, Population = 0.
....
....
....
....
....
....
....
....
....
....
....
....

Generation = 40, Population = 0.
....
....
....
....
....
....
....
....
....
....
....
....

Generation = 50, Population = 0.
....
....
....
....
....
....
....
....
....
....
....
....

Generation = 60, Population = 0.
....
....
....
....
....
....
....
....
....
....
....
....
