*** Life<FredkinCell> 13x20 ***

Generation = 0, Population = 6.
--------------------
-----------------0--
--------------------
--------------------
--------------------
--------------------
------0------------0
--------------------
--------------------
----0---------------
--------------------
----------0---------
-------------0------

Generation = 2, Population = 22.
--------------------
---------------0---0
--------------------
-----------------0--
------0------------0
--------------------
----0---0--------0-0
----0---------------
------0------------0
--0---0---0---------
-------------0------
----0---0---0-------
-----------0-0-0----

Generation = 4, Population = 23.
--------------------
-------------0---0-0
------0------------1
--------------------
--------------------
----1------------1--
--0-------0----0-0--
----------0---------
-------------0------
0-------0-----------
------1------0-----0
------0---0---0-----
---------0-------0--

Generation = 6, Population = 62.
------0------------1
-----------0-----0--
----0---0--------1-3
----0--------0-----1
--0---0---0----0-1-0
--1---0---1----1---0
0---2---0---0--0-2-0
0---1-------0----1--
--0---1---10-0---0-0
0-0-------0---0-----
----0---10-0-0-0---0
0---0---0-------0---
------10-0-0-0-0-0--

Generation = 8, Population = 20.
------0------------1
----1----0-----0----
--------------------
----------1---------
-------------1------
-----------------2--
2----------1--1-----
----------2---------
--------------------
--2-1-------0----1--
--------------------
--0---------------0-
-----13-------------

Generation = 10, Population = 56.
----1-0-0--------0--
--0---10--10-0---1--
------0------0-----4
----1---01--0--0-0--
0-------------11----
---------------1---0
2-0------0--2---0---
--0-2---0-----------
0----------1--0-----
0---1-1-------00--10
-----02-------------
0-0---------0---01--
---013520-----------

Generation = 12, Population = 67.
--1-------1--1-0-2--
0---21--01-2-2-0-3-2
0-----2----1--1----4
------1---2---0-----
------1--1-------2-1
--3------1--10-3-2-0
--2-4--0--2----1--0-
--2---0---2---1---0-
-----02------1------
------3------1--12-2
0----22----0--1-----
0-0---1---0---0-----
-00------10---------

Generation = 14, Population = 104.
--1-2-1-1-1-1-02----
2--1--2--3----1-----
2---2-4-1-0-1--003--
1-0--1--1--00---0---
0-2---3-1-1---3--403
0-5-2--1--2--20---1-
2-2-4-0-1---3---1--1
1-4---2--1--1--00---
1-20-24-0-2---1---1-
2---1---0--1--0--4--
21-024411-0-1---1---
--2---3------1---2-0
-2021362230-0-1-----

Generation = 16, Population = 21.
-------------2------
-1--4--2------------
-------------2------
----------3---------
------3------------5
----4---------------
---0-0--1---------1-
--------------------
------4------------1
----------2------4--
--------------------
----1---------1-----
-4---------0--------

Generation = 18, Population = 64.
-----------0---3----
--12-33--32---------
------5----2-2-1---5
-0-----01---0-------
---011-------1---525
--5---2---3---------
-0-0-021--3-----2---
----2-----3------1--
---104-----------221
----2---0---0-11---3
-2----5----0-------0
--3---3---1-0---12--
-4-2-----3-0-0------

Generation = 20, Population = 76.
------3--1---2---3-1
3--4-5-32--4--------
---1-0--31---2---41-
------1-------1-----
--2---3---3--1-2-7-7
00--5--10-5------4--
-0--6--3-1--401---1-
----4-----5---1-----
-03---5---31---1-2-1
----4-4------23----3
-2-1-5--2--0------1-
1---1---1-1---1---1-
-4---382-------0---0

Generation = 22, Population = 123.
---12030---------301
3236---5--4--32-----
-013-26--3-----12--6
-0-1-1--3-410---10--
10-223-03--1-15--9--
2--1713-23--3--5---2
-231-245-1426013----
105----1--7--03-03-1
2---06-11--3-331----
2-3-4-6----11--22525
-20---6--2-0-1--11--
1---1-5-3-1--21----0
---2158--3-0-0-0--0-

Generation = 24, Population = 58.
---1--3-2---------0-
--5-46---44-1--1-5--
-----28-------------
--2-2-----6---2---1-
10------------7-----
-15-9--1----5-------
3--1------6---3-2---
----6---------5-----
2----------5--5-----
-15-6--0-13----2-72-
------6------3-----1
--4---5---1-1-----2-
------8-23--------0-

Generation = 26, Population = 121.
-0-12-3---2-----0-0-
4--8--4-2--415-1-503
21--3-+1------3---3-
202-2131436----2-1--
--3--44---5-1-9-----
4--3924--3----0---2-
3-4--2--1--3--5-2-1-
--5---2--19----2241-
--52--6--13-1-7----2
3--0-1-00352-4423946
2---4-8--3----31-231
114-2--1-0--1-20244-
----2-+3-510-1--0-21

Generation = 28, Population = 111.
001-4051--2-2-----2-
-------7--56--4117--
412---+-44----3-2-5-
----2---4-6---4-----
2053466-5-72--+-----
---5--42---16---1-4-
--6-6466--6-827---12
2---6-4-0-9-3-6---1-
325-1-81235---92----
--627--20---3-----6-
2-11--8-3-----531-3-
1---2-6-3---1-2-4---
1-2-45+---121-----23

Generation = 30, Population = 94.
----6-5-3-----------
----67----5----13914
--4---+---1---------
--21--3-4---1-43212-
4---6---7---1------7
62--+-6-2-7-63--1---
5-6---6---8---7--4-4
4-5---4-2--0--6-3---
3---1---23-61--4-2-3
428-7----37---4---8-
--1---+2-401-4-3-3-2
1-50---2--------6---
----45+446-2-2-0-1--

Generation = 32, Population = 22.
--------------------
-------8-----6---9--
------+------------7
--------------------
--------------------
----+------------5--
--8------2-3----4---
----------9---------
-------------4------
----9---------4-----
------+------4-----2
1---------2---------
---3-------------1--

Generation = 34, Population = 67.
------5------------2
-----8---5-7-------6
----4---4--------6-7
----3--2-----0------
--5---6--2-2----0--7
--7---7---8----6---2
5---7--6-2-3--8---2-
--------3---4-7--4--
--5---8--3---4-40--3
4-8---8-----3---3---
---16---3--2-4-3---2
1-5-3---4---2-3-----
-4-3-5+------2-0-1--

Generation = 36, Population = 56.
------5------------4
---96--8-5-7-----+-6
---------523---246--
----------7---------
-------------3------
8---+--23-----0--5-4
5----566----9--3----
5-----6---9---9-----
---3-----3----------
4---+---2-7------+8-
---3------22---313--
1-5-5-7-------3-----
------+6-----2------

Generation = 38, Population = 119.
----8-5-3231---30---
-36---48--79-6-3-+--
------+255-33244-66-
2--2-----3-22-5-----
6----672-28-2--20+--
-----28--48-7-0625--
5-8-77-61-+---+--5--
7-6-6--1--9---9-3-21
32-3--+---6-2---03--
4-9-+---2---3--44--8
-3-3-5+25---2455-342
1---5-9---3-2---765-
---367+8572--2--11--

*** Life<FredkinCell> 16x4 ***

Generation = 0, Population = 6.
----
-0--
----
---0
----
----
----
---0
----
0---
-0--
----
----
----
----
--0-

Generation = 2, Population = 14.
----
----
----
---0
----
----
----
00-0
-0--
0-00
---0
0---
-0--
--0-
----
0-0-

Generation = 4, Population = 18.
----
---0
----
-0-0
----
00--
-1--
-0-0
----
--2-
-0-2
--01
----
0-0-
-0--
0-0-

Generation = 6, Population = 22.
----
----
----
1--0
-0--
2-10
---1
2-0-
---1
002-
-0--
-0-1
---1
0-01
---0
--0-

Generation = 8, Population = 14.
----
0--0
-0--
-0--
----
-1--
----
-101
----
22--
---4
---3
----
----
-0--
---0

Generation = 10, Population = 22.
-0--
0-10
---1
22--
-0--
--3-
----
-3--
---2
44-1
-1-6
0--5
-0-2
----
---2
-1--

Generation = 12, Population = 20.
-0--
0-30
-2-3
--1-
----
----
-2-2
331-
----
--31
----
--2-
----
01-2
----
-1-1

Generation = 14, Population = 16.
----
-0-0
----
--10
----
22--
-4--
----
-2-4
---3
----
-22-
----
2--2
----
11--

*** Life<FredkinCell> 7x8 ***

Generation = 0, Population = 11.
0--0----
-------0
0-------
-000----
--------
--0--00-
-0------

Generation = 4, Population = 28.
2-3-0--1
--03--00
11330---
04---022
23-1----
00---12-
02---0--

Generation = 8, Population = 17.
---3-40-
-1------
------2-
---52-26
--------
22211-6-
-----4-0

Generation = 12, Population = 33.
-35-----
0213043-
--65---1
3-19-13+
---2--03
4231-371
-3-2-512

Generation = 16, Population = 17.
235--6--
-----4-1
3-+-----
3+-+52--
--------
8--3---3
---3----

Generation = 20, Population = 28.
----3+15
38-----2
-5-7435-
4-2-53--
5724-3--
9-4-5--3
1-2----3

Generation = 24, Population = 18.
-6-45+-5
---6----
----6---
-+4-6-6+
--------
-6-6-59-
---7-7--

Generation = 28, Population = 21.
3--66---
-8---648
67--+--5
-+8+----
-8--3--7
-65-----
-6--3---

Generation = 32, Population = 18.
--9-8--8
---+-+--
--+-+---
7+---49+
--------
+89----7
-7---9--

*** Life<FredkinCell> 12x7 ***

Generation = 0, Population = 4.
-------
-------
-------
-------
-----0-
-------
-------
-------
-------
-------
----0-0
---0---

Generation = 5, Population = 23.
----0-0
-----0-
-------
-0---0-
0-0-0-0
-0--000
-------
--0--00
----0-0
0---00-
-------
0-0----

Generation = 10, Population = 19.
----000
---0---
--002--
-0-0-1-
-----0-
-0-0-0-
--1-1--
---1---
----2-1
-------
-------
-------

Generation = 15, Population = 24.
1---3--
-2-2010
----3-3
-0--020
0-0----
-0-1---
--2-3--
---2-3-
----3-2
-----3-
-------
-------

Generation = 20, Population = 17.
1-0--0-
---3---
----4-4
-------
002--0-
---3---
-----0-
---2---
----403
-------
-0-----
-------

Generation = 25, Population = 14.
-------
----0-0
-------
--0---0
-------
--0--20
----8-4
-----4-
-------
--0---0
-------
--0-0--

Generation = 30, Population = 28.
1----06
-3---5-
--505--
-------
-04-5--
-3---5-
3---9--
---2---
001-7-7
---1---
0--0--3
-0-1-1-

Generation = 35, Population = 30.
--0---7
---30-0
----7-5
----050
-------
0-0-0-0
-------
0-0-050
----8-7
---3040
--0-4--
---20-0

Generation = 40, Population = 11.
----5-+
---6---
----+06
-------
-------
-------
-------
-------
----+08
---6---
-------
---4---

Generation = 45, Population = 31.
----6-+
-40-0--
3-9-+-8
010----
----8-6
----0-0
----+-8
01--0--
2-6-+-+
02---70
-------
--0-0--

Generation = 50, Population = 28.
--20-0+
-6-8-9-
-------
-1-5-6-
--60--9
-------
--5---9
-3-7-7-
---0-0-
-4-8-8-
--3090-
---4---

Generation = 55, Population = 29.
4-----+
-8--0-0
--9---8
---8070
-------
---7050
--5---+
-5--0-0
2-----+
-----8-
3---+--
-2-50-0

*** Life<FredkinCell> 9x4 ***

Generation = 0, Population = 16.
00-0
0-00
-0--
-000
---0
-00-
----
--0-
0-0-

Generation = 3, Population = 20.
03-3
1-1-
13-1
000-
0003
-3--
---1
2---
1-1-

Generation = 6, Population = 21.
-633
21--
4401
3-0-
1-34
-621
0--1
--4-
4---

Generation = 9, Population = 24.
0-34
22--
7--2
40-3
2045
-932
-1-2
545-
50--

Generation = 12, Population = 17.
184-
---0
----
5--4
3-76
-+--
-21-
5560
---1

*** Life<FredkinCell> 19x17 ***

Generation = 0, Population = 24.
----------------0
---0-------------
-----------------
-----------------
--------0--------
0---0------------
-----------------
---00--0---------
0----------------
0-----------0----
----------00-----
----0------------
-----------------
-----------------
--0-----0----0---
---------0-00--0-
---0-------------
-----------------
-----0----------0

Generation = 4, Population = 82.
--------0---0-0--
1--01--0---------
----------------0
---22--0---------
0---0-------0---0
--132---0---0----
----------00-----
1--12--10--0-----
--0-1---0--------
2-0-----0-------0
--0---102----200-
2--10--101-02--0-
1--1-------------
1-----------2----
0---000--1030---1
----10-01--2-0--1
-----0-0--------0
-----------------
-000----11--110--

Generation = 8, Population = 68.
1-------0-0------
---43------00----
--------2-00-----
----3------------
2---------------0
--33--0-0---2----
--3-----0----2--2
--25-----0-------
---0--0-2-------1
---21-1-0-----1--
--40-1---------0-
--1---------6----
-----0--3-------2
1---1------------
2--322----0--2--2
-1-------2--4-2--
0-21----2--3-1---
0-----------1----
-1------3--1-3---

Generation = 12, Population = 159.
1-2---3-0-003-1-0
2-1-7-3-0--0---11
1-1-1-21--1-20010
3-04----31-------
4-110-3---2-1-0-0
2-3-6--1--11--0-1
3-41011-4230--31-
3-4-3022----42---
3-1-30-04-2---4--
---6--30--------1
-14132334323---0-
5321--0-3---6-2-1
432-0-3--3-2-32-3
--32--0-----6-1--
3--44432---622-5-
-21-----3-4-41---
424--21--0-401-21
--3-----2---1---2
-31----145333--11

Generation = 16, Population = 71.
3--1----2----0---
-----------1---1-
-----2----------0
----4------------
-----05----5----2
2---------3-2---3
3--2-------------
---65----3126-0--
--3-----6----14-2
2-1-4-4-------1-1
---24--5---------
----2-----1---6--
----------23-----
4--2--------8----
30---47---2-4----
--13640--2-------
-----------6---62
4--01------------
2-1-----66---4---

Generation = 20, Population = 133.
--6---60-2-54----
3------2--3-1--24
-1------51--422--
3--55---52263-2--
52-4---4-14-2--03
4-------4--43-00-
--54-2----------3
4----33------4-1-
5---51---1----6--
---+6-4-4-2-1-3--
31---465+-342----
6-3--0--5--36---5
--4---645--5-4---
---43-411-----3--
3-35-485--2--22-4
-43-880263---23--
8-8----2512-123--
6-6----25---2----
-42------+45-4-32

Generation = 24, Population = 152.
--6--1+----6--2--
--458-34--442-23-
-3-153626-24-2--1
--3-------6-4-4--
73-6-3--3--5-4205
6-796-2---564-208
-2---4----5213---
-577-5---6-4--222
---2624----31--4-
--2+-------1--53-
3--4-5--+4-667-15
----7-3---------7
7--6-28-75-7-4-5-
------8-3-549-5-2
-25554+-23-+-2-7-
4--6++2------4---
+888-553---624476
----3---5--2--1-4
68-6-1148--7-5--3

Generation = 28, Population = 166.
-6+-1----45---4-3
5-47---4------2-6
63-373--8--47265-
6346-2--7487---22
---+45----872--45
------41--68-----
84--06--727-2-4-5
6-7-9----6-4-5---
8-7---6---74--+--
--6+8-8-7-43---54
-5-6857--6468+135
-5--7-5-534482-49
8-7-26-6--585-4-6
---4--+2--------2
-35-6--9245+-3-9-
86----329-7-----8
+8-9567454--4-676
7-----236---3-314
8--683-69+596--55

Generation = 32, Population = 78.
6-----------5-8--
----+--5----5----
--------+-55-----
----7------------
----4-------4----
8-8+7---4--------
--6-----9----5--7
7--9---448--9--4-
--738-----------5
--6+9---7-------5
-----686------137
7-------9--------
-----8--8-------6
+---5------------
3--76-+--6--+----
---9++--+3--+4-7+
+-+----45----6---
7-----------3----
-+-------+798-1--

Generation = 36, Population = 133.
--+--------87----
--6----62--57---+
+-4-9-86+----2-63
---9---1-5--9--3-
--3+4-------4-4--
---+--5---------9
+---39-2+476---57
8-+++6-6----+5-48
----+587------+-9
--8++-83------+--
48--9-8-+----+33-
8-5-71-3----93--+
87-7---899---65-7
---6--------+---5
54--8-+--8-++5-9-
-9--++-2+--8-469+
++++-88-5-4---7-9
--+-----+---5---6
-+588----+8-+-25-

Generation = 40, Population = 141.
---3--------72+--
9-7-+-------7-58+
+-59+3+6----8-8-3
7-5-9---9---+----
--5-66----++8-6-6
--8+8-647-88----+
+--8-+5-+4---67-8
97---8+6-+--+79--
---4+--9---8-3+--
--++---37--56---8
4-----++-+68-+-7-
9---7-9-+-------+
8---3---9+-+-67-7
---87-+----------
-489+-++3--++---5
--5+----+-+-+48--
--+-58--684-69-+-
+-+34-3-------7-8
-+7++5-8++--+---8

Generation = 44, Population = 139.
7--3--+-39-9-----
+-99+--64--------
+5-++3-++--7--+-5
+55--3-4-6---17-2
-+--8----3++---6-
+-8----6--8---5--
-79+6--4-5882--7-
--+++-+-8--8+8--+
--96-8-----943-5+
7-+++-+7--6---+7-
5++7--+---68+----
-758-4+5-7----+--
+--+-------+77--+
--6-9-+---86+-+--
8-------3---+8+--
------44-3+-+-+-+
+-++7--6-------++
+-+-5-34+---6----
-+--+6----+---58-

Generation = 48, Population = 172.
+--5---53+--73+-8
--+-+-+8--957-9--
-5-++3++-3-8+-+-6
+-------+-+---8--
-+6--7-5-3-+9-787
+-++9-9-8--+---7+
-99+6+88+-9-37---
+-+++----+5--++8-
---++-+-+2++-4+6-
9--+--+-+--78-+79
--++-+-+-+-9-+--9
+---9-+-+-7---+-+
+-+--+-+9+-+-8+++
--6+---45-+-+----
8--++++-388+--++-
-+-----4+5-++5+--
+++--++78-58-+--+
+--7--56+---8-7-+
+-9++82+-+++++---

Generation = 52, Population = 173.
----34+75+8+-3+6-
+-+-----7-+79---+
-6-++5+---78+3-86
+--++-7--9--+3-53
---+8---75-+-+999
+-++9-+9---+--59+
-+-+-++9--++-9--+
--+--++9++7+-++8-
-++-+++--4-+--+-+
+---+-+9+-8-+-+++
--++-+++-+-------
-88+9-++--76+--8+
----5-+--+9--+-+-
+--++---7---+-+3+
-7--++--59++-9+--
++-+--54-6-++9+++
+---7++7+--87-9-+
+-+8--98+-+6----+
--+--8-+-+++-----

Generation = 56, Population = 170.
+-+67--9-++--4--9
+-+9+-+---+-9-9-+
+6+++5+-+37++-++-
+-9-+-9-+---+---5
++6-++-6-7-+--++-
--++---99--++--++
-+-+++++-9---+--+
---+++---+8++-+-+
--++---+-5++74-9-
+-++---++--9+--+-
7++-++--+-++-+9-+
+-------+--------
-+---+++--9+++++-
+--++--5--+-+----
+--++--+5--++9++7
--8---55+8++-++++
++++8++--+---++--
+-++7-98----9-8--
---+-+8---+++-+++

*** Life<FredkinCell> 16x20 ***

Generation = 0, Population = 28.
--------------------
0-------------------
----------0---0-----
----------------0---
--------------------
-----0------0-------
0-----------0-------
-0------------------
---0-------0--------
-------0------0-----
---0-----0----0---0-
-----------0------0-
-----0--------------
----0------------0--
--------------------
---0--------00--00-0

Generation = 2, Population = 86.
----------0---0-----
0-0-------------0---
--------0-------1---
0----0------0-1---0-
0---------0-1-0-----
-0-0---0--0---0-0---
0-00------01--0-----
---1-0-0----1-0-----
01-0-0------101---0-
-0---0---1-10---0-1-
-0-0---1----0-------
----0--0-1---01-01--
-------0-0----0---1-
--01--0----000-0101-
-----0--------------
-0-010----0122--2200

Generation = 4, Population = 93.
----------0---0-----
0-0-00------0-------
0-----0---0-1-1---1-
-1----------2-------
---1-------0--------
10-----011----0-0---
--221---010-----1-0-
-1---2-----0----0-1-
-----0---------1----
---012----032----03-
1----1-3--0-202-----
-1-0---0----02102310
-0-1-----2-1--------
0--3---00---0-1-10--
---0-----0----0---0-
----1--001-124-14202

Generation = 6, Population = 151.
1-----0-0---1---0-0-
-0-02-00--0-2-0-----
2-101------0--------
-11100-0001-4---0---
2011100-1---201-1---
3-01--12-10---0-----
11423--00-2-1-111-2-
11-204--1-0030---0--
1-0-00--00--3-2-011-
-01---1-0203----12--
110----51-2---2-1---
03-211-213--043-2---
02--------011-----3-
0-231-1-2--10-313-10
---2-1-0-2--0-------
0-0111-2-1-3-6134--4

Generation = 8, Population = 89.
1--1-------13-------
-----1020---4-0-----
--10--1--1----2---1-
--------2--1------0-
-----2----1---1-----
31-----------0---0--
----3-0-0-----------
---2-4---1--32--22-0
-----------1-------1
1--2--1-----20-13240
-1-0--0----0-----01-
---41-----1---3-44-1
-2---1-------0------
--4--1---0-1---1--1-
0--2-----4--2-1---2-
-0-311-403---8136--4

Generation = 10, Population = 144.
-1---12---1331----0-
---03322-0-06-2-1-1-
-1-2---01-1---4-----
11---1-2202-6-2-11--
--1-3--0-1----1-2-1-
5-2--1--32--20--201-
--5-31--0--2--1----1
-----40---1-5--144-2
-1-10---11-1-0----21
103-----13-54-1-3-6-
---00---20-0---12---
14-4----25-00430--21
22----11-3--3-11-1--
20-433-13-01-2-15---
0-0----2--10213-----
---31--603232--3----

Generation = 12, Population = 168.
---2012-003----01-2-
1-103542-0-0-14-103-
--2420-21--0114-----
---201-4-2---0201310
21-1--1--11-2-3---31
52231--232----112-1-
33--5---22223-1--0--
-2-314-1--105-03-63-
-3-----1--1--02--1--
325-13-13-1-6-1-53--
1100231-423-42-1---1
14--2-1---1--4----43
-----2-----3-----1-1
----3---5--114-1-1-1
210-0312143043--10--
1-1--3-603-5-92-82--

Generation = 14, Population = 143.
-1-22321-2-----2-1--
-0--356212--7--110--
--24-2-43--0-1-----1
--14-1--44-27-20-33-
----4----3-0-13----1
---51--4------3-4130
------0-2--43-12223-
-205-61311--5-2---53
--1---1-12---24101--
3--41-3-35-6813-738-
-------6--504--1----
-4054233--3-165--4--
---------4-5-0--1--1
-1--55227-0-----7123
-----------065---24-
3--5--16-34--9-3--2-

Generation = 16, Population = 85.
--------------------
---13-------715----1
2---32----3---5-----
2---2---4--4-----55-
---2-2---5----5---5-
--3----4-4-04-3---50
--7------3-63---4-5-
-4-----3-----42--8--
3-----------52-----2
33---3-2--2-+----5--
--2--52---526--1---2
--05-23-----18--5---
---------41---1----3
41-----2--0-----7---
----------4---5-----
--35-5-81---2------5

Generation = 18, Population = 155.
1---44----4---1-----
212-357-2-1-9-521-41
4----43452----7-2-3-
4-144--6--24---12-51
31226----73---7-2-5-
-3---3--4-0-4----372
---352-0--363-2-4--2
2416------2-7-4-485-
5-2--11--3-3--4-113-
35-5--5-464----385-0
---0---7-----2-----2
16-7---42-401--1555-
--1--3321---5-1322--
6-55-532-1--244-7-34
--------266---5-2--1
--5-252+356-2-4-82--

Generation = 20, Population = 151.
3--44----46-------4-
4-423-----31-1-21---
42--5-5-7-422-9-2---
421-----4---9--3-673
33---2-2-95-3-7----3
-5--2-2-4--1----5--2
--8-52-03--6-0--6-74
243-2-2-114-9---6--4
--4323--251----23-32
37-7347-6-6-+3----+-
21-----95---7----114
3--9-336--6--96-7--4
3----35---2-5-15-254
6---655-8-032-6--3-4
--0--4----626--0--53
--5-45--5766-+-384--

Generation = 22, Population = 136.
5--4-5-1-6----2---4-
4-6-568--2-1--7----2
62---4-5-3--229-4--2
62--5---6-2---3-4--3
-5----222+-252--415-
--47--2-6----2527--2
-5---4--5-4850---3-6
4----7-4--4--4--6+--
---5----4-3---6--132
3-67----68-6-5-5+---
----36--5---9--1----
3-1-4--6-7---+-27---
-4-205--2--6-23--2--
--6---5-8--5-4--8--4
---4141326-----2237-
---66-3-7-8--+-3863-

Generation = 24, Population = 152.
7-0------8-5-3--1-40
42-47-+--241917--0--
-224--6-9543-2+0--42
----52---425-153-775
3--4732--+74-28--174
6---4-45--126--2758-
-5-4----7-4-----75-8
--47-9243---9-----5-
----341-6--3-3-----4
-7----83------4---+-
-13038-9--52--4--224
3--+44-6-----+7--664
-424-76---38-4---266
--67---3---7-671---4
--1--4---87----22-73
-0-6-6------3+53+---

Generation = 26, Population = 156.
93045-412+7--5---362
42-4--+3---1---3105-
722-7--5-5----+061-2
-43---177----3534-7-
574675-----6--815-7-
8-59-5-764-4-35-9-8-
35---61--4--5--2----
---73-4453519--4-+--
---6-6---75--3633144
4-78-68--9---56--5-2
3--2--39--7--2-2--2-
3-2----8-7--2+-3-866
3--627------6457----
-------3---9-----55-
213-362-3-9-7-6-24--
--7-------9--+-5-846

Generation = 28, Population = 137.
-5----432+--5544-38-
6--69-+5-----2---0-4
---57---+-5-3----142
7655------27+-----9-
-94------+------7-75
------5--4-6---3+5--
-7------94----3----8
-56-5-4-5---9-448-5-
-------2795-5-8-----
68--468---86+7--+7+4
-24-------74-2-4--45
3--+6-4---71----8-88
5-3-2-8-3-48------7-
7----5-3-21-47-29--5
4--456-4----766-4-94
4-9-7--+9-+-4--5+--8

Generation = 30, Population = 154.
-5---7--2-9-7--6-3--
--769-+-446-+----05-
-3---685-----3-----2
987--2-89-27+-53---7
59-----2-+776---9--7
8--9--59-42-----+793
-995--1-9--9--5--68-
-58759--547----4-+-4
--5--834--5--4-43-4-
-88+6-+38+---765+7+4
--63--396-----443-67
5----5-+---33+738--8
553849-3-6-8-658----
7----775-41+-7-----7
-2367--43+--9--3-5-6
--9---------6-----4+

Generation = 32, Population = 93.
----------+---5-----
--------4-6-----3---
7---7-----------6---
9----43-----+-7-----
7---------7-6-+-----
-75+-----------5+-+-
--+7----+-69------8-
-----9-----1+-5-----
54-7-8---+--66+---65
----8------7----+7+-
---34---6--6+4--5--9
-7--6--+2---3-7--+-+
---------8----78--8-
---78--7---+5-7-9679
-----6--------------
--+-974+-8-78+5-+86+

Generation = 34, Population = 132.
9---6---4-+---5-----
7----6--4-8-------6-
------+-----5-+---5-
99--5--+----+-956-9-
---87------8--+---8-
-9-+655----7-45-+8+-
3--77-2-+---6---8-+9
-69-6--4-571+6769+--
76--5+-------6+6416-
-+8-+6+3++-9-786+7+-
3-75-----3-6+----36-
--3--7-+-7-----38+-+
---94+-33-------23-8
-----7--962+7--4+6--
---7---4-+----73--+-
5-------+8+-8----86-

Generation = 36, Population = 159.
----6-4-----8---1-+-
-486+-+-6-+---73--8-
8--68------57-+---5-
-+--76--+5-8+-+-8-9-
9958953-2+--72+-+--8
99--655+7-3-8-5--8-3
---79---+--+-2-3--++
5---6+4--77----89+65
9-6-7--49+--68+-4-6-
8+8-+---+--+-7---7+-
3-9758--7386----7-6-
785+-95+-9945--5----
65-+-----9697-----9-
8-78-988-82+----+6--
-3-798--3+-3+8--4--7
--+--84++---8-7---6+

*** Life<FredkinCell> 20x5 ***

Generation = 0, Population = 23.
-----
---0-
--0-0
---0-
---00
-----
-----
--000
0---0
---0-
-0---
0---0
-0-0-
00-0-
-----
----0
-----
---0-
-0---
-----

Generation = 5, Population = 47.
-0120
---10
-03-3
-1-3-
-1---
-0-0-
-1---
4-300
3----
-21--
03-02
1-21-
---51
---5-
-1-2-
---0-
-10--
2-00-
00-20
--032

Generation = 10, Population = 53.
-314-
1---3
1--25
-2--3
212-5
----3
-4---
---31
4-1--
522-1
-40--
2-3--
-4-7-
242--
03-3-
40222
23--0
43013
0---0
--2-5

Generation = 15, Population = 50.
----2
---1-
4265-
5-46-
-3-3-
33--6
2-34-
--754
53--5
-3---
-731-
24---
37-93
--77-
-6---
61-5-
--022
--02-
-4060
0--6-

Generation = 20, Population = 54.
34--2
6-236
4386-
8---5
-4365
53-48
5-6-2
66---
-4-3-
-3---
-+42+
-7---
--6-8
6+---
-915-
916-5
8-2--
84--6
-7---
1--89

Generation = 25, Population = 53.
47-8-
----7
-4-8-
+7---
76-78
--349
77-4-
8--68
74238
--843
--5--
5--67
-8-+-
9---2
5+--2
---+-
-5-37
9--4-
2+38-
-4-++

Generation = 30, Population = 55.
----3
+3--8
899-7
--597
-77--
736-+
89-58
--97-
8--5-
---54
4+73-
-+--9
9-7-+
+-+83
5+--4
-57+-
--4-8
+6--8
-+3-5
---+-

Generation = 35, Population = 51.
6-6-6
---59
+---8
++-9-
---9-
9368+
9--58
+--9-
+--7-
9-+--
6+93-
-+--+
-9--+
----6
5+--7
+--+-
+-5--
+-568
--4++
65--+

Generation = 40, Population = 48.
--7-9
+-5-+
+--+-
--7+-
-8---
-48-+
++969
+--9-
-----
-6--5
7-+--
9+---
+--+-
++++8
-----
+5---
+7--+
+76-8
3+---
-+7++

Generation = 45, Population = 46.
-+--+
+58+-
-++-+
+--+-
-++--
-5-++
+-+9-
-8---
-95+-
-7-+-
9+-6-
++---
-+-+-
----9
5+-+-
+6++-
+---+
---8-
4--+-
--7--

*** Life<FredkinCell> 18x14 ***

Generation = 0, Population = 5.
--------------
---0----------
--------------
--------------
--------------
--------------
--------------
----------0---
--------------
------------0-
--------------
--------------
------0-------
--------------
--------------
--------------
--------------
0-------------

Generation = 5, Population = 64.
---0---0------
--0-0-0-0-----
---0---0--0---
---------0-0--
---0------0-0-
--0-0------0-0
---0--0-----0-
-----010------
-----0100---0-
------00-0-0-0
--------0-0-0-
--0------010--
00-0-----0100-
-00-------00-0
------------0-
-0----0-------
0-0-00-0------
-0---00-------

*** Life<FredkinCell> 16x19 ***

Generation = 0, Population = 14.
-------------------
---------0---------
-------------0-0---
-------------------
-------------------
---------0---------
-------------------
-----0-------------
------0------------
----0-------------0
--------0----------
------------------0
-------------------
-----------------0-
--------0--0-------
-----------------0-

Generation = 2, Population = 37.
-------------0-0---
-------0---0-------
-----------0-0-0-0-
-------------------
-------------0-0---
-----0-0---0-------
------0------------
---01--0-0--------0
----1--------------
--0--11---------0--
----------0--------
----0-----------01-
-----------0-------
---------------0-01
------0--11--0-----
---------------0---

Generation = 4, Population = 47.
-------------0-0---
-----0-------0-----
---------0-2-----0-
-----0-------------
------0------------
----10---0---1----0
--------0----0-0---
-0-------0--------0
--1-------0--------
0-------00----0-01-
----1---0--10------
-----1--------0-23-
------0------------
----0--------1----3
----0--1---11--0---
-------------1----0

Generation = 6, Population = 97.
---------0---------
---0-0-0---2---1---
------00-0-2-------
---01--0-1--------0
----1----1-0-1-0-0-
-001-20--0-----10--
--0--------0-2-0-0-
1--110-00--0-10--1-
1-------1--1-0-0---
011--221-2011--0-3-
------0--01--10----
0--00--010--11-0-5-
----1--1-------0---
--0--11----1-111-2-
--0--1----3---1--0-
----1------1---10-0

Generation = 8, Population = 47.
------0------------
-0--0----0-------00
-----0-20------1-0-
------------------0
-------------1-2---
-2-------2---------
--------1--2-------
-1-----------3---3-
1-------------1----
--3------22------3-
0-------1--2-1-10--
----------0-3----5-
-------------------
-------------3----4
0--1----0-------0--
----10---0---1----0

Generation = 10, Population = 105.
----1101-------0-1-
--11--12---3---21--
---0-0-4-10------2-
----1-----------00-
-----0-0-----1-----
-2-2---0---1-3---00
0-----0--01---01---
-112------01-----3-
--2---------01-2---
02--0--20-42-1-2---
--1---1--122---3-10
--0-----21--3102-51
---0-------0-1-0---
----11---00113-114-
012--30---3---2---0
--00321--0-----22-0

Generation = 12, Population = 117.
--1--1-11-0--1---1-
01--0---1-----1-3-1
-0-21-2-13-300---4-
-0-----------10-20-
0-----0--1-1--1--0-
--1-3-----0--5----2
0---01-----303-311-
-3---1---00-04---31
--4-3-----0--1-4--0
24---4---4---30--41
1-31---0-1-----3110
-1--011-41---30-3-1
0-------------1----
--2-31---22--33-1-4
--21---2---2-0-1--2
10---4--1-0-0-0-4-2

Generation = 14, Population = 135.
101-----1----------
21-1------1-12--30-
00-41-2---15-------
0212----1-0001----1
-0103102---113-----
0-1-532-0202--03---
--210--0-----515---
232-23--12--0---031
2--0-10021-----411-
2-4-0-4-2-4---2-143
30-----0-142----332
11------6---5-0456-
--1------0-102---0-
--41----144-2332---
-1--1------2--21122
-2--4-20-0--02-----

Generation = 16, Population = 50.
--------1--0-------
-----0-------4-----
-2-----625-5-------
-----------------21
--------1----------
----75-------7-----
------0-2----------
----23---2-------53
------2-2-------1--
--4-05---56-------3
------1-------1----
--1-1----2---------
-------------2-0---
-0---2---6---------
---2--1----2-223---
-4---4---0---------

Generation = 18, Population = 91.
-1----13--1--2-----
---2---4---3---2-11
---5-138--2--1-----
----1----------04-3
-0-----4-202-------
--139721-2-2---3---
----1---2-1-----1--
---4--1--212-5-00--
----3-2---2-------0
2--0276-3--32---35-
----1-1-----12-5---
12----30--10------2
---0-------------1-
-05-52-----3-------
-2--35--02-224--22-
-----------2-------

Generation = 20, Population = 111.
-1--2----1-01--2---
-3--2------------3-
-2-73-38----11-1---
----10---2---21-6-3
----4-1----23---1--
023-+---240--7---12
-04-3-0021351-2----
233-45--1-----1-0-5
--4-5---3-4--2-6--0
----27--3-------5--
--42----2--4-415--3
-4--223-7----5---72
------1-01-2----11-
-07-5----76--5----5
--23-----4---6---44
-50-65---1---4-----

Generation = 22, Population = 149.
--3-------1--31--2-
--33212--1---5125-3
--095---3-26-11-06-
0--3--1-221-2232--3
---24-1----4--33--0
2433+--1-60-17--1-4
1--1-2202-5-3-46--0
455-67-1-3--153-067
3060--2131-2----23-
2--1--84--8--3--573
406--0------14--4--
-4--42-1-2-1-7-----
----2-32--1--2---11
1--35--0-9--3--226-
14--461224-3-----64
3-0-874---1----3--4

Generation = 24, Population = 96.
1--0---------------
-45--1---13------33
24-9-24-56----3108-
--2-3-----1-44---35
01-----522-4-4-32--
--3--7---8--1----2-
---3--2-4----6-83--
-75--7----1------8-
-----------2----4--
-6--3----6-------95
42-3---023---6-76--
--1-42---23-7-----3
-----1-41----4---1-
--8--------------8-
3----8342--3---436-
--0--9---21--5-----

Generation = 26, Population = 155.
1-4---2-12----1203-
4-7-----1-54-6-353-
4-096269-63-3-5--+1
032-3-3-2--1--3-8--
-323--37-21--6-5--1
34-3-7----131903--5
1---4320-275--4--20
697--7-12------2--8
41----21-----21---2
-8523-85-8-52--37+-
6283-22-2554--198-4
35-2--4-82517-1-7--
-0-----6--2--4---3-
3-----------37-4--7
3-346-3---4--736--5
5--19+--143-25-4-1-

Generation = 28, Population = 125.
--61322----2-33--3-
44-------15-3---754
4-----8+68-7-3-11+-
-54--2---32--4---3-
254----9-4-5-8-7323
344-+-3-2+3-----22-
--6-632--495-66---2
8-------------4----
43---1-3-2-31---544
3+---9--4+--4-3-9+-
62+--4---5-6------4
-----2-----------7-
-2-12-------16--2--
519-723---7-------9
-----935--64---8--7
77--+----43-451---5

Generation = 30, Population = 144.
-2--3-4----23554---
46-5-3-521-537-375-
-529----6+3----33+-
1-4---3-----------6
2--4----3-1----9--5
3664-9-3-+-51+-3-26
1--3-32--4--3-----2
+---883---2---6-1--
-38-632----5--275--
--6--9+----66-339+7
6-+5-4-1--------+4-
--245-62845-9-24873
0--3-3-6-1-3------3
73--7430-+9--94-39-
-5---9-7-----9---77
9-12-+-2363-65-5--7

Generation = 32, Population = 44.
-------------7-4---
-8---------------5-
-----3-+-------3-+-
-------------------
-------------+-+---
-6---+-----------4-
------2------------
-+--8----4---6----9
5-------3-----4----
--6--+----9-------9
6-----3---------+--
----7-----7-9----93
-----------3-------
---------+---9---9+
4--6------------3--
---------6---5-----

Generation = 34, Population = 93.
-----2-3---2---4---
---6-----------4---
---9-3-+-+---4-3-+-
-----3-------------
-----339---5-+-----
-6--+--3-+---+-5--8
1---7--------869---
-+-5--52--3----229-
--9---3---5-1------
4+-45--56+9--4--++9
--+-3------6------4
-----48-86--98349+5
---4--4--2---8-----
----8--1-++-59--4+-
475--9-----5--3---8
-------2-------5-18

Generation = 36, Population = 103.
-----2-3-3-2-7-----
-8-----------8---7-
-5-+--9--+-----5-+-
-5--5----5---4----7
2-------45-5-+4+-2-
-67------+4--+----8
1-7--530--+----+44-
++--8---455-277-2-+
--9-------5613-9--6
6----+-------4--+-9
7--65-4---6-2---+-4
36--7-8------+---+5
1------62-----11---
--+-------+--95-6-+
--776-57----2-----+
----++----4-7----3-

Generation = 38, Population = 144.
-4----43---2-----5-
-+-83----1-6-+----6
65-+7------7-47----
---3--41-54----284-
-6-5-33-----4----2-
---6+--5--4---16--8
3--5-7-24-+--8-+---
-+96-8-3657----24--
5-91-4-34356--5-7--
8-76--+66+978--4-+-
-3+-56632--6-71-+-4
--3495+-+-82--3-9-5
-----458-3--29---4-
-4--944-3-+56+56--+
-87---79-47----84-+
---3++433-4--6-5538

Generation = 40, Population = 82.
3----3652-----55-5-
-+7--4----6--+---86
85----++-+---4-55--
----5-----6-6----48
-----------6-------
-----+---+---+----8
---5---------87+5--
-++-------9--9-----
7-------4----5-9---
--9-5----+--+----+9
---7-865-------++6-
----+-----+------+7
---5-------4-9-3---
----+----+---+----+
6--7--9----5--3-4--
--2-+----76--6-----

Generation = 42, Population = 142.
35814-65--2-4-77---
6------64-67----88-
--3+8-+--+-8-6----2
-7----5-26--6-4486+
26-5--39-----+4----
-778+-------3+-735-
32---9--4---5-7-764
+-+7-8--7--4-9-2-+-
7-+--5-5--66--59---
++----+7--+8-534++-
74--5--7-7-6-82+-86
------+-+----+-4++9
23-----9-4----1----
------61-+---+-77+-
69877+--35-54-394-+
+---+-645-8-9--5--8

Generation = 44, Population = 127.
3--1--85---44--9170
8+8--5---26--+--++-
+5--+4++7+5-4---6-4
295---5---7------6-
-----53------+4+-3-
----+----+5-3-2-55-
32-5-+-4--+679-----
++---8---7--3-8--+-
--+2-----4-837-+-5-
----6-+-------3--+-
74+8--79-7782--+-+6
47--+-+-+7---+--++-
4-------46-4-+---4-
7----5--4++-7-5-9-+
6---9+-+---74-5--8-
-----+--5-8---2----

Generation = 46, Population = 146.
5-81-3---4-6----3--
++--3-4-5-6-5-2--+8
---++--+-+---68---4
2+-464-------655---
------3+-7--4----36
-----+-74+-75-497-9
32-5-+3466+--+-+---
+-+---6--9-6--83---
84+-6-56--6--95+--7
--9--+-------535---
76-----+4-78--3-++8
---4-5+3-9--+-5-++-
44-536-+-----+13--4
-6+4+7--4++5-+7-9+-
---8-+9+46994-5+48-
+--4--84588-+-----9

Generation = 48, Population = 82.
76-3---6-4------3--
-+---7-------+----8
+6-+-5---+-9---67+-
----8----68-66-----
48----5+-9-6----4--
-97-+----+--5+---6-
------5-------7----
-------------+---++
--------------5-9--
--+-6+-------5-----
9-------6----93+---
------------+----++
---7-8-+---5-+---6-
-6+-+----+---+---+-
8----+++---+-+5-68-
-----+---+---7---3-

Generation = 50, Population = 155.
9693-4---4----8+-92
----5--7-2686+-5+-8
+64+-7+--+----+8-+5
----856348+---77-8+
-85-4-7+59---+-+446
4-99--49-+--7-5--6+
34--9-5677-68-7-7--
-+---9---+-64---4++
8-----5-4---4+5+9-8
+-+68-+8---9+7-6---
9-+9-+8+--8-3-3+---
-7---6---9+---65+++
-5-7-85-6----+-436-
7-+5+981-+--9+----+
8-9-+---5---4-7-8++
-825++-------------

Generation = 52, Population = 136.
-69-64+----768-+-+2
--9-5----4--6-3-+-8
+64++-++---+5-++8+7
4----76--8----7-9-+
5---6----+165+5+--8
--9-+-6--+------9-+
-485-+--79-6-+9-975
----8-----9---8-6++
+4-4-67--56-6+--96-
-+----+-6---+----+-
+-+--+-+-7+-5+--+-+
-----6--++---+6--++
-7-9-------5-+245--
-8+-+-+-4--------+-
-+-8+++-5---6+--++-
--4-++---+--+8----+

Generation = 54, Population = 160.
--94-4+-3649-+---+2
--9-58-8-4796-5-+-8
+-6+-8--8+--5-++---
4-759-6-6--1-------
----86----1-5+7--58
--+-++-+5+58--6-+7-
4--7-----9+69+-++97
-+--8-7--+--6-+48++
--+478-84--9--5--89
---8-++--++--836+--
+-++6-+-6--9--3-++-
--46+-+---+-------+
6-3-4+6+6-452-447--
9--6+-----+-+-98-+-
--9+++-+7----+8++-+
+946++--6+9-+84674-

Generation = 56, Population = 111.
-8-6-4---8-9--9+3+-
-----+----9--+-----
-6---+--8+---6--8+-
-+---8---9+-88---++
---6-68+-----+--45-
-+--++---+5-9+---9-
45-7-+---+-8-+--+9-
----------+-8------
+4-6--7+67----5----
--+-9+---++-++----+
+7-+-++-67---+5--+-
-96-+----+---+---++
8--9--8----5-+-69--
---------++-+-----+
-+-+-++-76---+--++-
--6-+----+-------6+

Generation = 58, Population = 157.
-8-6-6--58--8+--3+3
-+-9-+-8669+-+-7-+9
-8-----+-+7+-6-+--8
-+--+---79+---8-+++
69--+--+-+----8---9
-++--+6-6+7-++8--9+
--9-----9-------+98
-++-----9-+-8-+--++
+6+68--+-77-6-5----
++-8--+-7+---+46++-
+-+-6+++-9+95+7+---
6--7-7+4-----+--+-+
-84-5+--77-5---8+64
-+-----25-+6+++-9-+
++-+++--9-9+-+9++-+
+-----95--+3+--786+

Generation = 60, Population = 134.
-+-8--+65-59+--+-+-
----6-4--6--7-6----
+---+--------8++--8
------6-9-+-9------
8+57-78-6-3-7+-+679
5-+-+-8--+--+-8-+-+
5-989-6-----+-9++-+
--+-+97-+-+-+-+-9--
+6-8-9------8+-+-8+
----+-------------+
+-----++8--95-----+
-98-+-+-+-+-+-6-+++
88-+7-8+7-672-4+-66
------+-7-+-+----+-
+-9-+--+--+---+-+-+
-96-+++-6-+-+95-+--

*** Life<FredkinCell> 16x5 ***

Generation = 0, Population = 18.
-00--
-00-0
---0-
0----
---00
-0---
---0-
-00--
-----
-0-0-
----0
---0-
-----
--0--
-----
-----

Generation = 4, Population = 35.
30---
-0---
-10--
-0--1
11-2-
-0301
----1
-1-10
---30
--20-
0-01-
-112-
-----
01-30
----1
--01-

Generation = 8, Population = 42.
41-21
-0110
-----
0-011
5-1--
----2
-330-
12--2
-10--
--220
0-23-
1-54-
---02
43-52
---15
--43-

Generation = 12, Population = 47.
-2022
----2
2-3-2
11-33
---75
443--
-43-4
34---
-116-
214-2
11-71
-2--0
21-2-
55-7-
---35
0083-

Generation = 16, Population = 38.
63--2
-4--3
---3-
---54
6-285
-----
---24
75345
---7-
-255-
1-4-3
43-5-
----2
-51--
-157-
-09-0

Generation = 20, Population = 42.
-31--
2-4-4
35---
-2--5
65--5
--734
----4
8--45
1-4--
2-975
-46-5
476-2
3-37-
56-8-
-----
41-62

Generation = 24, Population = 35.
74---
4--4-
-----
-3469
----5
--+-6
----5
--567
27-73
45+95
-58--
-----
---8-
---+6
-47-9
65+--

Generation = 28, Population = 39.
-83--
8----
46--4
-7---
8-5+6
-8---
2+---
-6---
28---
-5+--
3-8-5
6+-66
45--4
7-3-8
-57--
89+93

Generation = 32, Population = 33.
8-575
+86-5
-66-4
-----
8-7+-
7-+--
----6
97-99
---96
--+--
4-9--
-++--
----5
8--+9
-----
--+--

Generation = 36, Population = 44.
++--6
----5
47-96
4+-7+
---+-
-9+-6
-+4-8
+-+++
----7
5-++-
4-+-9
--+9-
8-4+9
+--+9
2-9--
-+++-

Generation = 40, Population = 39.
-----
+9---
-8798
-+4--
+8-+-
+9-8-
---3+
+++++
----+
-7---
65--+
-+-9-
---++
-9-++
6-+-+
-+++-

Generation = 44, Population = 46.
+-5-+
-9795
-99--
--5+-
-98+-
+++87
-----
-++--
-+9-+
89--7
-6+++
7+-+8
9-4++
+9---
-5+--
++-+-

*** Life<FredkinCell> 1x16 ***

Generation = 0, Population = 8.
--0-0000-0--00--

Generation = 2, Population = 10.
0-00-00-001---10

Generation = 4, Population = 9.
-022-22---31-2-2

*** Life<FredkinCell> 13x11 ***

Generation = 0, Population = 19.
--------00-
----------0
-0--------0
---------0-
-----------
00------0--
---00------
----0------
-----------
0----00----
-----------
--0---0----
0---0------

Generation = 3, Population = 70.
0-0--01-3--
-0-0--0----
000-0--00-3
1-0-0-0120-
020--0000--
---2-01002-
--2----0000
0----2-0-0-
00--2-00---
1001013-10-
20-----0---
0---02---0-
---0-0200--

Generation = 6, Population = 58.
--11-------
2-11-1---12
--0---0----
---0--0---1
1--011--30-
2--3112----
--31011----
-1--2--1-3-
11-1--100-1
2-0-3-32-12
31---0--1--
----3-0--1-
--00----1-1

Generation = 9, Population = 77.
2-1234-13--
---11------
-2---21--33
---11-3122-
---1-10-411
--241-20-41
3-6-1-12-22
1-0032-2-31
-1---0103-2
210-3-3----
-40--0--10-
--003-00--1
103-2---202

Generation = 12, Population = 60.
-24-4--26--
24---3--4-3
--4------44
1-0--------
--12----41-
-4--13---7-
-2--1--3---
42---2-----
3401402-625
5----34--52
34---1--23-
2-1--2----4
-03-3--1503

Generation = 15, Population = 65.
3--4--1--2-
--3---427-4
-35-2-1-17-
-21--051---
53233--0-2-
4725---0--2
5-8----315-
45-0--2--34
-7---0---5-
--0-----362
---1-202---
-----5-32-5
3--4-13--14

Generation = 18, Population = 78.
32-----562-
-56113-37--
-46-332----
15--338254-
6326--2--31
7+252641382
6---33--1--
-52-8-23---
-8---13--6-
5-0-4-424--
--211--3-5-
4-----34-38
3355--43---

Generation = 21, Population = 67.
---66-259-2
46-1-47-8--
-5-------85
---146-264-
9---453-7--
----3--1692
-2-5441-2-5
--5-93---5-
--2-6-4----
-4--76-----
-7222--3-62
503-3-4---+
--6-515-7-4

Generation = 24, Population = 69.
4---76--+-2
--9-2-8-945
---3-42---6
----7-+--42
+336-86---3
-+4-3+---+-
---655---56
56--+4--267
-9-2--4-8-5
77----4--+5
--535-2--92
6---4-7-33-
549-----84-

Generation = 27, Population = 71.
4-768---+33
--+-55+495-
2--34-5--87
2-5--7-6---
+66-6----76
-+-6--5----
+---5645-67
669-------+
---373-39-5
+-4-++--6+-
--64-4--4+2
-----7+-4-+
65+75------

Generation = 30, Population = 73.
43869----44
76-46-+5+--
--6----348+
--62-----5-
-7----82--9
-+-75-6-8--
--+886-8-7-
-7--+55----
6+--+--4-96
-873--65-+8
--7---3-5-3
9--368-67-+
95-86-74-57

Generation = 33, Population = 83.
5-8--956+57
---4-5+6+-9
46-7-77379+
2---9-+--6-
-8--6883---
-+47-+---+4
+5-+8---4--
68+1+6-428+
-+-4-3--9-6
---4++--++9
69--6----+3
+-5--9+-8-+
96+8-1+-+-8

Generation = 36, Population = 67.
-5879+8-+-7
8---66+--79
--8847-4-+-
5----7+-9-3
------9--8-
++---+--8-5
-8+---797--
68--+----9-
8---+-7-9+7
--+-++8-+-+
-+987-468-6
--8------8-
9-++----+--

*** Life<FredkinCell> 7x6 ***

Generation = 0, Population = 21.
-0-000
-00-00
0-0-00
----00
0----0
--0--0
---000

Generation = 3, Population = 18.
21--1-
-0---1
--10-3
-----3
000--1
2----0
--11-0

Generation = 6, Population = 20.
322-21
0--01-
-2---4
---30-
--3-2-
---200
0-2--1

Generation = 9, Population = 23.
42---4
3-03--
13-214
--240-
--3031
---330
-0-3--

Generation = 12, Population = 24.
-354--
-----4
-4454-
132-13
03-13-
42146-
--3--2

*** Life<FredkinCell> 11x13 ***

Generation = 0, Population = 25.
-------0-0--0
---0---------
--0----------
------0------
------00-----
--0-0-0------
----0-0-000--
----0-----0-0
-0-----0-----
--0----0-----
--00---------

Generation = 2, Population = 56.
--0--0----11-
-0---00------
0---0-1--0--0
--10--2-0----
--1--12---0--
0-0-2---1-1-0
-01-0-20--011
--0-2--11-2--
--0-101-1-1--
0----0---00-0
0-0210-1-----

Generation = 4, Population = 62.
--01-2000-33-
--000-01-----
0---0--10-1-0
--1-0-------1
-110-----1211
---0--001-1--
0-30004-2-2--
0---------2-1
-12--232---1-
2--11--2---0-
20--1---111--

Generation = 6, Population = 65.
-10-14-2--55-
11--0-0-10--1
01----11----2
1-----2-1---1
133-0-3-03411
111---0--1--2
-1----4--0---
--0-3-0----1-
1340--3230---
-1----0---0-1
--22310--1--0

Generation = 8, Population = 54.
-------21-77-
---22-22---0-
--101-33--1--
1-----2-----1
3--0-------13
1--14--1--1--
--------4-3-2
------0-2-4--
----145232131
--22--0---01-
--423-02--21-

Generation = 10, Population = 74.
--1225----971
120-2---2---3
-232--53211--
--3-2-4-2--03
35-20242044--
-2----1--23--
2--210-0-13--
1-1----2--411
-----4525---3
33---00-112-2
22-4-10-32---

Generation = 12, Population = 65.
1-12------+71
--22--3-4--1-
--34----2-3--
----4-4---1--
--4--24-26424
3--1--3-1-513
----1-5-5-51-
3-1-4-----4-1
-5-1-4---21-3
----2-24--4-4
--44410332212

Generation = 14, Population = 69.
111-46---1+93
34--41--62---
-3-41----15-2
2---4-6---1--
5-4-1----6---
-4--50---4--3
-2-33-7-71713
3--1--22--42-
-561---464343
3----12--3--4
2--46-253----

Generation = 16, Population = 59.
1-32462-21+--
----6-4----3-
--36--633---2
----4-6-2----
----1--23----
--117-31--6-5
3-4--2--939-3
--1---2-----3
---13-7-665-3
--3-3-253---6
--6---2-5--13

Generation = 18, Population = 69.
12-26--2-1-9-
--3------4---
-558-1-33-5-2
---16--02--15
6-53--62-----
46--7-5-248-7
--4-3--1+3923
4--1--------3
267-3-75-67--
4----24-54---
3-868-4-7-433

Generation = 20, Population = 63.
-454873233+-5
4--4----7---5
2-7----33--1-
4---8-7-2-2--
--7324--4--4-
---1----2----
3344-3-3+5+2-
6-3-6--------
4----5-----64
--4-5-6-5-537
---6-2-59--35

Generation = 22, Population = 53.
--56873---+-7
-55-72--7-1-7
-67-31-5-2-13
----+-----2--
8-9-4--3-----
-82--1--2----
33-4--8---+4-
--52------635
-7-2---6-----
----5----4---
42----6-9---5

Generation = 24, Population = 54.
2-5--9---4-9-
6-7----37-3--
--785--5---3-
--4-+-7-2-2--
8-+4---3--5-4
5-21--61--928
-----3---6--4
7-7-------6--
-7------77975
---2--76--7-9
--+-+--6-----

Generation = 26, Population = 77.
4-7--9-3---9-
-----4---6--7
37985277-2634
6-42--7-2-42-
-5-4-5-54-556
782-9-8-3-9--
435----5+6+-6
7---6---3--46
--84358-9--75
444-5----4---
54---368+-636

Generation = 28, Population = 63.
-57--+43-5+-8
7-7---4-9---9
3-++--9-5--54
8---+---4----
-7-665-7---7-
--2-9-8------
-5-6-3--+6+5-
9-----4-3-7-8
57-4--+6+--75
4--3--877---+
-4-6-56---8--

Generation = 30, Population = 62.
-7-7---55----
9-7-8-4-----9
-7-+54--5-87-
----+---6-5-6
9----7-7-77-8
7-2-+---4-+-9
55--5----6+7-
---3--633---+
79864----8-97
-65-7----59--
54--+---+-84-

Generation = 32, Population = 54.
-7-79+57-7-9-
----+-4------
3-++---9-----
--4---8---5--
--+-------97-
---1--814-+--
575-749-+8+-8
+---8-8------
-+-846+8+-++7
6-5-7------4-
7-+----------

Generation = 34, Population = 67.
5----+--67---
----+---+-3--
---+-5+9--9--
+--3+--17-7-7
+8-7-768--+--
893---8--6--+
-77774+7+--88
--84---3--85-
--+--6+8+9+-9
8--------5---
94-8-668+-867

Generation = 36, Population = 56.
--7----969-9-
+-75+--3-----
----5-+-7-9-5
--5-+-9---7-7
+------858+9-
8--2+--2--+--
---9---9-8---
+-+-8-9-5----
--+958+--+++-
+--4------+--
---8+-68-3-6-

Generation = 38, Population = 60.
6-9--+---+--+
-57------85-+
4---5-----+--
+-----+------
+-+968---8-+-
-+----9--7+--
577+84+-+8-8-
----+--45-9--
8+++78---+--+
-8--949-----+
-5--+78-+-+6-

Generation = 40, Population = 61.
---9-+---+-+-
---6+-54+-53-
6--+5-+-7--9-
+---+-+-8---8
--+-6---6-+--
+--2--+-4-+3+
-----4--+8+-9
--+-+---5----
++++78+--+-++
--6---9-----+
+--9+-89+--8-

*** Life<FredkinCell> 19x16 ***

Generation = 0, Population = 15.
--0-------------
----------------
----------------
--0------------0
-0--------------
----------------
--0-------0-----
-0--------------
---0------------
----------------
-00-------------
----------------
-------0------0-
----------------
----------------
----------0-----
--00------------
----------------
----------------

Generation = 4, Population = 45.
00----0---------
----------------
----------0-----
00----0----0-0--
-002-0----------
----------------
201-----------0-
-11--1---------0
-1------------0-
----------------
111--11---0-----
-1--------0-----
--21------01--0-
----------------
-12-------------
------0-------1-
2-----1-------0-
----------------
--22------------

Generation = 8, Population = 44.
--202-----------
----------------
--1-------------
--2-0--0-21----0
-----0-0-0----0-
----------------
----1-----0---0-
-----2---01-----
-----------0----
----------------
----13---12-----
--1------------0
-3----2---0----0
----------------
---1------0-----
-10-------1---2-
----2-----01----
----------------
-34----1------2-

Generation = 12, Population = 96.
--6--33-01----0-
----------------
3-53--2---0---0-
---2----043---0-
-13-02---20--10-
----------------
3-3-110-22------
-2--3210--2--00-
-2---42--12---2-
----------------
25-5252-13---0--
022--00--1-0-20-
-43-113----3-11-
----------------
-34-204--11-----
122--0----2----1
3-2-----3-0-----
----------------
37--100---2---4-

*** Life<FredkinCell> 4x4 ***

Generation = 0, Population = 11.
-0--
0000
0000
0--0

Generation = 4, Population = 9.
2-2-
0022
--4-
2--2

Generation = 8, Population = 9.
6-6-
0026
--8-
2--2

Generation = 12, Population = 9.
+-+-
002+
--+-
2--2

Generation = 16, Population = 9.
+-+-
002+
--+-
2--2

Generation = 20, Population = 9.
+-+-
002+
--+-
2--2

Generation = 24, Population = 9.
+-+-
002+
--+-
2--2

Generation = 28, Population = 9.
+-+-
002+
--+-
2--2

Generation = 32, Population = 9.
+-+-
002+
--+-
2--2

Generation = 36, Population = 9.
+-+-
002+
--+-
2--2

Generation = 40, Population = 9.
+-+-
002+
--+-
2--2

*** Life<FredkinCell> 6x6 ***

Generation = 0, Population = 23.
00-000
0-00-0
-0--0-
-0-000
----00
000000

Generation = 3, Population = 22.
0-0--1
103-03
1-1010
01-11-
-----3
31-03-

Generation = 6, Population = 18.
1---04
---206
2-232-
142---
--21--
-40-4-

Generation = 9, Population = 15.
2-----
--430-
-4---0
--313-
0-5-34
----40

*** Life<FredkinCell> 17x13 ***

Generation = 0, Population = 20.
-0-----------
--------0----
-----0-------
-------------
---00--------
0----0-------
-----0-------
-0----0-----0
----0--------
-------------
-----------0-
---------0--0
0------------
-0-0---0-----
-------0-----
-------------
-------------

*** Life<FredkinCell> 8x8 ***

Generation = 0, Population = 23.
--00-0--
--0-0-0-
0----00-
---00-00
-----000
--0----0
------00
--00-0--

Generation = 3, Population = 35.
-2-1----
20--1-12
1---2---
012---10
1-0211--
1----02-
-0001-30
1211100-

Generation = 6, Population = 30.
--0---0-
--4--1--
122-5330
----202-
20-2--1-
40100--0
--1---6-
--4-411-

Generation = 9, Population = 34.
--1-2-02
40-3344-
433--46-
-2412---
202--123
4-4-3---
0--2--9-
2-7-5---

Generation = 12, Population = 31.
-5-1-01-
5-56--7-
5--0--63
334-5--1
23-51-2-
5-----4-
00----+4
---36-3-

Generation = 15, Population = 31.
15-25--3
8-67---5
-4-16-6-
4-7---6-
--3-2354
-555--5-
-3-2----
5696----

Generation = 18, Population = 30.
-8----14
--7-7-88
-44195--
5-----74
-3----55
7---4---
0-33--+7
89+79---

Generation = 21, Population = 31.
-822---4
+--8-888
7-----94
--9--48-
--384-6-
-686507-
0-----+-
-9+-+--0

Generation = 24, Population = 35.
1--281-7
---+9++-
---1+--4
57--95-4
-46-44-7
-7+7---0
-33-31-8
9--8-26-

Generation = 27, Population = 40.
--23-2-7
+0++9---
--72-8--
88+-+595
7-6+--7-
-8-870--
-43441++
9++9+-9-

*** Life<FredkinCell> 12x20 ***

Generation = 0, Population = 8.
0-------------------
--0-----------------
--------------------
--------------------
----0---------------
-----0-----0--------
--------------------
--------------------
--------------------
-----------------0--
--0-----------------
----------0---------

Generation = 4, Population = 28.
--1-----------------
3-1--10----0--------
2-------------------
--------------------
--------0-----------
-00----0-0-----0-0--
--0-----------------
----------1---------
----0---------------
-----0----01-0-----0
0-0---0-------------
------0-------0--0--

Generation = 8, Population = 31.
------0-1-----------
----12----10-----0--
--1-1---------------
----------1---------
--2---------0-------
-203------3--0-----0
2-2-----------------
-----------------0--
0-------------------
--1------1-----2----
----2-----0---------
--1--1-----0------1-

Generation = 12, Population = 63.
--6-------3---------
5-45143242-1--00-0--
5-1-----------------
------2-------0--0--
----------------0---
160-3--1--32--0--0--
4---2-0---0---------
--1--0----12-1----00
----2-------0-------
30-0--2---3-------0-
--2-2-1-0-0---0-----
211---40------0--11-

Generation = 16, Population = 30.
--7-----------1-1---
----------6-2-----1-
--------------------
-----3----32--------
--6-1-----3---------
---6-----1---1---0-1
--------------------
--1-----------------
3-------------------
-2---1-3---4--------
0---4-------0-----0-
--2-0---------4-----

Generation = 20, Population = 74.
0-7-1-0-----4-----1-
---5--4-546-21--31-0
--2-----------2-2---
-22---23-1----10----
0-8-----2-------0---
-8-------2370--1--21
9---5-------1-----0-
2-1-020---23--2-----
----------2---------
--4-23-3---4-233-2-1
--5---------1-2-3---
-43--6652-22------2-

Generation = 24, Population = 103.
0---3-1-4-5-----1-3-
-16517-2-473-25--521
8-4-------1-0-----0-
-6-136----44-21---02
----2-----5-1-----2-
-+4864---44-2111-133
+-8-6-------2-1-0-2-
-5--22-2--24--------
4-2---1-3-----0-0---
-582-7---27-53-4--02
--6-8-3-0-2-1-3-----
--432+6--1-451---444

Generation = 28, Population = 98.
--+-4-3-6-9-------7-
---7---29-9-4--5---5
+---6-1---3-1-7-3-1-
38--5-761--6--------
1-+-4-5---6---1-1---
----8-----4-4-3-23--
+-+-----2-2-4---0-4-
3622-4-21-363--1-0--
6---3-1---3-3-------
66----836-8--56-1-44
1-6-9-7-0-3-1-3-----
-7-34+67-33665748---

Generation = 32, Population = 29.
----5---8-+---------
------7-----6-------
--------------------
--6--------------4--
3-+-6---------3-----
-+-+------4----3---8
+-------------------
--4-------5---------
--5-----------------
-------4-----7---3--
----+-9-----5-------
6----+-----6--------

Generation = 36, Population = 66.
--+---3-9---8-------
-397--7-+---7--64--5
+---9---4-6---------
8-8---+---9--7-----4
------8-----------3-
-+---8-----76343---8
--+---3-----4-------
--6--5-----6--6--0--
--7-4-2-------0-----
77---8---79--7-5-3--
--6-+-9---5-5---3---
-8--6----57--5-4-7--

Generation = 40, Population = 75.
--+---------+---1-8-
87-+7--5--+--4+7-9-6
+-+---4-----3-9-----
9-9-6+---4+7---2-6--
--+-7---5-8-5-----3-
3-6+--53-5-985---74-
----------4-6-------
--7-5--4--8--7---24-
--9-----5-----------
--9--+9--99-7------7
--7-+-------5-5-----
--9---9-+-8--7-4-7--

*** Life<FredkinCell> 4x3 ***

Generation = 0, Population = 10.
00-
00-
000
000

